<?xml version="1.0" encoding="UTF-8"?>
<svg width="180px" height="240px" viewBox="0 0 180 240" version="1.1" xmlns="http://www.w3.org/2000/svg" xmlns:xlink="http://www.w3.org/1999/xlink">
    <!-- Generator: Sketch 54.1 (76490) - https://sketchapp.com -->
    <title>Artboard</title>
    <desc>Created with Sketch.</desc>
    <defs>
        <linearGradient x1="64.9377795%" y1="51.4401721%" x2="34.8689417%" y2="53.8701405%" id="linearGradient-1">
            <stop stop-color="#E65124" offset="0%"></stop>
            <stop stop-color="#9C9400" offset="37.2123971%"></stop>
            <stop stop-color="#27953E" offset="58.3987801%"></stop>
            <stop stop-color="#53479E" offset="100%"></stop>
        </linearGradient>
        <linearGradient x1="65.9535867%" y1="51.4401721%" x2="33.839991%" y2="53.8701405%" id="linearGradient-2">
            <stop stop-color="#E65124" offset="0%"></stop>
            <stop stop-color="#9C9400" offset="37.2123971%"></stop>
            <stop stop-color="#27953E" offset="58.3987801%"></stop>
            <stop stop-color="#53479E" offset="100%"></stop>
        </linearGradient>
    </defs>
    <g id="Artboard" stroke="none" stroke-width="1" fill="none" fill-rule="evenodd">
        <g id="Group" transform="translate(-13.000000, -14.000000)" fill-rule="nonzero">
            <polygon id="Path" fill="url(#linearGradient-1)" transform="translate(20.414214, 21.000000) rotate(-135.000000) translate(-20.414214, -21.000000) " points="12.8012042 3 10 5.8012042 25.1987958 21 10 36.1987958 12.8012042 39 30.8284271 21.0272229"></polygon>
            <polygon id="Path" fill="url(#linearGradient-2)" transform="translate(186.128107, 246.128107) scale(1, -1) rotate(-45.000000) translate(-186.128107, -246.128107) " points="179.215646 228.086368 176.387219 230.914796 190.89581 245.423387 175.340664 260.978533 178.531977 264.169846 196.91555 245.786272"></polygon>
        </g>
    </g>
</svg>