<?xml version="1.0" encoding="UTF-8"?>
<svg width="36px" height="29px" viewBox="0 0 36 29" version="1.1" xmlns="http://www.w3.org/2000/svg" xmlns:xlink="http://www.w3.org/1999/xlink">
    <!-- Generator: Sketch 54.1 (76490) - https://sketchapp.com -->
    <title>Shape</title>
    <desc>Created with Sketch.</desc>
    <defs>
        <linearGradient x1="0%" y1="8.86451319%" x2="78.7497223%" y2="79.156165%" id="linearGradient-1">
            <stop stop-color="#E65124" offset="0%"></stop>
            <stop stop-color="#9C9400" offset="39.1200864%"></stop>
            <stop stop-color="#27953E" offset="64.1025473%"></stop>
            <stop stop-color="#53479E" offset="100%"></stop>
        </linearGradient>
    </defs>
    <g id="UI-of-the-day-#23" stroke="none" stroke-width="1" fill="none" fill-rule="evenodd">
        <g id="Book-page-Copy-7" transform="translate(-101.000000, -143.000000)" fill="url(#linearGradient-1)" fill-rule="nonzero" stroke="url(#linearGradient-1)" stroke-width="0.5">
            <path d="M134.859,147.651002 L132.475689,147.65089 L132.475689,145.228636 C132.475689,144.674072 132.062424,144.202907 131.503773,144.120857 C131.406238,144.106471 129.0844,143.775351 126.288511,144.27484 C123.171626,144.831652 120.685856,146.204798 118.999943,148.280647 C117.313915,146.204798 114.828145,144.831652 111.711375,144.27484 C108.915371,143.775463 106.593533,144.106471 106.496113,144.120857 C105.937461,144.203019 105.524197,144.674185 105.524197,145.228636 L105.524197,147.65089 L103.140885,147.65089 C102.510914,147.65089 102,148.152515 102,148.771145 L102,169.879745 C102,170.242448 102.178814,170.582672 102.480005,170.792853 C102.781196,171.003035 103.167329,171.056985 103.516143,170.93762 C103.601772,170.908509 112.151313,168.043751 118.526463,170.898843 C118.82731,171.033607 119.17269,171.033607 119.473537,170.898843 C125.830829,168.051843 134.398686,170.908734 134.483857,170.93762 C134.606119,170.979431 134.732732,171 134.858886,171 C135.092764,171 135.324238,170.929415 135.519995,170.792966 C135.821186,170.582785 136,170.242561 136,169.879858 L136,148.771257 C135.999886,148.152627 135.489086,147.651002 134.859,147.651002 Z M105,168 L105,149 L106.221109,149 L106.221109,164.329682 C106.221109,164.664166 106.363677,164.981788 106.610217,165.200427 C106.856757,165.419066 107.184652,165.517124 107.50692,165.468268 C107.568808,165.459028 112.440644,164.772504 116,167.279173 C111.615506,166.509605 107.227298,167.399753 105,168 Z M117,167 C115.413501,165.614775 113.347021,164.678086 110.884713,164.245176 C109.699736,164.036754 108.600392,163.97601 107.721281,163.97601 C107.460281,163.97601 107.218639,163.981402 107.000114,163.989875 L107.000114,147.015364 L107,147.015364 C109.181265,146.920287 114.487474,147.145656 117,151.261606 L117,167 Z M121,151.258402 C123.50353,147.159196 128.818051,146.923543 131,147.013908 L131,163.989241 C130.04539,163.952039 128.651909,163.974272 127.115287,164.244596 C124.652979,164.677597 122.586499,165.614373 121,167 L121,151.258402 Z M122,167.279861 C125.558605,164.771676 130.431384,165.458897 130.492126,165.468137 C130.815073,165.517918 131.142632,165.420436 131.389876,165.201911 C131.63712,164.983155 131.779303,164.664839 131.779303,164.32966 L131.779303,149 L133,149 L133,168 C130.772778,167.399519 126.384252,166.509018 122,167.279861 Z" id="Shape"></path>
        </g>
    </g>
</svg>