<?xml version="1.0" encoding="UTF-8"?>
<svg width="20px" height="21px" viewBox="0 0 20 21" version="1.1" xmlns="http://www.w3.org/2000/svg" xmlns:xlink="http://www.w3.org/1999/xlink">
    <!-- Generator: Sketch 54.1 (76490) - https://sketchapp.com -->
    <title>calendar</title>
    <desc>Created with Sketch.</desc>
    <defs>
        <linearGradient x1="26.2646872%" y1="3.00500034%" x2="76.0941117%" y2="96.2339186%" id="linearGradient-1">
            <stop stop-color="#E65124" offset="0%"></stop>
            <stop stop-color="#9C9400" offset="39.1200864%"></stop>
            <stop stop-color="#27953E" offset="64.1025473%"></stop>
            <stop stop-color="#53479E" offset="100%"></stop>
        </linearGradient>
    </defs>
    <g id="UI-of-the-day-#23" stroke="none" stroke-width="1" fill="none" fill-rule="evenodd">
        <g id="edit_profile" transform="translate(-1099.000000, -793.000000)" fill="url(#linearGradient-1)" fill-rule="nonzero">
            <g id="Group" transform="translate(482.000000, 560.000000)">
                <g id="calendar" transform="translate(617.000000, 233.000000)">
                    <path d="M7.23238494,11.5655031 L7.23238494,13.2257485 C7.23238494,13.4886994 7.02485356,13.7015337 6.76878661,13.7015337 L5.15100418,13.7015337 C4.89523013,13.7015337 4.6876569,13.4886994 4.6876569,13.2257485 L4.6876569,11.5655031 C4.6876569,11.3028957 4.89523013,11.0901472 5.15100418,11.0901472 L6.76878661,11.0901472 C7.02485356,11.0901472 7.23238494,11.3028957 7.23238494,11.5655031 Z M11.2754393,11.5655031 L11.2754393,13.2257485 C11.2754393,13.4886994 11.0678661,13.7015337 10.8123013,13.7015337 L9.19430962,13.7015337 C8.93853556,13.7015337 8.73096234,13.4886994 8.73096234,13.2257485 L8.73096234,11.5655031 C8.73096234,11.3028957 8.93853556,11.0901472 9.19430962,11.0901472 L10.8123013,11.0901472 C11.0678661,11.0901472 11.2754393,11.3028957 11.2754393,11.5655031 Z M15.3187029,11.5655031 L15.3187029,13.2257485 C15.3187029,13.4886994 15.1111297,13.7015337 14.8553556,13.7015337 L13.2375732,13.7015337 C12.9815063,13.7015337 12.7739749,13.4886994 12.7739749,13.2257485 L12.7739749,11.5655031 C12.7739749,11.3028957 12.9815063,11.0901472 13.2375732,11.0901472 L14.8553556,11.0901472 C15.1111297,11.0901472 15.3187029,11.3028957 15.3187029,11.5655031 Z M7.23238494,15.7156442 L7.23238494,17.375589 C7.23238494,17.6383252 7.02485356,17.8511595 6.76878661,17.8511595 L5.15100418,17.8511595 C4.89523013,17.8511595 4.6876569,17.6383681 4.6876569,17.375589 L4.6876569,15.7156442 C4.6876569,15.4526074 4.89523013,15.2400307 5.15100418,15.2400307 L6.76878661,15.2400307 C7.02485356,15.2400307 7.23238494,15.4526074 7.23238494,15.7156442 Z M11.2754393,15.7156442 L11.2754393,17.375589 C11.2754393,17.6383252 11.0678661,17.8511595 10.8123013,17.8511595 L9.19430962,17.8511595 C8.93853556,17.8511595 8.73096234,17.6383681 8.73096234,17.375589 L8.73096234,15.7156442 C8.73096234,15.4526074 8.93853556,15.2400307 9.19430962,15.2400307 L10.8123013,15.2400307 C11.0678661,15.2400307 11.2754393,15.4526074 11.2754393,15.7156442 Z M15.3187029,15.7156442 L15.3187029,17.375589 C15.3187029,17.6383252 15.1111297,17.8511595 14.8555649,17.8511595 L13.2375732,17.8511595 C12.9815063,17.8511595 12.7739749,17.6383681 12.7739749,17.375589 L12.7739749,15.7156442 C12.7739749,15.4526074 12.9815063,15.2400307 13.2375732,15.2400307 L14.8555649,15.2400307 C15.1111297,15.2400307 15.3187029,15.4526074 15.3187029,15.7156442 Z M18.2114644,2.33422086 C19.1873222,2.36441104 19.9891632,3.19320245 19.9891632,4.21189571 L19.9891632,19.073411 C19.9891632,20.1094969 19.1680753,20.9636258 18.15841,20.9636258 L1.84794979,20.9636258 C0.836778243,20.9636258 0.0171966527,20.1112577 0.0171966527,19.073411 L0.0171966527,4.21189571 C0.0171966527,3.19320245 0.819079498,2.36441104 1.79493724,2.33422086 L1.79493724,4.87011043 C1.79493724,6.01630675 2.70083682,6.93996319 3.81736402,6.93996319 L5.0934728,6.93996319 C6.20995816,6.93996319 7.12786611,6.01630675 7.12786611,4.87011043 L7.12786611,2.32511656 L12.8784937,2.32511656 L12.8784937,4.87011043 C12.8784937,6.01630675 13.7964435,6.93996319 14.9130962,6.93996319 L16.188954,6.93996319 C17.305523,6.93996319 18.2114644,6.01630675 18.2114644,4.87011043 L18.2114644,2.33422086 Z M17.6188703,18.1479509 L17.6188285,10.4714417 C17.6188285,10.0227546 17.2645188,9.65888344 16.827364,9.65888344 L3.14410042,9.65888344 C2.70690377,9.65888344 2.35263598,10.0227546 2.35263598,10.4714417 L2.35263598,18.1479509 C2.35263598,18.5964663 2.70694561,18.9603374 3.14410042,18.9603374 L16.8274059,18.9603374 C17.2645607,18.9603374 17.6188703,18.5964663 17.6188703,18.1479509 Z M3.81288703,5.58046012 C3.42979079,5.58046012 3.11924686,5.26215337 3.11924686,4.86899387 L3.11924686,0.711723926 C3.11924686,0.318521472 3.42979079,-1.1812773e-13 3.81288703,-1.1812773e-13 L5.0748954,-1.1812773e-13 C5.45794979,-1.1812773e-13 5.76853556,0.318521472 5.76853556,0.711723926 L5.76853556,4.86899387 C5.76853556,5.26215337 5.45794979,5.58046012 5.0748954,5.58046012 L3.81288703,5.58046012 Z M14.8968619,5.58046012 C14.5138494,5.58046012 14.2032636,5.26215337 14.2032636,4.86899387 L14.2032636,0.711723926 C14.2032636,0.318521472 14.5138494,-1.1812773e-13 14.8968619,-1.1812773e-13 L16.1588703,-1.1812773e-13 C16.5417155,-1.1812773e-13 16.8523013,0.318521472 16.8522594,0.711723926 L16.8522594,4.86899387 C16.8522594,5.26215337 16.5416736,5.58046012 16.1588703,5.58046012 L14.8968619,5.58046012 Z" id="Combined-Shape"></path>
                </g>
            </g>
        </g>
    </g>
</svg>