<?xml version="1.0" encoding="UTF-8"?>
<svg width="12px" height="12px" viewBox="0 0 12 12" version="1.1" xmlns="http://www.w3.org/2000/svg" xmlns:xlink="http://www.w3.org/1999/xlink">
    <!-- Generator: Sketch 54.1 (76490) - https://sketchapp.com -->
    <title>Combined Shape</title>
    <desc>Created with Sketch.</desc>
    <g id="UI-of-the-day-#23" stroke="none" stroke-width="1" fill="none" fill-rule="evenodd">
        <g id="Book-page-Copy-29" transform="translate(-232.000000, -274.000000)" fill="#000000" fill-rule="nonzero">
            <g id="Group-4" transform="translate(232.000000, 274.000000)">
                <g id="Group">
                    <path d="M7.21214885,10.9658727 C7.47079922,10.901017 7.73244185,11.0595185 7.79677555,11.3200067 C7.86126403,11.5802611 7.70378318,11.8440492 7.44528758,11.9088529 C7.32735106,11.9385005 7.20717034,11.9647182 7.08791826,11.9870124 C6.95507201,12.0119049 6.82470211,11.9791133 6.72226862,11.9064884 C6.62287899,11.8358903 6.54967167,11.7277454 6.52575935,11.5979041 C6.4773414,11.333986 6.65040267,11.0803836 6.91217427,11.031352 C7.01231198,11.0127736 7.11319774,10.9907133 7.21214885,10.9658727 Z M10.779548,4.45257685 C10.7475359,4.35503345 10.7120672,4.25720422 10.6741996,4.16189543 C10.5751711,3.91263227 10.6956614,3.62990191 10.9429102,3.53027979 C11.1904169,3.43060571 11.4710192,3.55192435 11.5699703,3.80110955 C11.6150348,3.91450311 11.6573393,4.03096276 11.6954649,4.14705864 C11.7791451,4.40172644 11.6420942,4.67647976 11.3891446,4.7610832 C11.2382674,4.81133599 11.0801675,4.7824939 10.9593418,4.69677315 C10.8778542,4.6389071 10.8133399,4.55516112 10.779548,4.45257685 Z M8.77970886,10.2720777 C9.00198772,10.1240996 9.30116265,10.1856294 9.4480158,10.4096363 C9.59489474,10.6335652 9.53373387,10.9350559 9.31153239,11.08293 C9.21018231,11.1504361 9.10558201,11.2154477 9.00038841,11.2765617 C8.83212509,11.3742091 8.63001821,11.3584109 8.48120461,11.2529424 C8.42577032,11.2134469 8.37763613,11.161765 8.34149679,11.0985463 C8.20839258,10.8661207 8.28745544,10.5688913 8.51829838,10.4347627 C8.60677657,10.3834445 8.69460987,10.3286706 8.77970886,10.2720777 Z M11.9954137,5.80976575 C12.0002116,5.93204579 12.0012176,6.05601478 11.9985607,6.17837277 C11.9926535,6.44670808 11.7719998,6.65943793 11.5057398,6.65348762 C11.406247,6.65120104 11.3144928,6.6187472 11.2388865,6.56511652 C11.1119732,6.4750045 11.030305,6.32507763 11.0340453,6.15688412 C11.0363927,6.05448173 11.0353609,5.95044236 11.0313626,5.84793604 C11.0209154,5.57983459 11.2283104,5.35385297 11.4943124,5.34327754 C11.7606498,5.33280604 11.9849149,5.54156036 11.9954137,5.80976575 Z M10.7008205,8.99374983 C10.9137356,9.15487573 10.9570203,9.45935459 10.7970889,9.67403323 C10.7239073,9.77222623 10.6470371,9.86922397 10.5681806,9.96250603 C10.4052053,10.1551504 10.1250674,10.1880459 9.9235022,10.0449008 C9.91137837,10.0363781 9.89969306,10.0273098 9.88813673,10.0174359 C9.68538497,9.84347397 9.66100832,9.53670854 9.83357948,9.33247541 C9.89961567,9.25428998 9.96410415,9.17309042 10.0253424,9.09087749 C10.185248,8.87619885 10.487312,8.83239007 10.7008205,8.99374983 Z M11.4099357,7.23716304 C11.6640977,7.31745316 11.805508,7.5900758 11.7259292,7.8461987 C11.6895835,7.96250245 11.6493943,8.0794558 11.6060838,8.19391469 C11.5112084,8.44473688 11.2324892,8.57052474 10.9835895,8.47485217 C10.9449738,8.46014531 10.9094278,8.44078733 10.8771577,8.41794752 C10.7012332,8.29299115 10.6244919,8.059812 10.7045866,7.84788765 C10.7410613,7.75161745 10.7748532,7.65332052 10.8053434,7.55549129 C10.8849995,7.29942036 11.1557221,7.15687291 11.4099357,7.23716304 Z M5.10745147,11.0357173 C5.3696358,11.0830339 5.54406422,11.335597 5.49703923,11.5998269 C5.44998844,11.8638749 5.19946362,12.0397336 4.9372019,11.9922611 C4.07285,11.8360202 3.26800806,11.4969048 2.54522126,10.9838795 C2.26903003,10.7879353 2.01252068,10.5712299 1.77669923,10.3369334 C1.77600276,10.3361799 1.7752031,10.3357642 1.77448083,10.3349587 C1.7724172,10.332828 1.77030198,10.3305934 1.76826414,10.3285406 C0.890524436,9.45275469 0.30476274,8.32721189 0.0895260136,7.0764009 C0.0683479991,6.95380906 0.0514520193,6.83119123 0.0379868262,6.70885922 C0.0366712613,6.7010121 0.0349429702,6.69358072 0.0342464947,6.68573359 C0.0212198232,6.56407717 0.0116239385,6.44049793 0.00618111139,6.31860765 C0.00607792983,6.31439827 0.00631008833,6.31026683 0.00618111139,6.30616139 C-0.0500012461,5.05836453 0.277600196,3.83270592 0.956792791,2.77253851 C0.961281189,2.76476933 0.965202088,2.75694819 0.97033537,2.74925697 C1.01135004,2.68544061 1.05422198,2.62162426 1.097713,2.55936693 C1.12430805,2.52137853 1.15147059,2.48339013 1.1788395,2.4462592 C1.18539153,2.4372428 1.19253685,2.42913583 1.19947581,2.42084698 C2.02252929,1.31268738 3.17597012,0.536003867 4.49798381,0.194030305 C4.503633,0.192445289 4.50951435,0.190548468 4.51531831,0.189119356 C4.51624694,0.188911485 4.51717558,0.188781565 4.51833637,0.188573694 C4.66849133,0.150221519 4.82073572,0.117273987 4.97514692,0.0903547091 C6.50824428,-0.177434937 8.05284638,0.154612791 9.34065539,1.02540984 L9.71842886,0.475565412 C9.82331291,0.322910243 9.94932339,0.344320943 9.99854099,0.523193825 L10.4381718,2.11875864 C10.48757,2.29742365 10.3777332,2.45745824 10.19407,2.47408791 L8.55691408,2.62172819 C8.37348307,2.63835786 8.30902039,2.52709498 8.41380126,2.37441383 L8.79069769,1.82586859 C7.03586317,0.647188798 4.79184488,0.724490777 3.13921169,1.87152223 C3.13348511,1.8756017 3.12770694,1.87962919 3.12192878,1.88368268 C2.65294281,2.21222258 2.2322716,2.62674308 1.88465294,3.12360642 C0.286009492,5.40943244 0.831633563,8.57915138 3.10090553,10.1893711 C3.25652912,10.2997245 3.41671848,10.400464 3.58085454,10.4915114 C3.58134466,10.4917193 3.58191215,10.4919531 3.5822217,10.4923169 C3.67168011,10.5413744 3.76397601,10.5883273 3.85642669,10.632162 C3.86130201,10.6343966 3.86545507,10.6371769 3.87009824,10.6396194 C4.26242031,10.8248843 4.67615256,10.9577138 5.10745147,11.0357173 Z M5.70396984,2.11795314 C5.91943872,2.11795314 6.09397033,2.2941237 6.09399612,2.51111491 L6.09399612,5.94932506 L9.22831647,7.58157908 C9.41987303,7.68122718 9.49473125,7.91827792 9.39580593,8.11123405 C9.32644213,8.24642807 9.19001031,8.32391194 9.04875476,8.32391194 C8.98844514,8.32391194 8.9271553,8.30985467 8.86991533,8.27999922 L5.31350503,6.42810363 L5.31350503,2.51111491 C5.31350503,2.2941237 5.488243,2.11795314 5.70396984,2.11795314 Z" id="Combined-Shape"></path>
                </g>
            </g>
        </g>
    </g>
</svg>