<?xml version="1.0" encoding="UTF-8"?>
<svg width="30px" height="22px" viewBox="0 0 30 22" version="1.1" xmlns="http://www.w3.org/2000/svg" xmlns:xlink="http://www.w3.org/1999/xlink">
    <!-- Generator: Sketch 54.1 (76490) - https://sketchapp.com -->
    <title>comment copy</title>
    <desc>Created with Sketch.</desc>
    <defs>
        <linearGradient x1="2.05303279%" y1="18.6232974%" x2="61.4232283%" y2="72.9011246%" id="linearGradient-1">
            <stop stop-color="#E65124" offset="0%"></stop>
            <stop stop-color="#A69D00" offset="33.6722139%"></stop>
            <stop stop-color="#27953E" offset="59.8254985%"></stop>
            <stop stop-color="#53479E" offset="100%"></stop>
        </linearGradient>
    </defs>
    <g id="UI-of-the-day-#23" stroke="none" stroke-width="1" fill="none" fill-rule="evenodd">
        <g id="Book-page-Copy-7" transform="translate(-1151.000000, -148.000000)" fill="url(#linearGradient-1)" fill-rule="nonzero">
            <g id="comment-copy" transform="translate(1151.000000, 148.000000)">
                <path d="M0,22 L0,7.90564165 C0,3.54685544 3.69399664,0 8.23360696,0 L21.764415,0 C26.3050143,0 30,3.54685544 30,7.90564165 L30,10.3366858 C30,14.695472 26.3060034,18.2423274 21.766393,18.2423274 L8.42448818,18.2423274 L0,22 Z M8.23360696,1.76250701 C4.705766,1.76250701 1.83562457,4.51832348 1.83562457,7.90564165 L1.83562457,19.2375362 L8.01997824,16.4788708 L21.766393,16.4788708 C25.294234,16.4788708 28.1643754,13.7230543 28.1643754,10.3357362 L28.1643754,7.90469202 C28.1643754,4.51737385 25.293245,1.76155739 21.764415,1.76155739 L8.23360696,1.76155739 L8.23360696,1.76250701 Z M8.83888834,7.77174429 C9.80318465,7.77174429 10.5845119,8.52194932 10.5845119,9.44783528 C10.5845119,10.3737212 9.80318465,11.1239263 8.83888834,11.1239263 C7.87459203,11.1239263 7.09326476,10.3737212 7.09326476,9.44783528 C7.09326476,8.52194932 7.87459203,7.77174429 8.83888834,7.77174429 Z M21.1601226,7.77174429 C22.1244189,7.77174429 22.9057462,8.52194932 22.9057462,9.44783528 C22.9057462,10.3737212 22.1244189,11.1239263 21.1601226,11.1239263 C20.1958263,11.1239263 19.4144991,10.3737212 19.4144991,9.44783528 C19.4144991,8.52194932 20.1958263,7.77174429 21.1601226,7.77174429 Z M14.9985165,7.77174429 C15.9628128,7.77174429 16.74414,8.52194932 16.74414,9.44783528 C16.74414,10.3737212 15.9628128,11.1239263 14.9985165,11.1239263 C14.0342202,11.1239263 13.2528929,10.3737212 13.2528929,9.44783528 C13.2528929,8.52194932 14.0342202,7.77174429 14.9985165,7.77174429 Z" id="Shape"></path>
            </g>
        </g>
    </g>
</svg>