<?xml version="1.0" encoding="UTF-8"?>
<svg width="16px" height="8px" viewBox="0 0 16 8" version="1.1" xmlns="http://www.w3.org/2000/svg" xmlns:xlink="http://www.w3.org/1999/xlink">
    <!-- Generator: Sketch 54.1 (76490) - https://sketchapp.com -->
    <title>Path 30</title>
    <desc>Created with Sketch.</desc>
    <defs>
        <linearGradient x1="0%" y1="60.4950285%" x2="100%" y2="47.1425488%" id="linearGradient-1">
            <stop stop-color="#E65124" offset="0%"></stop>
            <stop stop-color="#9C9400" offset="39.1200864%"></stop>
            <stop stop-color="#27953E" offset="64.1025473%"></stop>
            <stop stop-color="#53479E" offset="100%"></stop>
        </linearGradient>
    </defs>
    <g id="UI-of-the-day-#23" stroke="none" stroke-width="1" fill="none" fill-rule="evenodd">
        <g id="Book-page-Copy-23" transform="translate(-1257.000000, -308.000000)" fill="url(#linearGradient-1)" fill-rule="nonzero">
            <polygon id="Path-30" points="1257 308 1273 308 1265 316"></polygon>
        </g>
    </g>
</svg>