<?xml version="1.0" encoding="UTF-8"?>
<svg width="509px" height="432px" viewBox="0 0 509 432" version="1.1" xmlns="http://www.w3.org/2000/svg" xmlns:xlink="http://www.w3.org/1999/xlink">
    <!-- Generator: Sketch 54.1 (76490) - https://sketchapp.com -->
    <title>Group 5</title>
    <desc>Created with Sketch.</desc>
    <defs>
        <path d="M36.86,9.127 L20.157,23.743 L0.467,9.885 C0.467,9.885 7.169,7.638 18.66,10.697 L30.42,0.815 L36.86,9.127" id="path-1"></path>
        <linearGradient x1="20.3555629%" y1="28.3868034%" x2="84.3414942%" y2="57.9819085%" id="linearGradient-3">
            <stop stop-color="#141C28" offset="0%"></stop>
            <stop stop-color="#303439" offset="100%"></stop>
        </linearGradient>
        <path d="M29.031,3.667 L24.217,25.333 L0.144,25.814 C0.144,25.814 4.216,20.036 15.29,15.703 L18.921,0.778 L29.031,3.667" id="path-4"></path>
        <linearGradient x1="-0.00346176481%" y1="50%" x2="100%" y2="50%" id="linearGradient-6">
            <stop stop-color="#141C28" offset="0%"></stop>
            <stop stop-color="#303439" offset="100%"></stop>
        </linearGradient>
        <path d="M19.854,28.122 C19.87,28.137 19.61,26.936 21.659,25.007 C28.436,18.627 21.188,6.147 13.804,3.974 C10.026,2.862 7.611,4.034 6.256,0.28 C6.354,0.549 4.729,1.238 4.568,1.374 C3.683,2.124 3.261,2.652 3.232,3.891 C3.107,9.345 7.988,14.423 11.682,17.858 C13.342,19.403 9.256,18.337 7.607,18.652 C6.535,18.857 3.753,21.796 3.155,22.241 C4.704,24.169 6.083,22.428 8.172,23.36 C10.102,24.221 8.879,26.676 7.08,26.967 C4.294,27.417 3.16,25.58 3.16,25.58 C1.884,26.273 1.679,30.41 0.676,31.492 C2.061,32.252 10.134,33.671 12.028,33.648 C16.074,33.6 18.555,31.362 19.854,28.122" id="path-7"></path>
        <linearGradient x1="64.3673788%" y1="89.3663185%" x2="20.5823923%" y2="18.6539453%" id="linearGradient-9">
            <stop stop-color="#141C28" offset="0%"></stop>
            <stop stop-color="#303439" offset="100%"></stop>
        </linearGradient>
        <linearGradient x1="-7.85599879%" y1="9.75480618%" x2="78.7497223%" y2="80.6670088%" id="linearGradient-10">
            <stop stop-color="#E65124" offset="0%"></stop>
            <stop stop-color="#9C9400" offset="39.1200864%"></stop>
            <stop stop-color="#27953E" offset="64.1025473%"></stop>
            <stop stop-color="#53479E" offset="100%"></stop>
        </linearGradient>
        <path d="M0.91,68.684 C0.91,68.684 23.814,77.227 54.34,65.647 C84.865,54.069 93.193,0.002 93.193,0.002 L96.686,1.773 C96.686,1.773 93.286,61.437 53.096,74.403 C22.37,84.314 0.91,72.511 0.91,72.511 L0.91,68.684" id="path-11"></path>
        <linearGradient x1="0%" y1="50.0001717%" x2="99.9991647%" y2="50.0001717%" id="linearGradient-13">
            <stop stop-color="#141C28" offset="0%"></stop>
            <stop stop-color="#303439" offset="100%"></stop>
        </linearGradient>
        <linearGradient x1="-7.85599879%" y1="-10.6740953%" x2="78.7497223%" y2="96.2339186%" id="linearGradient-14">
            <stop stop-color="#E65124" offset="0%"></stop>
            <stop stop-color="#9C9400" offset="39.1200864%"></stop>
            <stop stop-color="#27953E" offset="64.1025473%"></stop>
            <stop stop-color="#53479E" offset="100%"></stop>
        </linearGradient>
        <linearGradient x1="37.4883505%" y1="-10.6740953%" x2="56.2172714%" y2="96.2339186%" id="linearGradient-15">
            <stop stop-color="#E65124" offset="0%"></stop>
            <stop stop-color="#9C9400" offset="39.1200864%"></stop>
            <stop stop-color="#27953E" offset="64.1025473%"></stop>
            <stop stop-color="#53479E" offset="100%"></stop>
        </linearGradient>
        <linearGradient x1="-7.85599879%" y1="49.0231832%" x2="78.7497223%" y2="50.7443385%" id="linearGradient-16">
            <stop stop-color="#E65124" offset="0%"></stop>
            <stop stop-color="#9C9400" offset="39.1200864%"></stop>
            <stop stop-color="#27953E" offset="64.1025473%"></stop>
            <stop stop-color="#53479E" offset="100%"></stop>
        </linearGradient>
        <linearGradient x1="-7.85599879%" y1="49.6510124%" x2="78.7497223%" y2="50.2659301%" id="linearGradient-17">
            <stop stop-color="#E65124" offset="0%"></stop>
            <stop stop-color="#9C9400" offset="39.1200864%"></stop>
            <stop stop-color="#27953E" offset="64.1025473%"></stop>
            <stop stop-color="#53479E" offset="100%"></stop>
        </linearGradient>
    </defs>
    <g id="Page-1" stroke="none" stroke-width="1" fill="none" fill-rule="evenodd">
        <g id="Profile_view-Copy" transform="translate(-529.000000, -118.000000)">
            <g id="Group-5" transform="translate(529.000000, 118.000000)">
                <ellipse id="Oval-Copy" fill="#B0B8BF" opacity="0.114769345" cx="317" cy="421.5" rx="51" ry="10.5"></ellipse>
                <g id="Group" transform="translate(199.000000, 74.000000)"></g>
                <polyline id="Fill-2" fill="#D1A169" points="443.507 351.61 476.368 422.638 480.071 422.626 451.656 346.997 443.507 351.61"></polyline>
                <polyline id="Fill-3" fill="#D1A169" points="409.516 353.128 376.655 422.638 372.952 422.626 401.367 351.551 409.516 353.128"></polyline>
                <g id="Group-6" transform="translate(289.159000, 398.289000)">
                    <mask id="mask-2" fill="white">
                        <use xlink:href="#path-1"></use>
                    </mask>
                    <g id="Clip-5"></g>
                    <path d="M36.86,9.127 L20.157,23.743 L0.467,9.885 C0.467,9.885 7.169,7.638 18.66,10.697 L30.42,0.815 L36.86,9.127" id="Fill-4" fill="url(#linearGradient-3)" mask="url(#mask-2)"></path>
                </g>
                <path d="M422.706,326.797 C422.706,326.797 385.791,345.718 372.749,351.379 C359.707,357.039 315.337,401.472 315.337,401.472 C315.337,401.472 321.017,413.039 323.858,411.008 C348.911,393.095 371.991,377.068 386.823,371.475 C416.192,360.402 424.378,357.994 431.9,349.276 C431.9,349.276 427.488,338.798 422.706,326.797" id="Fill-7" fill="#325D9B"></path>
                <g id="Group-10" transform="translate(336.159000, 396.289000)">
                    <mask id="mask-5" fill="white">
                        <use xlink:href="#path-4"></use>
                    </mask>
                    <g id="Clip-9"></g>
                    <path d="M29.031,3.667 L24.217,25.333 L0.144,25.814 C0.144,25.814 4.216,20.036 15.29,15.703 L18.921,0.778 L29.031,3.667" id="Fill-8" fill="url(#linearGradient-6)" mask="url(#mask-5)"></path>
                </g>
                <path d="M423.601,321.992 C423.601,321.992 389.263,325.696 376.746,332.436 C364.227,339.178 354.263,400.992 354.263,400.992 C354.263,400.992 363.986,406.27 365.19,402.992 C374.9,376.551 385.673,355.842 385.673,355.842 C398.011,353.588 426.588,367.495 447.242,347.15 C447.242,347.15 429.38,333.547 423.601,321.992" id="Fill-11" fill="#4070AA"></path>
                <path d="M482.771,280.254 C482.771,280.254 480.292,284.359 478.728,289.501 L464.604,288.197 C464.604,288.197 471.897,277.148 471.339,270.447 L482.771,280.254" id="Fill-12" fill="#F4BFA7"></path>
                <path d="M479.734,257.426 C478.932,257.213 475.914,256.382 475.304,256.631 C474.456,256.976 475.441,258.087 474.845,258.765 C473.88,259.863 471.948,259.886 470.703,260.553 C469.194,261.361 468.044,262.423 467.354,263.636 C466.204,265.657 470.392,270.168 471.049,273.549 C472.42,280.621 481.359,281.667 488.622,279.502 C491.219,278.728 493.606,276.393 495.022,274.128 C496.686,271.466 495.748,267.017 494.354,264.366 C493.518,262.776 491.862,261.406 490.417,260.409 C489.107,259.505 488.745,255.75 487.168,255.484 C487.168,255.484 481.54,257.905 479.734,257.426" id="Fill-13" fill="#F4BFA7"></path>
                <g id="Group-16" transform="translate(480.159000, 248.289000)">
                    <mask id="mask-8" fill="white">
                        <use xlink:href="#path-7"></use>
                    </mask>
                    <g id="Clip-15"></g>
                    <path d="M19.854,28.122 C19.87,28.137 19.61,26.936 21.659,25.007 C28.436,18.627 21.188,6.147 13.804,3.974 C10.026,2.862 7.611,4.034 6.256,0.28 C6.354,0.549 4.729,1.238 4.568,1.374 C3.683,2.124 3.261,2.652 3.232,3.891 C3.107,9.345 7.988,14.423 11.682,17.858 C13.342,19.403 9.256,18.337 7.607,18.652 C6.535,18.857 3.753,21.796 3.155,22.241 C4.704,24.169 6.083,22.428 8.172,23.36 C10.102,24.221 8.879,26.676 7.08,26.967 C4.294,27.417 3.16,25.58 3.16,25.58 C1.884,26.273 1.679,30.41 0.676,31.492 C2.061,32.252 10.134,33.671 12.028,33.648 C16.074,33.6 18.555,31.362 19.854,28.122" id="Fill-14" fill="url(#linearGradient-9)" mask="url(#mask-8)"></path>
                </g>
                <path d="M482.314,282.451 C485.275,315.481 447.242,347.15 447.242,347.15 C447.242,347.15 422.408,348.085 423.601,321.992 C423.601,321.992 425.534,317.247 440.908,303.314 C451.18,294.006 458.395,280.114 465.623,280.391 C485.363,281.146 482.314,282.451 482.314,282.451" id="Fill-17" fill="#E05963"></path>
                <g id="Group-20" transform="translate(389.159000, 280.289000)">
                    <mask id="mask-12" fill="white">
                        <use xlink:href="#path-11"></use>
                    </mask>
                    <g id="Clip-19"></g>
                    <path d="M0.91,68.684 C0.91,68.684 23.814,77.227 54.34,65.647 C84.865,54.069 93.193,0.002 93.193,0.002 L96.686,1.773 C96.686,1.773 93.286,61.437 53.096,74.403 C22.37,84.314 0.91,72.511 0.91,72.511 L0.91,68.684" id="Fill-18" fill="url(#linearGradient-13)" mask="url(#mask-12)"></path>
                </g>
                <path d="M478.639,315.446 C478.639,315.446 482.297,328.119 482.5,334.436 C482.704,340.753 480.004,362.198 480.004,362.198 L485.821,362.934 C485.821,362.934 490.991,337.374 491.113,329.032 C491.233,320.691 486.424,307.177 486.424,307.177 L478.639,315.446" id="Fill-21" fill="#F4CF9C"></path>
                <path d="M478.276,315.981 C482.5,334.436 480.749,359.17 480.749,359.17 L487.062,359.572 C493.983,345.095 493.335,313.017 489.676,299.521 C487.525,291.592 486.259,283.597 480.893,282.364 C477.539,281.593 470.639,284.048 469.716,287.363 C467.71,294.557 476.204,306.929 478.276,315.981" id="Fill-22" fill="#E05963"></path>
                <path d="M477.401,365.388 C476.008,368.041 475.377,369.985 476.197,370.655 C476.763,371.117 477.675,368.541 478.775,367.622 C479.098,368.695 479.141,370.7 478.455,372.388 C477.678,374.301 477.746,375.936 479.199,376.077 C480.652,376.218 483.016,376.122 483.543,374.917 C484.067,373.713 485.263,368.688 485.909,367.017 C486.555,365.345 485.698,363.424 485.944,362.467 C486.19,361.509 481.651,359.906 481.651,359.906 C481.402,360.291 480.004,362.198 480.004,362.198 C480.004,362.198 478.825,363.609 478.42,363.866 C478.013,364.123 477.401,365.388 477.401,365.388" id="Fill-23" fill="#F4CF9C"></path>
                <path d="M99.489,0 L99.875,119.998" id="Stroke-27" stroke="#D1D7D9" stroke-width="0.25"></path>
                <path d="M107.667,136.92 C107.339,141.169 103.629,144.348 99.379,144.02 C95.13,143.692 91.951,139.982 92.279,135.732 C92.607,131.483 96.317,128.304 100.567,128.632 C104.816,128.96 107.995,132.67 107.667,136.92" id="Fill-28" fill="url(#linearGradient-14)" fill-rule="nonzero"></path>
                <polyline id="Fill-29" fill="#CFD9E2" points="136.312 139.602 63.438 139.602 95.331 116.394 104.419 116.394 136.312 139.602"></polyline>
                <path d="M471.489,0 L471.875,119.998" id="Stroke-27-Copy" stroke="#D1D7D9" stroke-width="0.25"></path>
                <path d="M479.667,136.92 C479.339,141.169 475.629,144.348 471.379,144.02 C467.13,143.692 463.951,139.982 464.279,135.732 C464.607,131.483 468.317,128.304 472.567,128.632 C476.816,128.96 479.995,132.67 479.667,136.92" id="Fill-28-Copy" fill="url(#linearGradient-14)" fill-rule="nonzero"></path>
                <polyline id="Fill-29-Copy" fill="#CFD9E2" points="508.312 139.602 435.438 139.602 467.331 116.394 476.419 116.394 508.312 139.602"></polyline>
                <path d="M202.147,269.201 C202.147,269.201 203.684,265.438 206.477,262.084 C209.27,258.731 213.434,253.148 213.434,253.148 C213.434,253.148 211.404,257.122 208.646,261.612 C205.889,266.102 202.147,269.201 202.147,269.201" id="Fill-31" fill="#58B57B"></path>
                <path d="M205.035,262.658 C205.035,262.658 208.127,260.228 209.984,255.086 C211.841,249.943 213.533,246.028 213.533,246.028 C213.533,246.028 209.522,251.766 207.798,255.743 C206.074,259.719 205.035,262.658 205.035,262.658" id="Fill-32" fill="#58B57B"></path>
                <path d="M202.355,268.473 C202.355,268.473 203.972,262.591 204.29,257.896 C204.608,253.201 204.572,250.252 204.572,250.252 C204.572,250.252 202.532,258.771 201.917,262.389 C201.302,266.007 202.355,268.473 202.355,268.473" id="Fill-33" fill="#58B57B"></path>
                <path d="M200.971,272.378 C200.971,272.378 201.488,266.32 199.785,260.901 C198.082,255.481 197.99,252.041 197.99,252.041 C197.99,252.041 197.172,257.715 198.143,262.606 C199.113,267.497 200.971,272.378 200.971,272.378" id="Fill-34" fill="#58B57B"></path>
                <path d="M201.472,271.04 C201.472,271.04 205.775,267.365 207.95,266.5 C210.125,265.636 213.154,263.117 213.154,263.117 C213.154,263.117 209.415,267.903 207.328,268.851 C205.241,269.8 201.472,271.04 201.472,271.04" id="Fill-35" fill="#58B57B"></path>
                <path d="M199.987,276.182 C199.987,276.182 200.404,272.874 198.481,268.186 C196.558,263.499 196.113,261.181 196.113,261.181 C196.113,261.181 195.999,267.545 197.264,269.933 C198.53,272.321 199.987,276.182 199.987,276.182" id="Fill-36" fill="#58B57B"></path>
                <path d="M200.389,273.773 C200.389,273.773 202.862,272.122 205.246,271.788 C207.63,271.453 208.266,271.129 208.266,271.129 C208.266,271.129 207.06,273.332 204.12,273.704 C201.18,274.075 200.389,273.773 200.389,273.773" id="Fill-37" fill="#58B57B"></path>
                <path d="M198.771,279.339 C199.305,277.259 199.994,274.043 200.703,271.895 C202.268,267.153 205.992,261.043 205.992,261.043 C203.718,266.087 202.057,268.924 200.913,273.274 C200.46,274.999 199.677,277.392 199.253,278.955 C199.184,279.384 198.841,279.744 198.771,279.339" id="Fill-38" fill="#58B57B"></path>
                <path d="M199.869,270.897 C199.869,270.897 199.626,266.582 197.978,262.245 C196.331,257.908 194.076,250.856 194.076,250.856 C194.076,250.856 194.743,255.553 195.961,261.02 C197.18,266.487 199.869,270.897 199.869,270.897" id="Fill-39" fill="#83C494"></path>
                <path d="M199.23,263.321 C199.23,263.321 196.962,259.809 196.874,253.997 C196.787,248.186 196.44,243.664 196.44,243.664 C196.44,243.664 198.488,250.82 198.845,255.413 C199.202,260.007 199.23,263.321 199.23,263.321" id="Fill-40" fill="#83C494"></path>
                <path d="M199.912,270.093 C199.912,270.093 200.321,263.621 201.626,258.791 C202.931,253.962 203.986,251.011 203.986,251.011 C203.986,251.011 203.09,260.279 202.457,264.129 C201.824,267.978 199.912,270.093 199.912,270.093" id="Fill-41" fill="#83C494"></path>
                <path d="M199.953,274.497 C199.953,274.497 201.528,268.228 205.115,263.37 C208.701,258.512 209.984,255.086 209.984,255.086 C209.984,255.086 208.843,261.072 206.176,265.652 C203.508,270.233 199.953,274.497 199.953,274.497" id="Fill-42" fill="#83C494"></path>
                <path d="M199.911,272.978 C199.911,272.978 196.857,267.796 194.97,266.175 C193.083,264.553 190.91,260.974 190.91,260.974 C190.91,260.974 193.013,267.077 194.782,268.753 C196.552,270.429 199.911,272.978 199.911,272.978" id="Fill-43" fill="#83C494"></path>
                <path d="M199.625,278.661 C199.625,278.661 200.351,275.191 203.905,271.145 C207.459,267.099 208.708,264.922 208.708,264.922 C208.708,264.922 206.622,271.359 204.524,273.321 C202.426,275.284 199.625,278.661 199.625,278.661" id="Fill-44" fill="#83C494"></path>
                <path d="M200.055,276.100051 C200.055,276.100051 198.14,273.586 195.859,272.424 C193.578,271.263 193.052,270.718 193.052,270.718 C193.052,270.718 193.501,273.349 196.328,274.74 C199.155,276.13 200.055,276.100051 200.055,276.100051" id="Fill-45" fill="#83C494"></path>
                <path d="M199.755,282.254 C199.938,279.978 200.358,276.509 200.388,274.104 C200.456,268.795 198.826,261.366 198.826,261.366 C199.367,267.224 200.055,270.649 199.7,275.418 C199.559,277.308 199.519,279.984 199.404,281.703 C199.325,282.157 199.545,282.637 199.755,282.254" id="Fill-46" fill="#58B57B"></path>
                <path d="M196.597,271.791 C196.597,271.791 195.06,268.027 192.266,264.674 C189.473,261.321 185.309,255.738 185.309,255.738 C185.309,255.738 187.341,259.712 190.097,264.202 C192.855,268.692 196.597,271.791 196.597,271.791" id="Fill-47" fill="#58B57B"></path>
                <path d="M193.709,265.248 C193.709,265.248 190.617,262.818 188.76,257.676 C186.903,252.533 185.211,248.618 185.211,248.618 C185.211,248.618 189.222,254.355 190.946,258.332 C192.67,262.309 193.709,265.248 193.709,265.248" id="Fill-48" fill="#58B57B"></path>
                <path d="M196.389,271.063 C196.389,271.063 194.771,265.181 194.454,260.486 C194.136,255.79 194.172,252.842 194.172,252.842 C194.172,252.842 196.212,261.361 196.827,264.979 C197.442,268.597 196.389,271.063 196.389,271.063" id="Fill-49" fill="#58B57B"></path>
                <path d="M197.774,274.968 C197.774,274.968 197.256,268.91 198.959,263.491 C200.661,258.071 200.754,254.631 200.754,254.631 C200.754,254.631 201.572,260.305 200.601,265.196 C199.631,270.087 197.774,274.968 197.774,274.968" id="Fill-50" fill="#58B57B"></path>
                <path d="M197.272,273.63 C197.272,273.63 192.969,269.955 190.794,269.09 C188.619,268.226 185.59,265.706 185.59,265.706 C185.59,265.706 189.329,270.493 191.416,271.441 C193.503,272.39 197.272,273.63 197.272,273.63" id="Fill-51" fill="#58B57B"></path>
                <path d="M198.757,278.771 C198.757,278.771 198.34,275.463 200.263,270.776 C202.186,266.089 202.631,263.771 202.631,263.771 C202.631,263.771 202.745,270.135 201.48,272.523 C200.215,274.911 198.757,278.771 198.757,278.771" id="Fill-52" fill="#58B57B"></path>
                <path d="M198.355,276.362 C198.355,276.362 195.882,274.712 193.498,274.377 C191.114,274.043 190.478,273.719 190.478,273.719 C190.478,273.719 191.683,275.922 194.624,276.293 C197.564,276.665 198.355,276.362 198.355,276.362" id="Fill-53" fill="#58B57B"></path>
                <path d="M199.972,281.928 C199.438,279.849 198.75,276.633 198.041,274.485 C196.476,269.742 192.752,263.633 192.752,263.633 C195.026,268.677 196.687,271.514 197.831,275.864 C198.284,277.588 199.067,279.981 199.491,281.545 C199.56,281.974 199.903,282.333 199.972,281.928" id="Fill-54" fill="#58B57B"></path>
                <polyline id="Fill-55" fill="#CFD9E2" points="205.437 296.452 193.77 296.452 190.165 275.902 209.462 275.902 205.437 296.452"></polyline>
                <polyline id="Fill-56" fill="#D1A169" points="338.731 302.098 357.972 422.403 361.676 422.392 346.452 302.073 338.731 302.098"></polyline>
                <polyline id="Fill-57" fill="#D1A169" points="206.093 302.153 181.034 422.578 176.044 422.59 195.69 302.178 206.093 302.153"></polyline>
                <polygon id="Fill-58" fill="#D1A169" points="166.646 304.331 373.672 304.331 373.672 295.066 166.646 295.066"></polygon>
                <polygon id="Fill-59" fill="#EBB576" points="156.721 301.216 383.597 301.216 383.597 295.066 156.721 295.066"></polygon>
                <polyline id="Fill-60" fill="#9FA7AE" points="320.152 291.823 312.1 291.823 304.048 240.446 310.17 240.446 320.152 291.823"></polyline>
                <polyline id="Fill-61" fill="#CFD9E2" points="317.841 291.823 286.413 291.823 278.361 240.446 309.789 240.446 317.841 291.823"></polyline>
                <polygon id="Fill-62" fill="#CFD9E2" points="285.991 294.491 320.152 294.491 320.152 290.658 285.991 290.658"></polygon>
                <polygon id="Fill-63" fill="#9FA7AE" points="320.152 294.491 363.225 294.491 363.225 290.658 320.152 290.658"></polygon>
                <ellipse id="Oval" fill="#B0B8BF" opacity="0.126860119" cx="86.5" cy="423.5" rx="86.5" ry="8.5"></ellipse>
                <path d="M300.581,268.634 C301.49,272.566 300.849,276.814 299.15,278.121 C297.451,279.428 295.337,277.299 294.427,273.366 C293.517,269.433 294.157,265.185 295.856,263.878 C297.555,262.572 299.671,264.701 300.581,268.634" id="Fill-64" fill="url(#linearGradient-15)" fill-rule="nonzero"></path>
                <path d="M251.693,294.311 L247.235,294.311 C245.393,294.311 243.827,292.969 243.544,291.149 L241.763,279.678 L257.165,279.678 L255.384,291.149 C255.102,292.969 253.535,294.311 251.693,294.311" id="Fill-65" fill="#9FA7AE"></path>
                <path d="M255.656,290.462 C258.468,290.552 259.356,288.394 259.69,286.544 C259.911,285.319 259.736,284.355 259.171,283.681 C258.629,283.031 257.714,282.658 256.662,282.658 C255,282.658 253.647,284.457 253.647,286.669 C253.647,288.53 255.159,290.02 255.656,290.462 Z M255.824,291.867 C255.661,291.867 255.498,291.861 255.331,291.848 L255.122,291.832 L254.956,291.704 C254.845,291.62 252.244,289.583 252.244,286.669 C252.244,283.684 254.226,281.255 256.662,281.255 C258.13,281.255 259.438,281.811 260.249,282.78 C260.828,283.473 261.441,284.733 261.071,286.793 C260.484,290.042 258.583,291.867 255.824,291.867 L255.824,291.867 Z" id="Fill-66" fill="#9FA7AE"></path>
                <polyline id="Fill-67" fill="#CFD9E2" points="240.229 295.319 259.749 295.319 262.862 291.872 237.116 291.872 240.229 295.319"></polyline>
                <polygon id="Fill-68" fill="#B0B8BF" points="43.388 422.364 136.792 422.364 136.792 220.328 43.388 220.328"></polygon>
                <polygon id="Fill-69" fill="#CFD9E2" points="54.141 250.34 126.04 250.34 126.04 229.155 54.141 229.155"></polygon>
                <path d="M98.689,242.315 L81.492,242.315 C81.05,242.315 80.692,241.957 80.692,241.515 L80.692,237.979 C80.692,237.538 81.05,237.18 81.492,237.18 L98.689,237.18 C99.131,237.18 99.489,237.538 99.489,237.979 L99.489,241.515 C99.489,241.957 99.131,242.315 98.689,242.315" id="Fill-70" fill="#FFFFFE"></path>
                <polygon id="Fill-71" fill="#CFD9E2" points="54.141 277.299 126.04 277.299 126.04 256.115 54.141 256.115"></polygon>
                <path d="M98.689,269.275 L81.492,269.275 C81.05,269.275 80.692,268.917 80.692,268.475 L80.692,264.939 C80.692,264.497 81.05,264.139 81.492,264.139 L98.689,264.139 C99.131,264.139 99.489,264.497 99.489,264.939 L99.489,268.475 C99.489,268.917 99.131,269.275 98.689,269.275" id="Fill-72" fill="#FFFFFE"></path>
                <polygon id="Fill-73" fill="#CFD9E2" points="54.141 304.259 126.04 304.259 126.04 283.075 54.141 283.075"></polygon>
                <path d="M98.689,296.234 L81.492,296.234 C81.05,296.234 80.692,295.876 80.692,295.434 L80.692,291.899 C80.692,291.457 81.05,291.099 81.492,291.099 L98.689,291.099 C99.131,291.099 99.489,291.457 99.489,291.899 L99.489,295.434 C99.489,295.876 99.131,296.234 98.689,296.234" id="Fill-74" fill="#FFFFFE"></path>
                <polygon id="Fill-75" fill="#CFD9E2" points="54.141 414.179 126.04 414.179 126.04 310.338 54.141 310.338"></polygon>
                <path d="M98.689,323.497 L81.492,323.497 C81.05,323.497 80.692,323.14 80.692,322.697 L80.692,319.162 C80.692,318.72 81.05,318.362 81.492,318.362 L98.689,318.362 C99.131,318.362 99.489,318.72 99.489,319.162 L99.489,322.697 C99.489,323.14 99.131,323.497 98.689,323.497" id="Fill-76" fill="#FFFFFE"></path>
                <path d="M213.914062,142.126953 L213.914062,141.035156 C214.887375,141.035156 215.536945,140.834149 215.862793,140.432129 C216.188641,140.030109 216.351562,139.097013 216.351562,137.632812 L216.351562,128.009766 C216.351562,127.061844 216.188641,126.405926 215.862793,126.041992 C215.536945,125.678058 214.955082,125.496094 214.117188,125.496094 L213.914062,125.496094 L213.914062,124.480469 C214.82813,124.53125 215.727372,124.569336 216.611816,124.594727 C217.496261,124.620117 218.374345,124.632812 219.246094,124.632812 C220.566413,124.632812 221.986158,124.620117 223.505371,124.594727 C225.024584,124.569336 226.609367,124.53125 228.259766,124.480469 L228.259766,129.025391 L227.193359,129.025391 C226.905598,127.764317 226.431644,126.911623 225.771484,126.467285 C225.111325,126.022947 223.816416,125.800781 221.886719,125.800781 C221.209632,125.800781 220.799154,125.845214 220.655273,125.934082 C220.511393,126.02295 220.439453,126.249347 220.439453,126.613281 L220.439453,132.326172 L220.883789,132.326172 C221.890956,132.326172 222.627276,132.118817 223.092773,131.704102 C223.558271,131.289386 223.892577,130.527675 224.095703,129.418945 L225.1875,129.418945 C225.145182,129.90137 225.113444,130.415525 225.092285,130.961426 C225.071126,131.507327 225.060547,132.127275 225.060547,132.821289 C225.060547,133.422204 225.071126,134.020993 225.092285,134.617676 C225.113444,135.214358 225.145182,135.821611 225.1875,136.439453 L224.15918,136.439453 C223.964517,135.347651 223.621747,134.588056 223.130859,134.160645 C222.639972,133.733234 221.85287,133.519531 220.769531,133.519531 L220.439453,133.519531 L220.439453,138.178711 C220.439453,139.084314 220.667966,139.736001 221.125,140.133789 C221.582034,140.531578 222.339513,140.730469 223.397461,140.730469 C224.980151,140.730469 226.131181,140.442711 226.850586,139.867188 C227.569991,139.291664 228.065103,138.276049 228.335938,136.820312 L229.300781,136.820312 L229.300781,142.101562 C227.955071,142.067708 226.588223,142.042318 225.200195,142.025391 C223.812168,142.008463 222.009451,142 219.791992,142 L218.255859,142 C217.045567,142 216.142093,142.010579 215.54541,142.031738 C214.948727,142.052897 214.40495,142.084635 213.914062,142.126953 Z M237.552734,132.948242 C237.654297,132.956706 237.768554,132.963053 237.895508,132.967285 C238.022462,132.971517 238.200194,132.973633 238.428711,132.973633 C239.791348,132.973633 240.792152,132.681644 241.431152,132.097656 C242.070153,131.513669 242.389648,130.603847 242.389648,129.368164 C242.389648,128.098626 242.095543,127.169762 241.507324,126.581543 C240.919105,125.993324 239.990241,125.699219 238.720703,125.699219 C238.229815,125.699219 237.912436,125.762695 237.768555,125.889648 C237.624674,126.016602 237.552734,126.291665 237.552734,126.714844 L237.552734,132.948242 Z M230.900391,142.076172 L230.887695,140.984375 C231.96257,140.984375 232.677733,140.819338 233.033203,140.489258 C233.388674,140.159178 233.566406,139.482101 233.566406,138.458008 L233.566406,127.705078 C233.566406,126.833329 233.395021,126.262046 233.052246,125.991211 C232.709471,125.720376 231.987961,125.576497 230.887695,125.55957 L230.887695,124.53125 C231.361656,124.548177 231.841957,124.560872 232.328613,124.569336 C232.815269,124.5778 233.46484,124.582031 234.277344,124.582031 C234.81055,124.582031 235.66959,124.569336 236.854492,124.543945 C238.039394,124.518555 238.961911,124.505859 239.62207,124.505859 C242.068046,124.505859 243.872878,124.86344 245.036621,125.578613 C246.200364,126.293786 246.782227,127.408847 246.782227,128.923828 C246.782227,130.091803 246.405603,131.058753 245.652344,131.824707 C244.899085,132.590661 243.828457,133.087889 242.44043,133.316406 C242.880536,133.502605 243.566076,134.243158 244.49707,135.538086 C244.607097,135.69043 244.691731,135.808919 244.750977,135.893555 L247.277344,139.422852 C247.641278,139.947594 248.024249,140.351724 248.42627,140.635254 C248.82829,140.918784 249.249347,141.085937 249.689453,141.136719 L249.689453,142.101562 C249.317055,142.067708 248.840986,142.042318 248.26123,142.025391 C247.681475,142.008463 247.048832,142 246.363281,142 C246.024738,142 245.688315,142.006348 245.354004,142.019043 C245.019692,142.031738 244.687502,142.050781 244.357422,142.076172 L240.167969,136.071289 C239.592445,135.233394 239.150229,134.698081 238.841309,134.465332 C238.532388,134.232583 238.187502,134.116211 237.806641,134.116211 C237.78125,134.116211 237.741048,134.122559 237.686035,134.135254 C237.631022,134.147949 237.586589,134.154297 237.552734,134.154297 L237.552734,138.623047 C237.552734,139.52865 237.722004,140.148599 238.060547,140.48291 C238.39909,140.817222 239.03385,140.984375 239.964844,140.984375 L240.091797,140.984375 L240.091797,142.076172 C238.644524,142.050781 237.440597,142.031738 236.47998,142.019043 C235.519364,142.006348 234.802086,142 234.328125,142 C233.473303,142 232.798342,142.006348 232.303223,142.019043 C231.808103,142.031738 231.340497,142.050781 230.900391,142.076172 Z M256.456055,132.948242 C256.557618,132.956706 256.671874,132.963053 256.798828,132.967285 C256.925782,132.971517 257.103514,132.973633 257.332031,132.973633 C258.694668,132.973633 259.695472,132.681644 260.334473,132.097656 C260.973473,131.513669 261.292969,130.603847 261.292969,129.368164 C261.292969,128.098626 260.998864,127.169762 260.410645,126.581543 C259.822425,125.993324 258.893561,125.699219 257.624023,125.699219 C257.133136,125.699219 256.815756,125.762695 256.671875,125.889648 C256.527994,126.016602 256.456055,126.291665 256.456055,126.714844 L256.456055,132.948242 Z M249.803711,142.076172 L249.791016,140.984375 C250.865891,140.984375 251.581053,140.819338 251.936523,140.489258 C252.291994,140.159178 252.469727,139.482101 252.469727,138.458008 L252.469727,127.705078 C252.469727,126.833329 252.298342,126.262046 251.955566,125.991211 C251.612791,125.720376 250.891282,125.576497 249.791016,125.55957 L249.791016,124.53125 C250.264976,124.548177 250.745278,124.560872 251.231934,124.569336 C251.71859,124.5778 252.36816,124.582031 253.180664,124.582031 C253.71387,124.582031 254.572911,124.569336 255.757812,124.543945 C256.942714,124.518555 257.865231,124.505859 258.525391,124.505859 C260.971366,124.505859 262.776199,124.86344 263.939941,125.578613 C265.103684,126.293786 265.685547,127.408847 265.685547,128.923828 C265.685547,130.091803 265.308923,131.058753 264.555664,131.824707 C263.802405,132.590661 262.731778,133.087889 261.34375,133.316406 C261.783856,133.502605 262.469396,134.243158 263.400391,135.538086 C263.510417,135.69043 263.595052,135.808919 263.654297,135.893555 L266.180664,139.422852 C266.544598,139.947594 266.92757,140.351724 267.32959,140.635254 C267.73161,140.918784 268.152667,141.085937 268.592773,141.136719 L268.592773,142.101562 C268.220376,142.067708 267.744306,142.042318 267.164551,142.025391 C266.584795,142.008463 265.952152,142 265.266602,142 C264.928058,142 264.591636,142.006348 264.257324,142.019043 C263.923013,142.031738 263.590822,142.050781 263.260742,142.076172 L259.071289,136.071289 C258.495765,135.233394 258.05355,134.698081 257.744629,134.465332 C257.435708,134.232583 257.090822,134.116211 256.709961,134.116211 C256.68457,134.116211 256.644369,134.122559 256.589355,134.135254 C256.534342,134.147949 256.489909,134.154297 256.456055,134.154297 L256.456055,138.623047 C256.456055,139.52865 256.625324,140.148599 256.963867,140.48291 C257.302411,140.817222 257.93717,140.984375 258.868164,140.984375 L258.995117,140.984375 L258.995117,142.076172 C257.547844,142.050781 256.343918,142.031738 255.383301,142.019043 C254.422684,142.006348 253.705406,142 253.231445,142 C252.376623,142 251.701663,142.006348 251.206543,142.019043 C250.711423,142.031738 250.243817,142.050781 249.803711,142.076172 Z M273.658203,133.392578 C273.658203,135.94858 274.106766,137.88248 275.003906,139.194336 C275.901046,140.506191 277.221345,141.162109 278.964844,141.162109 C280.691415,141.162109 281.965165,140.525234 282.786133,139.251465 C283.6071,137.977695 284.017578,135.999362 284.017578,133.316406 C284.017578,130.735013 283.569015,128.775723 282.671875,127.438477 C281.774735,126.10123 280.454436,125.432617 278.710938,125.432617 C276.975903,125.432617 275.700037,126.07584 274.883301,127.362305 C274.066565,128.648769 273.658203,130.65884 273.658203,133.392578 Z M278.634766,142.444336 C275.748683,142.444336 273.414885,141.600106 271.633301,139.911621 C269.851716,138.223136 268.960938,136.024753 268.960938,133.316406 C268.960938,130.608059 269.874991,128.405445 271.703125,126.708496 C273.531259,125.011548 275.917954,124.163086 278.863281,124.163086 C280.352872,124.163086 281.685867,124.378904 282.862305,124.810547 C284.038743,125.24219 285.096675,125.902339 286.036133,126.791016 C286.933273,127.645838 287.604002,128.612788 288.04834,129.691895 C288.492678,130.771001 288.714844,131.962233 288.714844,133.265625 C288.714844,134.602871 288.482099,135.819493 288.016602,136.915527 C287.551104,138.011561 286.848638,138.986975 285.90918,139.841797 C284.961258,140.713546 283.886399,141.365232 282.68457,141.796875 C281.482741,142.228518 280.13282,142.444336 278.634766,142.444336 Z M297.017578,132.948242 C297.119141,132.956706 297.233398,132.963053 297.360352,132.967285 C297.487305,132.971517 297.665038,132.973633 297.893555,132.973633 C299.256192,132.973633 300.256996,132.681644 300.895996,132.097656 C301.534997,131.513669 301.854492,130.603847 301.854492,129.368164 C301.854492,128.098626 301.560387,127.169762 300.972168,126.581543 C300.383949,125.993324 299.455084,125.699219 298.185547,125.699219 C297.694659,125.699219 297.377279,125.762695 297.233398,125.889648 C297.089518,126.016602 297.017578,126.291665 297.017578,126.714844 L297.017578,132.948242 Z M290.365234,142.076172 L290.352539,140.984375 C291.427414,140.984375 292.142576,140.819338 292.498047,140.489258 C292.853517,140.159178 293.03125,139.482101 293.03125,138.458008 L293.03125,127.705078 C293.03125,126.833329 292.859865,126.262046 292.51709,125.991211 C292.174315,125.720376 291.452805,125.576497 290.352539,125.55957 L290.352539,124.53125 C290.8265,124.548177 291.306801,124.560872 291.793457,124.569336 C292.280113,124.5778 292.929683,124.582031 293.742188,124.582031 C294.275393,124.582031 295.134434,124.569336 296.319336,124.543945 C297.504238,124.518555 298.426755,124.505859 299.086914,124.505859 C301.53289,124.505859 303.337722,124.86344 304.501465,125.578613 C305.665208,126.293786 306.24707,127.408847 306.24707,128.923828 C306.24707,130.091803 305.870446,131.058753 305.117188,131.824707 C304.363929,132.590661 303.293301,133.087889 301.905273,133.316406 C302.34538,133.502605 303.03092,134.243158 303.961914,135.538086 C304.071941,135.69043 304.156575,135.808919 304.21582,135.893555 L306.742188,139.422852 C307.106122,139.947594 307.489093,140.351724 307.891113,140.635254 C308.293134,140.918784 308.714191,141.085937 309.154297,141.136719 L309.154297,142.101562 C308.781899,142.067708 308.30583,142.042318 307.726074,142.025391 C307.146319,142.008463 306.513675,142 305.828125,142 C305.489582,142 305.153159,142.006348 304.818848,142.019043 C304.484536,142.031738 304.152345,142.050781 303.822266,142.076172 L299.632812,136.071289 C299.057289,135.233394 298.615073,134.698081 298.306152,134.465332 C297.997232,134.232583 297.652346,134.116211 297.271484,134.116211 C297.246094,134.116211 297.205892,134.122559 297.150879,134.135254 C297.095866,134.147949 297.051432,134.154297 297.017578,134.154297 L297.017578,138.623047 C297.017578,139.52865 297.186847,140.148599 297.525391,140.48291 C297.863934,140.817222 298.498693,140.984375 299.429688,140.984375 L299.556641,140.984375 L299.556641,142.076172 C298.109368,142.050781 296.905441,142.031738 295.944824,142.019043 C294.984207,142.006348 294.266929,142 293.792969,142 C292.938147,142 292.263186,142.006348 291.768066,142.019043 C291.272947,142.031738 290.805341,142.050781 290.365234,142.076172 Z M317.736328,135.208008 L322.928711,135.208008 L323.144531,128.225586 L317.736328,135.208008 Z M320.389648,142.050781 L320.389648,141.009766 C321.523769,140.967448 322.230467,140.83838 322.509766,140.622559 C322.789064,140.406737 322.928711,139.939131 322.928711,139.219727 L322.928711,136.744141 L316.174805,136.744141 L316.174805,135.157227 L324.807617,124.188477 L326.648438,124.188477 L326.648438,135.208008 L329.352539,135.208008 L329.352539,136.744141 L326.648438,136.744141 L326.648438,139.295898 C326.648438,139.939131 326.7902,140.372883 327.07373,140.597168 C327.357261,140.821453 328.057612,140.963216 329.174805,141.022461 L329.174805,142.050781 C328.624672,142.033854 328.044925,142.021159 327.435547,142.012695 C326.826169,142.004232 325.950201,142 324.807617,142 C323.495762,142 322.545739,142.004232 321.95752,142.012695 C321.3693,142.021159 320.846682,142.033854 320.389648,142.050781 Z M335.116211,132.453125 C335.116211,136.050148 335.270669,138.424148 335.57959,139.575195 C335.888511,140.726243 336.43652,141.301758 337.223633,141.301758 C337.985355,141.301758 338.514321,140.719895 338.810547,139.556152 C339.106772,138.39241 339.254883,136.122087 339.254883,132.745117 C339.254883,129.952134 339.098309,128.022466 338.785156,126.956055 C338.472004,125.889643 337.926111,125.356445 337.147461,125.356445 C336.402666,125.356445 335.877931,125.8706 335.573242,126.898926 C335.268553,127.927251 335.116211,129.778632 335.116211,132.453125 Z M331.117188,133.316406 C331.117188,131.97916 331.280109,130.749843 331.605957,129.628418 C331.931805,128.506993 332.42057,127.493494 333.072266,126.587891 C333.656253,125.775387 334.284665,125.172365 334.95752,124.778809 C335.630374,124.385252 336.368811,124.188477 337.172852,124.188477 C337.917647,124.188477 338.61165,124.359862 339.254883,124.702637 C339.898115,125.045412 340.503252,125.56803 341.070312,126.270508 C341.764326,127.12533 342.301756,128.151524 342.682617,129.349121 C343.063478,130.546718 343.253906,131.818353 343.253906,133.164062 C343.253906,134.5267 343.076174,135.813145 342.720703,137.023438 C342.365233,138.23373 341.853193,139.295894 341.18457,140.209961 C340.634437,140.954756 340.0293,141.509113 339.369141,141.873047 C338.708981,142.236981 337.976892,142.418945 337.172852,142.418945 C336.385738,142.418945 335.66846,142.241213 335.020996,141.885742 C334.373532,141.530272 333.774742,140.98861 333.224609,140.260742 C332.530595,139.329748 332.005861,138.276048 331.650391,137.099609 C331.29492,135.923171 331.117188,134.662116 331.117188,133.316406 Z M346.376953,135.208008 L351.569336,135.208008 L351.785156,128.225586 L346.376953,135.208008 Z M349.030273,142.050781 L349.030273,141.009766 C350.164394,140.967448 350.871092,140.83838 351.150391,140.622559 C351.429689,140.406737 351.569336,139.939131 351.569336,139.219727 L351.569336,136.744141 L344.81543,136.744141 L344.81543,135.157227 L353.448242,124.188477 L355.289062,124.188477 L355.289062,135.208008 L357.993164,135.208008 L357.993164,136.744141 L355.289062,136.744141 L355.289062,139.295898 C355.289062,139.939131 355.430825,140.372883 355.714355,140.597168 C355.997886,140.821453 356.698237,140.963216 357.81543,141.022461 L357.81543,142.050781 C357.265297,142.033854 356.68555,142.021159 356.076172,142.012695 C355.466794,142.004232 354.590826,142 353.448242,142 C352.136387,142 351.186364,142.004232 350.598145,142.012695 C350.009925,142.021159 349.487307,142.033854 349.030273,142.050781 Z" id="ERROR404" fill="url(#linearGradient-16)" fill-rule="nonzero"></path>
                <path d="M210.726562,166.769043 C210.726562,167.801926 210.408044,168.585853 209.770996,169.12085 C209.133949,169.655846 208.384038,169.999104 207.52124,170.150635 C206.658443,170.302165 205.750819,170.37793 204.79834,170.37793 L203.963379,170.37793 L203.963379,173.662109 C203.963379,174.033205 204.00358,174.3208 204.083984,174.524902 C204.164388,174.729005 204.337564,174.883626 204.603516,174.98877 C204.869467,175.093913 205.274574,175.146484 205.818848,175.146484 L205.818848,176 L199.491699,176 L199.491699,175.146484 C200.029788,175.146484 200.427163,175.090821 200.683838,174.979492 C200.940512,174.868164 201.107503,174.71045 201.184814,174.506348 C201.262126,174.302245 201.300781,174.020835 201.300781,173.662109 L201.300781,165.720703 C201.300781,165.361977 201.263672,165.082114 201.189453,164.881104 C201.115234,164.680093 200.948243,164.52238 200.688477,164.407959 C200.42871,164.293538 200.029788,164.236328 199.491699,164.236328 L199.491699,163.364258 L203.082031,163.271484 C203.267579,163.265299 203.470132,163.260661 203.689697,163.257568 C203.909262,163.254476 204.083984,163.251383 204.213867,163.248291 C204.343751,163.245199 204.535481,163.243652 204.789062,163.243652 C205.104494,163.243652 205.339517,163.246745 205.494141,163.25293 C206.230147,163.283854 206.93831,163.35498 207.618652,163.466309 C208.298994,163.577637 208.987057,163.891518 209.682861,164.407959 C210.378666,164.9244 210.726562,165.71142 210.726562,166.769043 Z M207.869141,166.787598 C207.869141,165.78564 207.576907,165.116131 206.992432,164.779053 C206.407956,164.441974 205.63949,164.273438 204.687012,164.273438 C204.513834,164.273438 204.272625,164.279622 203.963379,164.291992 L203.963379,169.348145 L204.816895,169.348145 C205.726079,169.348145 206.462074,169.191977 207.024902,168.879639 C207.587731,168.5673 207.869141,167.86996 207.869141,166.787598 Z M222.601562,176 L216.67334,176 L216.67334,175.146484 C217.174319,175.146484 217.539224,175.110922 217.768066,175.039795 C217.996909,174.968668 218.111328,174.800132 218.111328,174.53418 C218.111328,174.348632 218.074219,174.159994 218,173.968262 L217.40625,172.483887 L213.324219,172.483887 L213.018066,173.300293 C212.844888,173.757978 212.758301,174.088866 212.758301,174.292969 C212.758301,174.664064 212.902098,174.899088 213.189697,174.998047 C213.477296,175.097006 213.812824,175.146484 214.196289,175.146484 L214.196289,176 L209.86377,176 L209.86377,175.146484 C210.210125,175.146484 210.503905,175.081544 210.745117,174.95166 C210.986329,174.821777 211.216714,174.57593 211.436279,174.214111 C211.655844,173.852293 211.892414,173.340498 212.145996,172.678711 L215.773438,163.178711 L216.654785,163.178711 L220.486328,172.975586 C220.76465,173.668298 220.968749,174.136799 221.098633,174.381104 C221.228516,174.625408 221.407876,174.814046 221.636719,174.947021 C221.865561,175.079997 222.187172,175.146484 222.601562,175.146484 L222.601562,176 Z M217.072266,171.574707 L215.337402,167.186523 L213.686035,171.574707 L217.072266,171.574707 Z M236.638184,171.036621 C236.279458,171.073731 236.008871,171.13094 235.826416,171.208252 C235.643961,171.285564 235.518718,171.418537 235.450684,171.607178 C235.382649,171.795818 235.348633,172.088051 235.348633,172.483887 L235.348633,175.434082 C234.451818,175.434082 233.480799,175.551594 232.435547,175.786621 C231.680986,175.953614 231.115074,176.06958 230.737793,176.134521 C230.360512,176.199463 229.915204,176.231934 229.401855,176.231934 C228.041172,176.231934 226.87533,175.913415 225.904297,175.276367 C224.933263,174.63932 224.204999,173.819829 223.719482,172.817871 C223.233966,171.815913 222.991211,170.786138 222.991211,169.728516 C222.991211,168.51627 223.278806,167.410731 223.854004,166.411865 C224.429202,165.413 225.208491,164.627526 226.191895,164.05542 C227.175298,163.483314 228.251459,163.197266 229.42041,163.197266 C230.842943,163.197266 232.138666,163.68896 233.307617,164.672363 C233.449871,164.406411 233.56429,164.041506 233.650879,163.577637 L234.550781,163.577637 L234.643555,167.696777 L233.790039,167.696777 C233.660156,167.0721 233.415855,166.500003 233.057129,165.980469 C232.698403,165.460935 232.251549,165.049643 231.716553,164.746582 C231.181557,164.443521 230.592451,164.291992 229.949219,164.291992 C229.479164,164.291992 229.018394,164.373941 228.566895,164.537842 C228.115395,164.701742 227.69328,164.986245 227.300537,165.391357 C226.907794,165.79647 226.592368,166.348467 226.354248,167.047363 C226.116128,167.74626 225.99707,168.609044 225.99707,169.635742 C225.99707,170.514002 226.089843,171.358232 226.275391,172.168457 C226.460938,172.978682 226.838213,173.674476 227.407227,174.255859 C227.97624,174.837242 228.780268,175.12793 229.819336,175.12793 C230.635746,175.12793 231.25423,174.999594 231.674805,174.74292 C232.09538,174.486245 232.369059,174.172365 232.49585,173.80127 C232.622641,173.430174 232.686035,173.01579 232.686035,172.558105 C232.686035,172.125161 232.653565,171.809734 232.588623,171.611816 C232.523681,171.413899 232.372153,171.268555 232.134033,171.175781 C231.895914,171.083007 231.529462,171.036621 231.034668,171.036621 L231.034668,170.183105 L236.638184,170.183105 L236.638184,171.036621 Z M248.476074,171.862305 L248.374023,176 L237.166992,176 L237.166992,175.146484 C237.940108,175.146484 238.437987,175.035157 238.660645,174.8125 C238.883302,174.589843 238.994629,174.206383 238.994629,173.662109 L238.994629,165.757812 C238.994629,165.399087 238.959066,165.119223 238.887939,164.918213 C238.816813,164.717203 238.649822,164.55949 238.386963,164.445068 C238.124104,164.330647 237.717451,164.273438 237.166992,164.273438 L237.166992,163.419922 L247.604004,163.419922 L247.770996,166.685547 L246.91748,166.685547 C246.725748,165.96191 246.50464,165.443931 246.25415,165.131592 C246.003661,164.819253 245.722251,164.627523 245.409912,164.556396 C245.097573,164.48527 244.629072,164.449707 244.004395,164.449707 L241.647949,164.449707 L241.647949,168.893555 L242.928223,168.893555 C243.367352,168.893555 243.695149,168.854899 243.911621,168.777588 C244.128094,168.700276 244.279622,168.553386 244.366211,168.336914 C244.4528,168.120442 244.511556,167.780276 244.54248,167.316406 L245.433105,167.316406 L245.433105,171.500488 L244.57959,171.500488 C244.55485,171.036619 244.493002,170.694907 244.394043,170.475342 C244.295084,170.255777 244.138917,170.108887 243.925537,170.034668 C243.712157,169.960449 243.385907,169.92334 242.946777,169.92334 L241.647949,169.92334 L241.647949,172.882812 C241.647949,173.377607 241.660319,173.739419 241.685059,173.968262 C241.709798,174.197104 241.776285,174.387288 241.884521,174.538818 C241.992758,174.690349 242.169025,174.80013 242.41333,174.868164 C242.657635,174.936198 243.005532,174.970215 243.457031,174.970215 L244.468262,174.970215 C244.895022,174.970215 245.301674,174.916098 245.688232,174.807861 C246.07479,174.699625 246.453611,174.421308 246.824707,173.9729 C247.195803,173.524493 247.455566,172.820968 247.604004,171.862305 L248.476074,171.862305 Z M268.060547,164.273438 C267.460609,164.273438 267.030763,164.33374 266.770996,164.454346 C266.511229,164.574952 266.350423,164.752766 266.288574,164.987793 C266.226725,165.22282 266.195801,165.60628 266.195801,166.138184 L266.195801,176.111328 L265.342285,176.111328 L257.113281,166.333008 L257.113281,173.263184 C257.113281,173.788902 257.145752,174.170816 257.210693,174.408936 C257.275635,174.647055 257.441079,174.829508 257.707031,174.956299 C257.972983,175.08309 258.402829,175.146484 258.996582,175.146484 L258.996582,176 L254.320801,176 L254.320801,175.146484 C254.877444,175.146484 255.281005,175.08309 255.531494,174.956299 C255.781984,174.829508 255.936605,174.647055 255.995361,174.408936 C256.054118,174.170816 256.083496,173.788902 256.083496,173.263184 L256.083496,166.843262 C256.083496,166.323728 256.06958,165.934083 256.041748,165.674316 C256.013916,165.414549 255.947429,165.187257 255.842285,164.992432 C255.737141,164.797606 255.565512,164.639893 255.327393,164.519287 C255.089273,164.398681 254.75993,164.316732 254.339355,164.273438 L254.339355,163.419922 L258.003906,163.419922 L265.166016,171.880859 L265.166016,166.138184 C265.166016,165.668129 265.133545,165.307863 265.068604,165.057373 C265.003662,164.806884 264.842856,164.613607 264.586182,164.477539 C264.329507,164.341471 263.922854,164.273438 263.366211,164.273438 L263.366211,163.419922 L268.060547,163.419922 L268.060547,164.273438 Z M283.293945,169.709961 C283.293945,170.854172 283.021813,171.925695 282.477539,172.924561 C281.933266,173.923426 281.127691,174.724362 280.060791,175.327393 C278.993891,175.930423 277.733731,176.231934 276.280273,176.231934 C275.092768,176.231934 274.047531,176.040204 273.144531,175.656738 C272.241532,175.273273 271.50399,174.759932 270.931885,174.116699 C270.359779,173.473467 269.936118,172.768396 269.660889,172.001465 C269.385659,171.234534 269.248047,170.464522 269.248047,169.691406 C269.248047,168.571935 269.510902,167.514328 270.036621,166.518555 C270.56234,165.522781 271.353999,164.720299 272.411621,164.111084 C273.469244,163.501869 274.734042,163.197266 276.206055,163.197266 C277.548184,163.197266 278.689286,163.416827 279.629395,163.855957 C280.569503,164.295087 281.302406,164.848629 281.828125,165.516602 C282.353844,166.184574 282.729572,166.885006 282.955322,167.61792 C283.181072,168.350834 283.293945,169.048174 283.293945,169.709961 Z M280.288086,169.672852 C280.288086,168.96777 280.227784,168.299808 280.107178,167.668945 C279.986572,167.038083 279.774741,166.467532 279.47168,165.957275 C279.168618,165.447019 278.754234,165.041912 278.228516,164.741943 C277.702797,164.441974 277.053389,164.291992 276.280273,164.291992 C275.216466,164.291992 274.386152,164.556394 273.789307,165.085205 C273.192461,165.614016 272.787355,166.275794 272.573975,167.070557 C272.360595,167.86532 272.253906,168.732743 272.253906,169.672852 C272.253906,170.192385 272.287923,170.733558 272.355957,171.296387 C272.423991,171.859215 272.587889,172.435951 272.847656,173.026611 C273.107423,173.617272 273.521807,174.115151 274.09082,174.520264 C274.659834,174.925376 275.395829,175.12793 276.298828,175.12793 C277.195643,175.12793 277.923907,174.919192 278.483643,174.501709 C279.043378,174.084226 279.451577,173.573978 279.708252,172.970947 C279.964926,172.367917 280.125732,171.791181 280.190674,171.240723 C280.255616,170.690264 280.288086,170.167646 280.288086,169.672852 Z M296.783203,166.991699 L295.901855,166.991699 C295.821451,166.212398 295.649822,165.637209 295.386963,165.266113 C295.124104,164.895018 294.841147,164.666179 294.538086,164.57959 C294.235025,164.493001 293.885581,164.449707 293.489746,164.449707 L291.894043,164.449707 L291.894043,173.662109 C291.894043,174.02702 291.931152,174.309976 292.005371,174.510986 C292.07959,174.711996 292.252766,174.868164 292.524902,174.979492 C292.797039,175.090821 293.195961,175.146484 293.72168,175.146484 L293.72168,176 L287.413086,176 L287.413086,175.146484 C288.186202,175.146484 288.684081,175.035157 288.906738,174.8125 C289.129396,174.589843 289.240723,174.206383 289.240723,173.662109 L289.240723,164.449707 L287.904785,164.449707 C287.379066,164.449707 286.943036,164.491455 286.59668,164.574951 C286.250324,164.658448 285.945721,164.887287 285.682861,165.261475 C285.420002,165.635663 285.27002,166.212398 285.23291,166.991699 L284.351562,166.991699 L284.351562,163.419922 L296.783203,163.419922 L296.783203,166.991699 Z M312.888672,166.685547 L312.016602,166.685547 C311.861978,165.98665 311.656333,165.476401 311.399658,165.154785 C311.142984,164.833169 310.855389,164.635254 310.536865,164.561035 C310.218342,164.486816 309.77458,164.449707 309.205566,164.449707 L306.960449,164.449707 L306.960449,168.893555 L308.138672,168.893555 C308.695315,168.893555 309.07259,168.79769 309.270508,168.605957 C309.468425,168.414224 309.585937,167.990563 309.623047,167.334961 L310.476562,167.334961 L310.476562,171.519043 L309.604492,171.519043 C309.573568,171.036619 309.516358,170.690268 309.432861,170.47998 C309.349365,170.269693 309.207114,170.124349 309.006104,170.043945 C308.805093,169.963541 308.503583,169.92334 308.101562,169.92334 L306.960449,169.92334 L306.960449,173.662109 C306.960449,174.169273 307.060953,174.543456 307.261963,174.784668 C307.462973,175.02588 307.940751,175.146484 308.695312,175.146484 L308.955078,175.146484 L308.955078,176 L302.498047,176 L302.498047,175.146484 C303.264978,175.146484 303.758218,175.033611 303.977783,174.807861 C304.197348,174.582112 304.307129,174.200198 304.307129,173.662109 L304.307129,165.757812 C304.307129,165.399087 304.27002,165.119223 304.195801,164.918213 C304.121582,164.717203 303.953045,164.55949 303.690186,164.445068 C303.427326,164.330647 303.029951,164.273438 302.498047,164.273438 L302.498047,163.419922 L312.795898,163.419922 L312.888672,166.685547 Z M328.270508,169.709961 C328.270508,170.854172 327.998375,171.925695 327.454102,172.924561 C326.909828,173.923426 326.104253,174.724362 325.037354,175.327393 C323.970454,175.930423 322.710294,176.231934 321.256836,176.231934 C320.06933,176.231934 319.024093,176.040204 318.121094,175.656738 C317.218094,175.273273 316.480553,174.759932 315.908447,174.116699 C315.336342,173.473467 314.91268,172.768396 314.637451,172.001465 C314.362222,171.234534 314.224609,170.464522 314.224609,169.691406 C314.224609,168.571935 314.487465,167.514328 315.013184,166.518555 C315.538902,165.522781 316.330561,164.720299 317.388184,164.111084 C318.445806,163.501869 319.710605,163.197266 321.182617,163.197266 C322.524746,163.197266 323.665848,163.416827 324.605957,163.855957 C325.546066,164.295087 326.278969,164.848629 326.804688,165.516602 C327.330406,166.184574 327.706135,166.885006 327.931885,167.61792 C328.157635,168.350834 328.270508,169.048174 328.270508,169.709961 Z M325.264648,169.672852 C325.264648,168.96777 325.204346,168.299808 325.08374,167.668945 C324.963134,167.038083 324.751304,166.467532 324.448242,165.957275 C324.145181,165.447019 323.730797,165.041912 323.205078,164.741943 C322.679359,164.441974 322.029952,164.291992 321.256836,164.291992 C320.193029,164.291992 319.362715,164.556394 318.765869,165.085205 C318.169024,165.614016 317.763917,166.275794 317.550537,167.070557 C317.337157,167.86532 317.230469,168.732743 317.230469,169.672852 C317.230469,170.192385 317.264485,170.733558 317.33252,171.296387 C317.400554,171.859215 317.564452,172.435951 317.824219,173.026611 C318.083986,173.617272 318.49837,174.115151 319.067383,174.520264 C319.636396,174.925376 320.372391,175.12793 321.275391,175.12793 C322.172205,175.12793 322.900469,174.919192 323.460205,174.501709 C324.019941,174.084226 324.42814,173.573978 324.684814,172.970947 C324.941489,172.367917 325.102295,171.791181 325.167236,171.240723 C325.232178,170.690264 325.264648,170.167646 325.264648,169.672852 Z M343.10498,164.273438 C342.542152,164.273438 342.138592,164.338378 341.894287,164.468262 C341.649983,164.598145 341.5,164.78369 341.444336,165.024902 C341.388672,165.266114 341.36084,165.637205 341.36084,166.138184 L341.36084,170.776855 C341.36084,171.630375 341.331462,172.272052 341.272705,172.701904 C341.213948,173.131757 341.057781,173.566241 340.804199,174.005371 C340.334145,174.852706 339.677006,175.435627 338.832764,175.75415 C337.988521,176.072674 337.176762,176.231934 336.397461,176.231934 C335.822263,176.231934 335.230065,176.156169 334.62085,176.004639 C334.011634,175.853108 333.444176,175.604168 332.918457,175.257812 C332.392738,174.911457 331.993816,174.456871 331.72168,173.894043 C331.573241,173.584797 331.458822,173.274009 331.378418,172.96167 C331.298014,172.649331 331.250081,172.355552 331.234619,172.080322 C331.219157,171.805093 331.211426,171.444826 331.211426,170.999512 L331.192871,165.757812 C331.192871,165.213539 331.086183,164.830079 330.872803,164.607422 C330.659423,164.384765 330.159997,164.273438 329.374512,164.273438 L329.374512,163.419922 L335.720215,163.419922 L335.720215,164.273438 C335.182126,164.273438 334.780112,164.327555 334.51416,164.435791 C334.248208,164.544027 334.075033,164.698648 333.994629,164.899658 C333.914225,165.100668 333.874023,165.386717 333.874023,165.757812 L333.874023,170.999512 C333.874023,171.5376 333.900309,172.009194 333.952881,172.414307 C334.005453,172.819419 334.087402,173.173501 334.19873,173.476562 C334.409018,173.977542 334.766192,174.37801 335.270264,174.677979 C335.774335,174.977947 336.329424,175.12793 336.935547,175.12793 C337.584964,175.12793 338.189532,174.96867 338.749268,174.650146 C339.309003,174.331623 339.697102,173.918785 339.913574,173.411621 C340.086752,173.015786 340.199625,172.606041 340.252197,172.182373 C340.304769,171.758706 340.331055,171.253095 340.331055,170.665527 L340.331055,166.138184 C340.331055,165.729978 340.318685,165.426922 340.293945,165.229004 C340.269206,165.031086 340.201172,164.856365 340.089844,164.704834 C339.978515,164.553303 339.794516,164.443522 339.537842,164.375488 C339.281167,164.307454 338.927086,164.273438 338.475586,164.273438 L338.475586,163.419922 L343.10498,163.419922 L343.10498,164.273438 Z M357.549805,164.273438 C356.949867,164.273438 356.520021,164.33374 356.260254,164.454346 C356.000487,164.574952 355.839681,164.752766 355.777832,164.987793 C355.715983,165.22282 355.685059,165.60628 355.685059,166.138184 L355.685059,176.111328 L354.831543,176.111328 L346.602539,166.333008 L346.602539,173.263184 C346.602539,173.788902 346.635009,174.170816 346.699951,174.408936 C346.764893,174.647055 346.930337,174.829508 347.196289,174.956299 C347.462241,175.08309 347.892087,175.146484 348.48584,175.146484 L348.48584,176 L343.810059,176 L343.810059,175.146484 C344.366702,175.146484 344.770262,175.08309 345.020752,174.956299 C345.271241,174.829508 345.425862,174.647055 345.484619,174.408936 C345.543376,174.170816 345.572754,173.788902 345.572754,173.263184 L345.572754,166.843262 C345.572754,166.323728 345.558838,165.934083 345.531006,165.674316 C345.503174,165.414549 345.436687,165.187257 345.331543,164.992432 C345.226399,164.797606 345.05477,164.639893 344.81665,164.519287 C344.578531,164.398681 344.249188,164.316732 343.828613,164.273438 L343.828613,163.419922 L347.493164,163.419922 L354.655273,171.880859 L354.655273,166.138184 C354.655273,165.668129 354.622803,165.307863 354.557861,165.057373 C354.49292,164.806884 354.332114,164.613607 354.075439,164.477539 C353.818765,164.341471 353.412112,164.273438 352.855469,164.273438 L352.855469,163.419922 L357.549805,163.419922 L357.549805,164.273438 Z M371.60498,169.821289 C371.60498,170.730473 371.45036,171.55151 371.141113,172.284424 C370.831867,173.017338 370.432945,173.62809 369.944336,174.116699 C369.455727,174.605308 368.933108,174.973306 368.376465,175.220703 C367.201329,175.740237 365.763355,176 364.0625,176 L358.319824,176 L358.319824,175.146484 C358.851728,175.146484 359.253742,175.095459 359.525879,174.993408 C359.798016,174.891357 359.97583,174.738282 360.059326,174.53418 C360.142823,174.330077 360.18457,174.03939 360.18457,173.662109 L360.18457,165.720703 C360.18457,165.17643 360.073243,164.79297 359.850586,164.570312 C359.627929,164.347655 359.11768,164.236328 358.319824,164.236328 L358.319824,163.364258 L361.019531,163.308594 C361.112305,163.308594 361.48958,163.302409 362.151367,163.290039 C362.813154,163.277669 363.196614,163.271484 363.301758,163.271484 C364.334641,163.271484 365.211341,163.327148 365.931885,163.438477 C366.652429,163.549805 367.31266,163.729165 367.912598,163.976562 C368.463056,164.19922 368.970213,164.510008 369.434082,164.908936 C369.897952,165.307863 370.289142,165.762449 370.607666,166.272705 C370.92619,166.782962 371.172037,167.33805 371.345215,167.937988 C371.518393,168.537926 371.60498,169.165687 371.60498,169.821289 Z M368.599121,169.765625 C368.599121,168.460605 368.350182,167.367436 367.852295,166.486084 C367.354408,165.604732 366.678715,164.99398 365.825195,164.653809 C365.4541,164.50537 365.059817,164.411052 364.642334,164.37085 C364.224851,164.330648 363.626469,164.310547 362.847168,164.310547 L362.847168,173.151855 C362.847168,173.659019 362.871907,174.028563 362.921387,174.260498 C362.970866,174.492433 363.11621,174.668701 363.357422,174.789307 C363.598634,174.909913 363.972816,174.970215 364.47998,174.970215 C365.982918,174.970215 367.045163,174.444504 367.666748,173.393066 C368.288333,172.341629 368.599121,171.132494 368.599121,169.765625 Z" id="PAGENOTFOUND" fill="url(#linearGradient-17)" fill-rule="nonzero"></path>
            </g>
        </g>
    </g>
</svg>