<?xml version="1.0" encoding="UTF-8"?>
<svg width="77px" height="45px" viewBox="0 0 77 45" version="1.1" xmlns="http://www.w3.org/2000/svg" xmlns:xlink="http://www.w3.org/1999/xlink">
    <!-- Generator: Sketch 54.1 (76490) - https://sketchapp.com -->
    <title>Group 17</title>
    <desc>Created with Sketch.</desc>
    <defs>
        <linearGradient x1="-14.088227%" y1="12.8189188%" x2="75.6138003%" y2="67.3547263%" id="linearGradient-1">
            <stop stop-color="#E65124" offset="0%"></stop>
            <stop stop-color="#A69D00" offset="52.821032%"></stop>
            <stop stop-color="#27953E" offset="74.5956303%"></stop>
            <stop stop-color="#53479E" offset="100%"></stop>
        </linearGradient>
    </defs>
    <g id="Page-1" stroke="none" stroke-width="1" fill="none" fill-rule="evenodd">
        <g id="d3" transform="translate(-915.000000, -478.000000)">
            <g id="Group-7" transform="translate(-11205.000000, 242.000000)">
                <g id="Group-5" transform="translate(0.000000, 236.000000)">
                    <g id="Group-13">
                        <g id="Tag-1-Copy-4">
                            <g id="Tag-1-Copy">
                                <g id="Group-14">
                                    <g id="Group-16" transform="translate(12120.000000, 0.000000)">
                                        <g id="Group-17" transform="translate(-0.000000, 0.000000)">
                                            <path d="M22.5,0 L53.8815789,3.55271368e-15 C66.3079858,1.27001977e-15 76.3815789,10.0735931 76.3815789,22.5 L76.3815789,22.5 C76.3815789,34.9264069 66.3079858,45 53.8815789,45 L22.5,45 C10.0735931,45 -9.86132607e-13,34.9264069 -9.87654403e-13,22.5 L-9.87654403e-13,22.5 C-9.89176199e-13,10.0735931 10.0735931,5.83540759e-15 22.5,3.55271368e-15 Z" id="Rectangle" fill="url(#linearGradient-1)" fill-rule="nonzero"></path>
                                            <rect id="Rectangle-Copy" fill="#FFFFFF" transform="translate(38.450000, 22.650000) rotate(90.000000) translate(-38.450000, -22.650000) " x="38" y="15" width="1" height="15.3"></rect>
                                        </g>
                                    </g>
                                </g>
                            </g>
                        </g>
                    </g>
                </g>
            </g>
        </g>
    </g>
</svg>