<?xml version="1.0" encoding="UTF-8"?>
<svg width="18px" height="18px" viewBox="0 0 18 18" version="1.1" xmlns="http://www.w3.org/2000/svg" xmlns:xlink="http://www.w3.org/1999/xlink">
    <!-- Generator: Sketch 54.1 (76490) - https://sketchapp.com -->
    <title>visualization</title>
    <desc>Created with Sketch.</desc>
    <defs>
        <linearGradient x1="-7.85599879%" y1="-10.6740953%" x2="78.7497223%" y2="96.2339186%" id="linearGradient-1">
            <stop stop-color="#E65124" offset="0%"></stop>
            <stop stop-color="#9C9400" offset="39.1200864%"></stop>
            <stop stop-color="#27953E" offset="64.1025473%"></stop>
            <stop stop-color="#53479E" offset="100%"></stop>
        </linearGradient>
    </defs>
    <g id="Page-1" stroke="none" stroke-width="1" fill="none" fill-rule="evenodd">
        <g id="d2" transform="translate(-932.000000, -220.000000)" fill="url(#linearGradient-1)" fill-rule="nonzero">
            <g id="visualization" transform="translate(932.000000, 220.000000)">
                <path d="M6.59629688,-3.55271368e-14 C7.4435625,-3.55271368e-14 8.13287109,0.689308594 8.13287109,1.53657422 L8.13287109,6.59629687 C8.13287109,7.4435625 7.4435625,8.13287109 6.59629688,8.13287109 L1.53657422,8.13287109 C0.689308594,8.13287109 8.73967565e-13,7.4435625 8.73967565e-13,6.59629687 L8.73967565e-13,1.53657422 C8.73967565e-13,0.689308594 0.689308594,-3.55271368e-14 1.53657422,-3.55271368e-14 L6.59629688,-3.55271368e-14 Z M16.4634258,-3.55271368e-14 C17.3106914,-3.55271368e-14 18,0.689308594 18,1.53657422 L18,6.59629687 C18,7.4435625 17.3106914,8.13287109 16.4634258,8.13287109 L11.4037031,8.13287109 C10.5564375,8.13287109 9.86712891,7.4435625 9.86712891,6.59629687 L9.86712891,1.53657422 C9.86712891,0.689308594 10.5564375,-3.55271368e-14 11.4037031,-3.55271368e-14 L16.4634258,-3.55271368e-14 Z M6.59629688,9.86712891 C7.4435625,9.86712891 8.13287109,10.5564375 8.13287109,11.4037031 L8.13287109,16.4634258 C8.13287109,17.3106914 7.4435625,18 6.59629688,18 L1.53657422,18 C0.689308594,18 8.73967565e-13,17.3106914 8.73967565e-13,16.4634258 L8.73967565e-13,11.4037031 C8.73967565e-13,10.5564375 0.689308594,9.86712891 1.53657422,9.86712891 L6.59629688,9.86712891 Z M16.4634258,9.86712891 C17.3106914,9.86712891 18,10.5564375 18,11.4037031 L18,16.4634258 C18,17.3106914 17.3106914,18 16.4634258,18 L11.4037031,18 C10.5564375,18 9.86712891,17.3106914 9.86712891,16.4634258 L9.86712891,11.4037031 C9.86712891,10.5564375 10.5564375,9.86712891 11.4037031,9.86712891 L16.4634258,9.86712891 Z" id="Combined-Shape"></path>
            </g>
        </g>
    </g>
</svg>