<?xml version="1.0" encoding="UTF-8"?>
<svg width="23px" height="22px" viewBox="0 0 23 22" version="1.1" xmlns="http://www.w3.org/2000/svg" xmlns:xlink="http://www.w3.org/1999/xlink">
    <!-- Generator: Sketch 54.1 (76490) - https://sketchapp.com -->
    <title>favorite copy</title>
    <desc>Created with Sketch.</desc>
    <defs>
        <linearGradient x1="18.7433281%" y1="4.64852608%" x2="73.7558923%" y2="80.5325316%" id="linearGradient-1">
            <stop stop-color="#E65124" offset="0%"></stop>
            <stop stop-color="#A69D00" offset="33.6722139%"></stop>
            <stop stop-color="#27953E" offset="59.8254985%"></stop>
            <stop stop-color="#53479E" offset="100%"></stop>
        </linearGradient>
        <linearGradient x1="19.9798088%" y1="6.04553785%" x2="74.3236116%" y2="81.641949%" id="linearGradient-2">
            <stop stop-color="#E65124" offset="0%"></stop>
            <stop stop-color="#A69D00" offset="33.6722139%"></stop>
            <stop stop-color="#27953E" offset="59.8254985%"></stop>
            <stop stop-color="#53479E" offset="100%"></stop>
        </linearGradient>
    </defs>
    <g id="UI-of-the-day-#23" stroke="none" stroke-width="1" fill="none" fill-rule="evenodd">
        <g id="Book-page-Copy-7" transform="translate(-1323.000000, -147.000000)" fill="url(#linearGradient-1)" fill-rule="nonzero" stroke="url(#linearGradient-2)" stroke-width="0.5">
            <g id="favorite-copy" transform="translate(1324.000000, 148.000000)">
                <path d="M15.0753231,0 C13.2876462,0 11.6142,0.807581699 10.5,2.16067362 C9.3858,0.807535649 7.7124,1.63603042e-16 5.92467692,1.63603042e-16 C2.65781538,0 0,2.6517986 0,5.91136725 C0,8.46374356 1.52538462,11.4159734 4.53369231,14.6860415 C6.84881538,17.2025447 9.36729231,19.1510192 10.0840154,19.6882865 L10.4998615,20 L10.9157077,19.6883325 C11.6324308,19.1510653 14.151,17.2026368 16.4661692,14.6861336 C19.4745692,11.4160655 21,8.46378961 21,5.91136725 C21,2.6517986 18.3421846,0 15.0753231,0 Z M15.4461231,13.7518679 C13.5418615,15.8217306 11.4931385,17.4949633 10.4998615,18.2661193 C9.50663077,17.4949633 7.458,15.8216846 5.55373846,13.7518219 C2.82627692,10.7870664 1.38461538,8.07586304 1.38461538,5.91136725 C1.38461538,3.41360644 3.42129231,1.38150487 5.92467692,1.38150487 C7.57209231,1.38150487 9.09323077,2.27736473 9.89450769,3.71951767 L10.5,4.80934081 L11.1054923,3.71951767 C11.9067231,2.27741078 13.4278615,1.38150487 15.0753231,1.38150487 C17.5787077,1.38150487 19.6153846,3.41356039 19.6153846,5.91136725 C19.6153846,8.07595514 18.1736769,10.7871585 15.4461231,13.7518679 Z" id="Shape"></path>
            </g>
        </g>
    </g>
</svg>