<?xml version="1.0" encoding="UTF-8"?>
<svg width="14px" height="15px" viewBox="0 0 14 15" version="1.1" xmlns="http://www.w3.org/2000/svg" xmlns:xlink="http://www.w3.org/1999/xlink">
    <!-- Generator: Sketch 54.1 (76490) - https://sketchapp.com -->
    <title>favorite</title>
    <desc>Created with Sketch.</desc>
    <g id="Page-1" stroke="none" stroke-width="1" fill="none" fill-rule="evenodd">
        <g id="favorite" fill="#FFFFFF" fill-rule="nonzero" stroke="#FFFFFF" stroke-width="0.51369863">
            <path d="M9.71766538,0.876712 C8.61567275,0.876712 7.58409636,1.39942755 6.89726074,2.2752302 C6.21042512,1.39939774 5.17887718,0.876712 4.0768561,0.876712 C2.06303735,0.876712 0.424658,2.59311589 0.424658,4.70290519 C0.424658,6.35495697 1.36496358,8.26581808 3.21939983,10.3824032 C4.6465305,12.0112358 6.19901627,13.2724059 6.64083187,13.6201577 L6.89717539,13.8219175 L7.15351891,13.6201875 C7.5953345,13.2724357 9.14787718,12.0112954 10.5750363,10.3824629 C12.4295294,8.2658777 13.3698635,6.35498678 13.3698635,4.70290519 C13.3698635,2.59311589 11.7314841,0.876712 9.71766538,0.876712 Z M9.94624072,9.77774979 C8.77238087,11.1174897 7.50946938,12.2005067 6.89717539,12.6996454 C6.28490984,12.2005067 5.02205526,11.1174599 3.84819541,9.77771998 C2.1668835,7.85875152 1.27818803,6.10389732 1.27818803,4.70290519 C1.27818803,3.08620384 2.53367381,1.77090522 4.0768561,1.77090522 C5.09238613,1.77090522 6.03007423,2.35075972 6.52401206,3.28420803 L6.89726074,3.98960725 L7.27050942,3.28420803 C7.7644188,2.35078953 8.70210689,1.77090522 9.71766538,1.77090522 C11.2608477,1.77090522 12.5163334,3.08617403 12.5163334,4.70290519 C12.5163334,6.10395694 11.6276095,7.85881113 9.94624072,9.77774979 Z" id="Shape"></path>
        </g>
    </g>
</svg>