<?xml version="1.0" encoding="UTF-8"?>
<svg width="401px" height="294px" viewBox="0 0 401 294" version="1.1" xmlns="http://www.w3.org/2000/svg" xmlns:xlink="http://www.w3.org/1999/xlink">
    <!-- Generator: Sketch 64 (93537) - https://sketch.com -->
    <title>Group 2</title>
    <desc>Created with Sketch.</desc>
    <g id="Page-1" stroke="none" stroke-width="1" fill="none" fill-rule="evenodd">
        <g id="Artboard" transform="translate(-646.000000, -204.000000)">
            <g id="Group-2" transform="translate(646.000000, 204.000000)">
                <polyline id="Fill-3" fill="#50BFA5" points="152.344135 55.760584 149.198069 56.725946 147.08648 51.8365286 142.313525 52.6807155 140.134616 49.2799572 138.411236 50.3828755 141.326172 54.9314317 145.850044 54.1312269 148.046905 59.2178906 152.781712 57.7651352 152.344135 55.760584"></polyline>
                <path d="M132.962842,289.511719 C132.962842,289.511719 116.17784,232.622229 114.831449,220.073868 C113.485058,207.523264 122.871645,211.412089 122.871645,211.412089 C122.871645,211.412089 114.975064,187.500192 120.68376,181.825155 C126.3947,176.150119 131.544644,186.728261 131.544644,186.728261 C131.544644,186.728261 133.272512,157.70008 139.360442,157.691094 C150.697051,157.670908 150.474896,189.346991 150.474896,189.346991 C150.474896,189.346991 153.367392,176.946733 159.439613,180.34637 C168.59507,185.473874 155.465517,210.328244 155.465517,210.328244 C155.465517,210.328244 167.131992,210.334976 171.229507,216.218703 C178.583044,226.772161 132.962842,289.511719 132.962842,289.511719" id="Fill-5" fill="#50BFA5"></path>
                <path d="M138.449384,281.983152 C138.449384,281.983152 90.0623499,273.891344 79.5380634,265.31708 C69.0137769,256.742816 79.4303521,252.878675 79.4303521,252.878675 C79.4303521,252.878675 55.1235139,240.41783 55.4040119,231.944545 C55.6867539,223.471261 67.7616336,227.77971 67.7616336,227.77971 C67.7616336,227.77971 47.2807886,204.424322 52.1300388,199.987964 C61.1598317,191.727858 84.8383544,216.005525 84.8383544,216.005525 C84.8383544,216.005525 77.8079515,204.460225 85.2108558,202.631378 C96.3791658,199.878009 104.619076,228.345194 104.619076,228.345194 C104.619076,228.345194 102.525439,217.102833 110.224549,218.601815 C124.040761,221.287864 138.449384,281.983152 138.449384,281.983152" id="Fill-6" fill="#50BFA5"></path>
                <path d="M110.224549,218.601815 C102.507487,217.206056 104.619076,228.345194 104.619076,228.345194 C104.619076,228.345194 96.3791658,199.878009 85.2108558,202.631378 C77.8079515,204.460225 84.8383544,216.005525 84.8383544,216.005525 C84.8383544,216.005525 61.1598317,191.727858 52.1300388,199.987964 L138.287817,281.996616 C136.752932,274.162867 123.165607,220.940046 110.224549,218.601815" id="Fill-7" fill="#3C8F7C"></path>
                <path d="M192.785221,21.3903735 C184.206469,22.8018397 181.659546,34.0594603 188.790929,39.0949611 C190.072244,39.9992868 190.958617,41.3595901 191.335607,42.8814603 L192.63263,48.1180221 C192.991667,49.5611284 194.396401,50.4874452 195.863967,50.2459925 L199.113256,49.711251 C200.580822,49.4697983 201.617543,48.1418084 201.49188,46.6603299 C201.040839,41.2538984 200.484331,39.2928805 202.241371,36.881495 C207.382339,29.8277546 201.363973,19.978683 192.785221,21.3903735" id="Fill-10" fill="#F7CC7F"></path>
                <path d="M197.665887,28.9552935 C197.398852,29.5696964 197.499832,30.3566617 197.562663,31.2616606 C198.26503,30.8617826 199.079597,30.3618229 199.344387,29.6293864 C199.530638,29.1159628 199.321947,28.3898095 198.799099,28.256068 C198.740755,28.2417065 197.854381,28.5242241 197.665887,28.9552935 Z M189.71545,32.2761659 C190.153027,32.7469538 190.884566,32.9540736 191.952702,32.9049303 C191.768696,32.117965 191.49493,31.409988 190.954129,30.9073355 C189.733402,29.7730014 188.983911,31.4862834 189.71545,32.2761659 Z M193.660375,44.2772185 C193.101622,39.6454105 192.318472,34.7553198 192.051438,33.3683131 C187.134868,33.6396108 189.004107,28.457129 191.272775,30.5644547 C191.919043,31.1649449 192.224225,31.9795112 192.426183,32.8717194 C194.05756,32.7247384 195.655277,32.2584385 197.109378,31.5069281 C197.030839,30.3647401 196.91864,29.4992353 197.237286,28.7681452 C197.719742,27.6641049 199.117744,27.363411 199.687716,28.4394015 C199.900895,28.8433187 199.939043,29.3601083 199.784208,29.7880361 C199.454342,30.7013377 198.462501,31.3047451 197.596323,31.7773282 C197.856625,35.4597065 198.213419,39.170359 198.66446,42.8246875 L198.202199,42.8821335 C197.75789,39.2868218 197.40334,35.6369813 197.145282,32.0133954 C195.700156,32.7314704 194.129367,33.1813892 192.52043,33.3328582 C192.857028,35.1060546 193.599787,39.8727261 194.124879,44.2213433 L193.660375,44.2772185 L193.660375,44.2772185 Z" id="Fill-11" fill="#FAE0B2"></path>
                <path d="M191.297459,42.7519824 C191.308679,42.7955157 191.324387,42.8374782 191.335607,42.8814603 L192.63263,48.1180221 C192.991667,49.5611284 194.396401,50.4874452 195.863967,50.2459925 L199.113256,49.711251 C200.580822,49.4697983 201.617543,48.1418084 201.49188,46.6603299 C201.292165,44.2552275 201.070011,42.5329695 201.040839,41.1486556 L191.297459,42.7519824" id="Fill-12" fill="#96D9C9"></path>
                <path d="M186.425769,17.4800064 L183.860895,12.7981575 C183.614057,12.3450971 183.780112,11.7764715 184.233396,11.5282868 C184.686681,11.2801021 185.254409,11.446157 185.503491,11.8992174 L188.068366,16.5812907 C188.315204,17.0343512 188.149149,17.6029768 187.695864,17.8511615 C187.240335,18.1006925 186.672607,17.9308229 186.425769,17.4800064" id="Fill-13" fill="#FAE0B2"></path>
                <path d="M180.820296,28.805171 L175.228287,28.3164312 C174.714415,28.2713271 174.332937,27.8175935 174.380061,27.3028235 C174.424941,26.7882779 174.878226,26.4072493 175.392098,26.4523534 L180.984107,26.9413176 C181.497979,26.9861973 181.879457,27.4401553 181.834577,27.9547009 C181.789697,28.4692465 181.336413,28.8498263 180.820296,28.805171" id="Fill-14" fill="#FAE0B2"></path>
                <path d="M175.277655,45.9458453 C174.914129,45.5782807 174.916373,44.9860932 175.284387,44.6230165 C176.659949,43.2649572 178.170151,42.0321122 179.776843,40.9585901 C180.205444,40.6713601 180.786636,40.7871497 181.073866,41.2166483 C181.361096,41.6463713 181.246653,42.2273388 180.815808,42.5143444 C179.307851,43.5218934 177.889653,44.6791161 176.599362,45.9536992 C176.233592,46.3152051 175.64118,46.3152051 175.277655,45.9458453" id="Fill-15" fill="#FAE0B2"></path>
                <path d="M200.239737,17.2271094 C199.741572,17.0935923 199.445366,16.5808419 199.577761,16.0817798 C200.210565,13.7116836 200.598774,11.2673114 200.731169,8.81755373 C200.760341,8.30166174 201.200162,7.90514971 201.716278,7.93387271 C202.232395,7.96147371 202.627336,8.40219223 202.600408,8.91808423 C202.461281,11.496871 202.052876,14.0698235 201.386413,16.5646852 C201.251774,17.0668889 200.735657,17.3601777 200.239737,17.2271094" id="Fill-16" fill="#FAE0B2"></path>
                <path d="M205.9978,24.4141424 C205.849697,23.9193439 206.127951,23.3976175 206.623872,23.2483926 L212.435791,21.496514 C212.931712,21.3475134 213.452316,21.6277871 213.602663,22.1223612 C213.750766,22.6171598 213.470268,23.1388861 212.976592,23.2881111 L207.164672,25.0397653 C206.670996,25.188317 206.148147,24.9098386 205.9978,24.4141424" id="Fill-17" fill="#FAE0B2"></path>
                <path d="M215.545954,39.8801312 C215.462926,39.8801312 215.377655,39.8689113 215.292383,39.8451251 C213.277286,39.2789678 211.320531,38.4940221 209.471488,37.5120546 C209.015959,37.2694799 208.843173,36.7030982 209.085523,36.2468962 C209.327873,35.7906942 209.893357,35.6174586 210.348886,35.8598089 C212.078998,36.7789449 213.912333,37.5138498 215.799524,38.0438789 C216.295444,38.1836791 216.584918,38.7002443 216.445791,39.1977356 C216.329104,39.6104043 215.954359,39.8801312 215.545954,39.8801312" id="Fill-18" fill="#FAE0B2"></path>
                <path d="M300.680475,81.2354161 L297.747588,74.3010557 L290.373855,72.7856931 C289.534605,72.6131307 289.256351,71.5523993 289.904862,70.99073 L295.593363,66.0589012 L294.754113,58.5770087 C294.659865,57.7247434 295.582143,57.1332292 296.31817,57.5757429 L302.765137,61.4618749 L309.622753,58.3530591 C310.403659,57.9989583 311.251885,58.6943691 311.056659,59.52958 L309.353475,66.8629208 L314.429367,72.4237384 C315.008315,73.0569908 314.608886,74.078228 313.753928,74.1518307 L306.252288,74.7980982 L302.534006,81.3435761 C302.109893,82.0890277 301.014829,82.0250742 300.680475,81.2354161" id="Fill-19" fill="#F7CC7F"></path>
                <path d="M212.579406,244.142844 L169.14709,244.142844 C165.296413,244.142844 162.17503,240.435782 162.17503,235.864786 C162.17503,231.29379 165.296413,227.588972 169.14709,227.588972 L212.579406,227.588972 C209.260554,232.17792 209.130403,238.907629 212.269737,243.671607 L212.579406,244.142844" id="Fill-27" fill="#FAE0B2"></path>
                <path d="M162.179518,235.864786 L162.179518,235.864786 C162.179518,231.29379 165.374952,227.588972 169.317632,227.588972 L213.407437,227.588972 C213.613883,227.588972 213.779938,227.393745 213.777717,227.155883 C213.77545,226.920264 213.609395,226.73177 213.407437,226.73177 L143.462445,226.73177 C139.113603,226.73177 135.58606,230.820309 135.58606,235.864786 C135.58606,240.911507 139.113603,245.000046 143.462445,245.000046 L213.407437,245.000046 C213.609395,245.000046 213.77545,244.809308 213.777717,244.575933 C213.779938,244.335827 213.611639,244.142844 213.407437,244.142844 L169.317632,244.142844 C165.374952,244.142844 162.179518,240.435782 162.179518,235.864786" id="Fill-28" fill="#466EB6"></path>
                <path d="M281.779395,105.122854 L288.190458,103.435602 L283.846105,161.398166 L276.153727,161.65398 L280.033575,107.228833 C280.105383,106.225323 280.80775,105.378892 281.779395,105.122854" id="Fill-31" fill="#184655"></path>
                <path d="M284.420565,163.049738 C284.27695,163.063202 284.131091,163.060958 283.980744,163.043006 C282.708405,162.892659 281.765931,161.627052 281.875887,160.215586 L286.143945,105.713695 C286.2539,104.301555 287.375892,103.278523 288.650475,103.429543 C289.922814,103.580114 290.865288,104.846395 290.755333,106.258534 L286.487274,160.760874 C286.388539,162.006286 285.502165,162.951003 284.420565,163.049738" id="Fill-32" fill="#F7CC7F"></path>
                <path d="M225.410509,165.953454 C225.412753,165.993846 225.414997,166.031994 225.419485,166.072385 C225.619199,168.289442 227.338091,169.94999 229.254454,169.777203 L283.40404,164.930197 C285.322646,164.759654 286.713917,162.823096 286.514202,160.606039 C286.505226,160.511792 286.494006,160.419789 286.478298,160.327785 L225.410509,165.953454" id="Fill-33" fill="#F7CC7F"></path>
                <path d="M263.116178,224.494517 C259.570682,226.460248 248.732238,223.013488 248.732238,222.701574 C248.577403,225.663633 236.596771,254.655911 236.596771,254.655911 L236.605747,263.575748 C236.605747,263.575748 261.291818,264.751596 260.937269,262.570443 C260.582719,260.389291 259.254281,261.807489 254.330979,257.687534 C253.893402,257.321764 246.979686,255.717315 248.848925,251.624288 C252.618819,243.382133 260.620867,229.639973 263.116178,224.494517" id="Fill-34" fill="#F7A491"></path>
                <path d="M229.867062,203.679319 C229.501292,202.58201 253.132691,192.553644 254.189608,193.70032 C256.061091,195.726638 241.403385,233.771149 241.403385,233.771149 L258.244488,238.916605 C258.244488,238.916605 275.749809,194.963684 275.01827,186.923488 C274.288976,178.885536 265.519485,169.750276 246.517425,175.595855 C227.515366,181.443678 229.867062,203.679319 229.867062,203.679319" id="Fill-36" fill="#355389"></path>
                <path d="M278.794896,229.494114 C274.805092,228.769308 269.634952,228.562861 265.494801,228.491053 C265.98399,232.175676 268.351393,251.072268 267.918304,252.234652 C266.165752,256.938043 262.274683,259.139391 262.274683,259.139391 C262.274683,259.139391 280.623743,275.695508 281.730028,273.783633 C282.838556,271.871759 280.913217,272.127573 279.71493,265.819733 C279.609462,265.258737 276.954829,256.453342 276.791018,251.705071 C276.47686,242.648351 278.658013,234.525127 278.794896,229.494114" id="Fill-37" fill="#F7A491"></path>
                <path d="M272.906681,167.672346 C270.346295,166.308004 263.701857,166.258636 256.395444,166.732117 C242.148388,167.656638 228.085338,170.459375 214.533917,174.949587 L205.465976,177.952038 L205.495148,168.655211 C205.495148,168.655211 176.646485,163.828401 175.64118,170.977735 C174.130979,181.744372 176.00695,203.605267 185.617935,208.483689 C215.474146,223.639559 257.313234,184.340662 257.465825,189.48163 C257.667784,196.38637 263.488679,222.082234 264.978685,233.331328 C269.116592,233.403135 276.227778,233.400891 279.313256,232.691792 C279.9124,210.653622 280.192898,171.561171 272.906681,167.672346" id="Fill-38" fill="#466EB6"></path>
                <path d="M215.025349,77.8025688 C214.334202,71.4686987 213.602663,65.1114911 208.353984,60.4689119 C204.103878,56.7120333 198.702607,56.0756394 193.359681,58.0855761 C178.224006,63.7808084 186.021852,77.2229477 166.723587,90.7757155 C160.725416,94.9870009 154.116883,97.8693987 149.601986,103.540172 C143.280682,111.477593 145.668282,121.025297 151.426345,127.399784 C178.986961,157.899794 209.75423,116.708769 211.964555,106.820877 C213.607151,99.4648716 215.471902,81.8798884 215.025349,77.8025688" id="Fill-40" fill="#13375B"></path>
                <path d="M209.428852,113.419986 C207.178136,109.269737 204.8601,105.976465 204.8601,105.976465 C202.524113,101.825543 196.492283,99.7260714 196.492283,99.7260714 C196.492283,99.7260714 194.474941,99.7669119 192.156905,99.8806819 C192.01329,100.264852 191.867431,100.53974 191.719328,100.650144 C190.848662,101.303144 185.858041,100.460079 182.63568,102.648412 C171.830895,111.909784 174.819882,156.800242 175.668108,170.977735 L208.573894,171.289649 C208.573894,171.289649 204.424767,140.782682 211.109597,132.944445 C215.765864,127.486177 212.770145,119.576132 209.428852,113.419986" id="Fill-41" fill="#50BFA5"></path>
                <path d="M194.59836,84.5394586 C194.59836,84.5394586 192.789709,97.4565056 191.526345,100.595391 C190.262982,103.734276 198.471477,110.44738 205.302165,112.484917 C212.132854,114.52268 203.21526,105.551455 203.498002,102.195801 C203.780744,98.8403707 205.023911,82.9527373 205.023911,82.9527373 L194.59836,84.5394586" id="Fill-42" fill="#F7A491"></path>
                <path d="M204.678338,87.5089231 C204.878052,84.8807686 205.023911,82.9527373 205.023911,82.9527373 L194.59836,84.5394586 C194.59836,84.5394586 194.335814,86.0568408 194.044096,88.202763 C198.271762,90.6545403 202.070828,89.8808145 204.678338,87.5089231" id="Fill-43" fill="#F47458"></path>
                <path d="M197.867845,60.9457585 C197.867845,60.9457585 193.75911,61.8718509 191.221164,65.7436214 C188.685461,69.615392 186.944129,81.013486 195.300727,86.3337485 C203.655081,91.6544597 210.153659,84.1283607 210.261371,76.7878391 C210.369082,69.4473176 208.796049,59.651204 197.867845,60.9457585" id="Fill-44" fill="#F7A491"></path>
                <path d="M212.175489,74.4906724 C211.461902,76.2620736 210.048192,77.3611771 209.015959,76.9458156 C207.983727,76.5306785 207.725668,74.7579309 208.439255,72.9867541 C209.150598,71.2155772 210.564308,70.1162493 211.596541,70.5316108 C212.628774,70.9469723 212.886832,72.7194955 212.175489,74.4906724" id="Fill-45" fill="#F7A491"></path>
                <path d="M199.099793,60.7052034 C199.099793,60.7052034 193.862333,72.4551542 189.259921,73.5046657 C184.657509,74.5539527 184.724775,80.4661782 184.724775,80.4661782 C184.724775,80.4661782 184.825808,66.8131044 189.14099,63.6813998 C193.453928,60.5496953 199.099793,60.7052034 199.099793,60.7052034" id="Fill-46" fill="#13375B"></path>
                <path d="M191.088768,75.9465694 C191.694644,77.8548537 191.14038,79.7335174 189.850089,80.1432689 C188.559798,80.5525716 187.022669,79.3379029 186.416793,77.4296186 C185.810917,75.5215588 186.365181,73.6426707 187.655472,73.2331436 C188.945763,72.8236164 190.482893,74.0385095 191.088768,75.9465694" id="Fill-47" fill="#F7A491"></path>
                <path d="M249.941746,160.774338 C247.967039,160.060751 245.029664,159.970992 245.079031,159.71069 C245.276502,158.656017 253.998869,162.039945 252.820777,160.500572 C252.16329,159.64337 245.637784,156.607259 244.049043,157.107668 C242.509669,157.594612 232.402764,160.431009 232.402764,160.431009 L204.777073,153.957114 C204.777073,153.957114 197.805014,138.112341 197.122842,124.498761 C191.360291,125.278097 187.435562,126.702578 182.426989,129.481977 C184.841516,142.501574 190.714023,163.604003 197.20587,167.564635 C199.934555,169.229671 232.539647,165.569733 232.539647,165.569733 C232.539647,165.569733 239.724885,165.062592 240.898489,164.611551 C241.78935,164.268222 244.082702,162.977931 245.328114,162.623381 C248.16451,161.822279 253.213475,163.837377 253.229256,163.280869 C253.240403,162.876952 251.959087,161.503633 249.941746,160.774338" id="Fill-48" fill="#F7A491"></path>
                <path d="M197.293385,109.953479 C197.026351,105.764409 195.439854,101.720076 190.983301,100.417667 C188.220957,99.6105062 185.122014,100.382886 182.913934,102.185703 C180.288472,104.330952 179.554689,107.771653 179.567972,111.028123 C179.595081,118.422724 180.099977,126.089521 181.450856,133.370802 C186.459429,130.590505 192.307252,128.918737 198.072048,128.138952 C198.069804,128.095643 197.643447,115.489612 197.293385,109.953479" id="Fill-49" fill="#96D9C9"></path>
                <path d="M111.701091,117.857465 L68.8724059,109.882344 C68.0129599,109.722124 67.4452318,108.894991 67.6045547,108.034872 L72.9699212,79.2232353 C73.1314881,78.3631161 73.9572744,77.7956125 74.8189643,77.9556086 L117.645405,85.9309533 C118.507095,86.0909494 119.074823,86.918082 118.913256,87.7784256 L113.54789,116.590062 C113.388567,117.450182 112.560537,118.017685 111.701091,117.857465" id="Fill-50" fill="#F7CC7F"></path>
                <path d="M91.3144932,84.9200383 L78.2769442,82.4922717 C77.4174982,82.3322756 76.8497702,81.505143 77.009093,80.6450238 L77.8259033,76.2609516 C77.9874702,75.4008324 78.8132564,74.8331044 79.6749464,74.9935493 L92.7102514,77.4210915 C93.5719414,77.581312 94.1374254,78.4084446 93.9781026,79.2685638 L93.1612923,83.652636 C93.0019694,84.5127552 92.1739392,85.0800344 91.3144932,84.9200383" id="Fill-51" fill="#F7CC7F"></path>
                <path d="M113.651113,116.755668 C113.428959,117.54398 112.64132,118.03272 111.83573,117.882822 L68.7287909,109.855641 C67.9276885,109.706192 67.3689364,108.972633 67.4407439,108.160311 L69.6959481,82.333622 C69.7363398,81.8886399 69.9607383,81.4804592 70.3152878,81.2102834 C70.6720813,80.9398833 71.1253661,80.8323965 71.5651871,80.9140775 L119.454057,89.8316713 C119.891634,89.9131279 120.275355,90.1750009 120.508729,90.5531122 C120.744348,90.931448 120.809423,91.391016 120.688248,91.8193926 L113.651113,116.755668" id="Fill-52" fill="#FAE0B2"></path>
                <polyline id="Fill-53" fill="#50BFA5" points="310.089502 22.3884978 302.756161 24.390805 301.176396 15.5032807 303.575215 15.0769236 304.688231 21.3365179 309.447722 20.037251 310.089502 22.3884978"></polyline>
                <path d="M76.439121,144.444864 C78.2769442,144.294517 81.0953885,145.104596 82.3609957,145.961798 C82.5494904,146.139072 84.0035922,146.71802 85.5160376,149.222307 L85.174952,149.457925 C83.5817232,147.788401 82.5090986,147.413656 81.2300276,147.029934 C79.1251703,146.489134 77.0023611,146.893051 76.8295743,146.987299 L76.439121,144.444864" id="Fill-54" fill="#355389"></path>
                <path d="M85.3454948,149.338994 C85.3454948,149.338994 74.154745,151.205989 75.1981977,159.948552 C76.2416504,168.691115 88.047252,175.490388 98.5850024,170.084629 C112.758007,162.811876 107.159267,144.319201 97.070313,142.889783 C86.9836034,141.460365 85.3454948,149.338994 85.3454948,149.338994" id="Fill-55" fill="#F47458"></path>
                <path d="M90.0937657,145.490561 C90.0937657,145.490561 93.0131893,142.492598 99.4085446,145.219039 C105.806144,147.94548 106.268405,160.662139 100.564197,159.923868 C94.8577444,159.185597 85.5317455,147.323896 90.0937657,145.490561" id="Fill-56" fill="#F48C7F"></path>
                <path d="M167.073648,29.3531519 L121.04953,45.7708145 C119.566256,46.3001704 117.934879,45.5264446 117.405299,44.0429466 L108.911818,20.2286629 C108.382238,18.7451648 109.156413,17.1133394 110.639686,16.5842079 L156.663805,0.166545341 C158.147078,-0.362586165 159.778455,0.410915234 160.308035,1.89441328 L168.801516,25.708697 C169.331096,27.192195 168.559166,28.823796 167.073648,29.3531519" id="Fill-57" fill="#86B1F2"></path>
                <path d="M136.568925,23.2317871 C138.260889,27.9762432 135.788019,33.1944043 131.041992,34.8868173 C126.298209,36.5794547 121.080945,34.1050132 119.386737,29.3607815 C117.694773,24.6163254 120.169888,19.3981643 124.913671,17.7057513 C129.657453,16.0131139 134.876961,18.487331 136.568925,23.2317871" id="Fill-58" fill="#FFFFFF"></path>
                <path d="M129.284952,21.9551844 C129.785361,23.3543086 129.053822,24.8930087 127.655819,25.3920708 C126.255573,25.8911329 124.718444,25.1616136 124.218035,23.7624894 C123.719871,22.3633652 124.449166,20.8246651 125.849412,20.325603 C127.247414,19.8265409 128.786788,20.5562846 129.284952,21.9551844" id="Fill-59" fill="#86B1F2"></path>
                <path d="M133.667453,29.4552532 L125.573402,32.3430367 L125.248024,31.4344474 C124.657856,29.7768162 125.52179,27.9535789 127.180095,27.3625134 L129.271488,26.6159399 C130.929793,26.02465 132.751908,26.8890327 133.34432,28.546664 L133.667453,29.4552532" id="Fill-60" fill="#86B1F2"></path>
                <path d="M137.702137,18.2532834 C137.212949,18.2532834 136.773128,17.9429404 136.607073,17.480904 C136.39165,16.8768235 136.708052,16.2099113 137.311684,15.9944888 L157.431247,8.81755373 C157.556911,8.77267405 157.689306,8.74978541 157.821701,8.74978541 C158.313133,8.74978541 158.752954,9.06035284 158.916765,9.52238921 C159.132188,10.1262454 158.81803,10.7931575 158.212154,11.0088044 L138.094835,18.1857395 C137.966927,18.2306192 137.836776,18.2532834 137.702137,18.2532834" id="Fill-61" fill="#FFFFFF"></path>
                <path d="M143.134823,23.2688128 C142.643391,23.2688128 142.20357,22.9584698 142.037515,22.496209 C141.822092,21.8921284 142.138494,21.2254407 142.74437,21.0097938 L158.456748,15.4045453 C158.582411,15.3596657 158.714807,15.336777 158.847202,15.336777 C159.338634,15.336777 159.778455,15.6473444 159.942266,16.1093808 C160.047733,16.4019964 160.032025,16.717725 159.89963,16.9984474 C159.764991,17.2791699 159.531617,17.4912264 159.237655,17.595796 L143.525277,23.2010445 C143.399613,23.2459242 143.267218,23.2688128 143.134823,23.2688128" id="Fill-62" fill="#FFFFFF"></path>
                <path d="M238.584941,208.97961 L127.453861,208.97961 C124.002613,208.97961 121.206608,211.777858 121.206608,215.229106 L121.206608,220.484517 C121.206608,223.935765 124.002613,226.734014 127.453861,226.734014 L238.584941,226.734014 L238.526597,226.673426 C233.773838,221.725441 233.798522,213.898423 238.584941,208.97961" id="Fill-63" fill="#F47458"></path>
                <path d="M236.619211,211.607315 L177.209725,211.607315 C173.758477,211.607315 170.960229,214.405564 170.960229,217.856812 C170.960229,221.30806 173.758477,224.106308 177.209725,224.106308 L236.616967,224.106308 C234.43357,220.235435 234.435814,215.4737 236.619211,211.607315" id="Fill-64" fill="#FAE0B2"></path>
                <path d="M329.540358,209.491238 L321.116441,188.357394 C320.692328,187.293745 321.210688,186.088726 322.274336,185.664612 L352.586077,173.583001 C353.649725,173.158888 354.854745,173.677248 355.278858,174.740897 L363.702775,195.874741 C364.126888,196.93839 363.608528,198.143409 362.544879,198.567522 L332.233139,210.649134 C331.16949,211.073247 329.964471,210.554887 329.540358,209.491238" id="Fill-65" fill="#FAE0B2"></path>
                <path d="M251.169205,7.10584249 C252.901561,8.48791244 255.915232,12.9354894 259.756933,16.0579936 C262.005405,17.884148 263.737761,17.4196433 266.607817,17.7665632 C280.224314,19.4125258 276.535204,22.1959639 278.168824,22.4692812 C277.70432,23.5367446 273.460945,32.5546444 272.668819,34.3772085 C271.93728,36.0586259 270.673917,36.8110339 268.842826,36.557688 C266.026625,36.1683568 263.185741,35.8788828 260.412176,35.2777194 C253.305478,33.7365509 249.351578,30.1820798 244.257733,25.8653271 C242.906855,24.7199975 242.574745,23.2914771 243.274868,21.6728912 C246.535377,14.1396114 250.816899,7.79923365 251.169205,7.10584249" id="Fill-84" fill="#466EB6"></path>
                <path d="M279.643122,33.3175991 C279.582535,36.2850439 279.809177,36.8805974 278.534594,36.4304541 C277.767151,36.1596052 277.024392,35.8064021 276.299585,35.4325543 C275.790201,35.1686617 275.770005,34.8206198 276.185142,34.4034631 C276.788774,33.7964653 277.410358,33.2053998 278.01399,32.6161296 C277.571925,31.4523993 278.079065,30.0977059 279.167397,29.4608632 C279.389552,29.3307121 279.227985,29.6067222 281.124152,25.2421726 C274.852216,24.4684469 270.427078,23.9494133 262.777336,23.008735 C260.733066,22.7571844 258.913195,21.9619164 257.331186,20.6384144 C251.86484,16.0662963 246.400738,11.4937294 240.941124,6.91667461 C240.20061,6.29576414 240.106362,5.3860529 240.694286,4.68592978 C241.145327,4.15029072 241.739983,4.1247093 242.381762,4.20504394 C244.127582,4.42383241 261.246939,6.55068076 262.986026,6.75398574 C265.270403,7.02079548 267.281012,7.88113907 269.047028,9.35970035 C274.414639,13.8552986 279.797957,18.3347401 285.1723,22.8220355 C285.91057,23.4377848 286.110285,24.0028201 285.849983,24.6876841 C285.564997,25.4400921 284.943413,25.7989052 284.005428,25.596049 C283.3255,25.4497412 283.027051,25.6543926 282.793676,26.2822594 C281.739004,29.1206752 281.002977,29.7489908 281.256547,30.7852627 C281.454017,31.5852432 280.502568,32.9700059 279.643122,33.3175991" id="Fill-85" fill="#86B1F2"></path>
                <path d="M308.045232,234.902117 L311.16437,237.87764 C318.544835,244.917019 324.5632,253.255665 328.91653,262.476196 L329.394499,263.488233 C329.394499,263.488233 337.564846,264.210796 338.70479,256.8236 C331.537504,248.731792 325.638069,240.090208 320.768623,230.479224 L319.292081,227.025732 L308.045232,234.902117" id="Fill-86" fill="#466EB6"></path>
                <path d="M319.283105,227.016756 C319.684779,227.591216 317.49465,229.81276 314.388976,231.975961 C311.285545,234.141406 308.428953,235.456381 308.029524,234.881921 C307.627851,234.307461 309.833687,232.058989 312.937118,229.895788 C316.040548,227.730343 318.883676,226.440052 319.283105,227.016756" id="Fill-87" fill="#86B1F2"></path>
                <path d="M319.296569,227.036952 L319.287593,227.025732 C319.287593,227.025732 313.067269,232.290119 310.504639,232.826431 L311.296765,233.903544 C312.232507,233.398647 313.296155,232.74116 314.388976,231.975961 C317.458746,229.837444 319.633167,227.642827 319.296569,227.036952" id="Fill-88" fill="#355389"></path>
                <path d="M343.870442,116.783718 L323.674583,98.7620557 C322.361852,97.5909203 322.90714,95.1813299 324.718035,94.1560535 L340.836575,85.0295448 C341.868808,84.4452113 343.031192,84.4995157 343.778438,85.167101 L363.974297,103.188764 C365.287028,104.359899 364.74174,106.769489 362.930845,107.794766 L346.812305,116.921274 C345.780072,117.505608 344.617688,117.451304 343.870442,116.783718" id="Fill-93" fill="#9BC1F9"></path>
                <polyline id="Fill-96" fill="#F7CC7F" points="79.1857578 39.025622 81.2726633 43.155002 85.9895183 43.0026354 88.0023723 47.7971324 92.9750416 46.0856455 95.490548 51.4074787 100.263503 50.396115 103.519524 55.120824 101.731068 56.3534446 99.2963454 52.8209645 94.2586006 53.8882034 91.8418295 48.7725923 86.7861328 50.5128022 84.5645883 45.2217115 79.9599324 45.3707121 78.023374 41.543148 75.0209229 42.2735649 74.5070505 40.1630977 79.1857578 39.025622"></polyline>
                <polyline id="Fill-4" fill="#50BFA5" points="354.058131 231.623656 350.912065 232.588569 348.800475 227.698927 344.027521 228.544909 341.848612 225.143029 340.127476 226.247069 343.040167 230.793381 347.56404 229.994523 349.760901 235.081635 354.495707 233.627534 354.058131 231.623656"></polyline>
                <path d="M152.216228,288.656761 C152.216228,288.656761 126.733542,262.74323 113.902439,260.043717 C101.069093,257.346448 103.378153,266.474976 103.378153,266.474976 C103.378153,266.474976 77.9179067,244.210164 72.0162279,249.604702 C66.1167931,254.99924 72.4986845,260.207528 72.4986845,260.207528 C72.4986845,260.207528 51.2907886,256.451098 48.2569218,263.409694 C43.5916784,274.102279 78.4699268,279.923174 78.4699268,279.923174 C78.4699268,279.923174 63.8526129,280.937455 67.2432732,287.64248 C72.3550695,297.753874 152.216228,288.656761 152.216228,288.656761" id="Fill-8" fill="#355389"></path>
                <path d="M48.2569218,263.409694 C51.2907886,256.451098 72.4986845,260.207528 72.4986845,260.207528 C72.4986845,260.207528 66.1167931,254.99924 72.0162279,249.604702 C77.9179067,244.210164 102.586026,263.447841 102.586026,263.447841 C102.586026,263.447841 96.7696191,252.328899 109.600721,255.028412 C122.434068,257.727925 152.216228,288.656761 152.216228,288.656761 L48.2569218,263.409694" id="Fill-9" fill="#466EB6"></path>
                <polyline id="Fill-20" fill="#F48C7F" points="347.362081 57.4424502 346.157062 62.2968615 338.13033 61.2201978 335.493648 68.1004782 329.356351 68.276631 329.44611 71.3834273 337.652361 71.1480333 340.154404 64.627688 348.502025 65.7476606 350.315165 58.4428184 347.362081 57.4424502"></polyline>
                <path d="M275.862009,290.149011 L134.793934,290.149011 C129.406127,290.149011 125.039334,285.618407 125.039334,280.030886 L125.039334,274.01252 C125.039334,268.424999 129.406127,263.894394 134.793934,263.894394 L275.862009,263.894394 C269.410554,271.209783 269.298354,282.389313 275.60395,289.843829 L275.862009,290.149011" id="Fill-21" fill="#B75742"></path>
                <path d="M273.685344,266.903577 L195.439854,266.903577 C190.052048,266.903577 185.685254,271.434182 185.685254,277.021703 C185.685254,282.611468 190.052048,287.139828 195.439854,287.139828 L273.692076,287.139828 C270.034381,280.932967 270.041113,273.09473 273.685344,266.903577" id="Fill-22" fill="#FAE0B2"></path>
                <path d="M226.303615,245.659778 C226.507817,245.276056 226.195903,244.829503 225.722423,244.829503 L151.078528,244.829503 C145.226217,244.829503 140.484678,249.097562 140.484678,254.364193 C140.484678,259.62858 145.226217,263.898882 151.078528,263.898882 L225.742619,263.898882 C226.218343,263.898882 226.532501,263.450085 226.32381,263.06412 C223.368483,257.552895 223.375215,251.146319 226.303615,245.659778" id="Fill-23" fill="#86B1F2"></path>
                <path d="M225.832378,246.604495 L188.838052,246.604495 C181.97146,246.604495 176.406379,250.181406 176.406379,254.593079 C176.406379,259.006996 181.97146,262.583907 188.838052,262.583907 L226.074728,262.583907 C223.53005,257.499039 223.460486,251.709559 225.832378,246.604495" id="Fill-24" fill="#F7CC7F"></path>
                <path d="M216.277493,250.392341 L211.459658,250.392341 C210.425181,250.392341 209.583687,250.740158 209.583687,251.168759 L209.583687,251.238323 L216.277493,251.238323 L216.277493,250.392341" id="Fill-25" fill="#B75742"></path>
                <path d="M220.388472,252.340119 C220.388472,251.263006 219.129597,250.392341 217.57676,250.392341 L211.394583,250.392341 C212.572674,250.392341 213.526368,251.054316 213.526368,251.868882 L213.497196,272.758132 L216.91254,270.072083 L220.395204,272.758132 L220.388472,252.340119" id="Fill-26" fill="#F47458"></path>
                <path d="M204.994739,231.655071 L200.176905,231.655071 C199.142428,231.655071 198.300934,231.998401 198.300934,232.418026 L198.300934,232.48759 L204.994739,232.48759 L204.994739,231.655071" id="Fill-29" fill="#184655"></path>
                <path d="M209.105719,233.566946 C209.105719,232.512273 207.846843,231.655071 206.294006,231.655071 L200.111829,231.655071 C201.289921,231.655071 202.243615,232.305827 202.243615,233.104685 L202.214443,253.590018 L205.629787,250.955581 L209.112451,253.590018 L209.105719,233.566946" id="Fill-30" fill="#3C8F7C"></path>
                <path d="M235.793424,263.894394 L262.817728,263.901126 C263.791617,263.802391 264.020503,263.00802 263.67493,262.525564 C262.965831,261.533723 257.786715,259.191003 254.306295,257.638166 C248.243049,258.345021 237.584124,256.013521 236.607991,254.631227 C234.040873,258.069011 235.25038,263.782195 235.793424,263.894394" id="Fill-35" fill="#3C8F7C"></path>
                <path d="M261.713687,259.527601 L282.342635,276.002934 C283.159446,276.545978 283.837129,276.076985 283.877521,275.484573 C283.958304,274.26609 281.436066,269.172245 279.728394,265.765877 C274.589669,262.469464 267.810593,253.877248 267.934012,252.189772 C265.757347,254.025351 261.36587,259.094512 261.713687,259.527601" id="Fill-39" fill="#3C8F7C"></path>
                <path d="M358.13545,197.270499 L350.564247,178.27966 C350.443072,177.974478 350.591175,177.628905 350.896357,177.507729 C351.201538,177.386554 351.547112,177.534657 351.670531,177.839839 L359.23949,196.830679 C359.360666,197.13586 359.212563,197.481434 358.907381,197.602609 C358.602199,197.723784 358.256625,197.575681 358.13545,197.270499" id="Fill-66" fill="#466EB6"></path>
                <path d="M354.527123,194.768457 L348.313531,179.177254 C348.192355,178.872072 348.340458,178.526498 348.64564,178.405323 C348.950822,178.281904 349.296396,178.432251 349.417571,178.737433 L355.633408,194.328636 C355.754583,194.633818 355.60648,194.979391 355.301298,195.102811 C354.996116,195.223986 354.650542,195.075883 354.527123,194.768457" id="Fill-67" fill="#466EB6"></path>
                <path d="M353.631774,199.065687 L346.06057,180.074848 C345.939395,179.769666 346.087498,179.424092 346.39268,179.302917 C346.697862,179.179498 347.04568,179.329845 347.166855,179.635027 L354.735814,198.625866 C354.856989,198.931048 354.708886,199.276621 354.403704,199.397797 C354.098522,199.518972 353.752949,199.370869 353.631774,199.065687" id="Fill-68" fill="#466EB6"></path>
                <path d="M349.653189,195.630147 L343.809854,180.972441 C343.688679,180.667259 343.836782,180.321686 344.141964,180.200511 C344.447146,180.077092 344.792719,180.227438 344.913894,180.53262 L350.75723,195.190326 C350.878405,195.495508 350.730302,195.841081 350.42512,195.962257 C350.119938,196.083432 349.774364,195.935329 349.653189,195.630147" id="Fill-69" fill="#466EB6"></path>
                <path d="M357.931247,176.253342 L357.778657,175.871865 C357.722557,175.730494 357.569966,175.658686 357.437571,175.712542 L354.560783,176.859218 C354.428388,176.91083 354.365556,177.070153 354.421656,177.20928 L354.574247,177.593001 C354.630347,177.732128 354.782937,177.803935 354.915333,177.752324 L357.79212,176.605648 C357.924516,176.551792 357.987347,176.394713 357.931247,176.253342" id="Fill-70" fill="#355389"></path>
                <path d="M358.584247,177.889207 L358.431656,177.507729 C358.375556,177.366358 358.222965,177.294551 358.088326,177.348407 L355.211538,178.495083 C355.079143,178.546694 355.018556,178.703773 355.074655,178.845144 L355.227246,179.228865 C355.283346,179.367992 355.435937,179.4398 355.568332,179.388188 L358.44512,178.241512 C358.577515,178.187657 358.640347,178.030578 358.584247,177.889207" id="Fill-71" fill="#355389"></path>
                <path d="M359.235002,179.525071 L359.082411,179.143594 C359.026312,179.002223 358.873721,178.930416 358.741326,178.984271 L355.864538,180.130947 C355.732143,180.182559 355.669311,180.339638 355.725411,180.481009 L355.878002,180.86473 C355.934101,181.003857 356.086692,181.075665 356.219087,181.024053 L359.098119,179.875133 C359.22827,179.823521 359.291102,179.666442 359.235002,179.525071" id="Fill-72" fill="#355389"></path>
                <path d="M359.888002,181.160936 L359.735411,180.779459 C359.679311,180.638088 359.52672,180.56628 359.394325,180.620136 L356.517537,181.766812 C356.385142,181.818423 356.322311,181.975502 356.37841,182.116873 L356.531001,182.500595 C356.587101,182.639722 356.739692,182.711529 356.872087,182.657673 L359.748875,181.510997 C359.88127,181.459386 359.944101,181.302307 359.888002,181.160936" id="Fill-73" fill="#355389"></path>
                <path d="M360.538757,182.796801 L360.386166,182.415323 C360.330067,182.273952 360.177476,182.202145 360.045081,182.256 L357.168293,183.402676 C357.035898,183.454288 356.97531,183.611367 357.029166,183.752738 L357.181757,184.134215 C357.237856,184.275586 357.392691,184.347394 357.525086,184.293538 L360.401874,183.146862 C360.534269,183.09525 360.594857,182.938172 360.538757,182.796801" id="Fill-74" fill="#355389"></path>
                <path d="M361.191757,184.432665 L361.039166,184.051188 C360.983066,183.909817 360.830475,183.838009 360.69808,183.891865 L357.821292,185.038541 C357.688897,185.090153 357.626066,185.247231 357.682165,185.388602 L357.834756,185.77008 C357.890856,185.911451 358.043447,185.983258 358.175842,185.929403 L361.05263,184.782727 C361.185025,184.731115 361.247856,184.574036 361.191757,184.432665" id="Fill-75" fill="#355389"></path>
                <path d="M361.842512,186.06853 L361.689921,185.687052 C361.633822,185.545681 361.481231,185.473874 361.348836,185.527729 L358.472048,186.674405 C358.339653,186.726017 358.279065,186.883096 358.335165,187.024467 L358.487756,187.405944 C358.543855,187.547315 358.696446,187.619123 358.828841,187.565267 L361.705629,186.418591 C361.838024,186.36698 361.898612,186.209901 361.842512,186.06853" id="Fill-76" fill="#355389"></path>
                <path d="M362.495512,187.704394 L362.342921,187.322917 C362.286821,187.181546 362.13423,187.109738 362.001835,187.163594 L359.125047,188.31027 C358.992652,188.361882 358.929821,188.518961 358.98592,188.660332 L359.138511,189.041809 C359.194611,189.18318 359.347202,189.254987 359.479597,189.201132 L362.356385,188.054456 C362.48878,188.002844 362.551611,187.845765 362.495512,187.704394" id="Fill-77" fill="#355389"></path>
                <path d="M363.146267,189.340259 L362.993676,188.958781 C362.937577,188.81741 362.784986,188.745603 362.652591,188.799459 L359.775803,189.946135 C359.643408,189.997746 359.58282,190.154825 359.63892,190.296196 L359.791511,190.677673 C359.84761,190.819045 360.000201,190.890852 360.132596,190.836996 L363.009384,189.69032 C363.141779,189.638709 363.202367,189.48163 363.146267,189.340259" id="Fill-78" fill="#355389"></path>
                <path d="M363.799267,190.976123 L363.646676,190.594646 C363.590576,190.453275 363.437985,190.381468 363.30559,190.435323 L360.428802,191.581999 C360.296407,191.633611 360.233575,191.79069 360.289675,191.932061 L360.442266,192.313538 C360.498366,192.454909 360.650957,192.526717 360.783352,192.472861 L363.660139,191.326185 C363.792535,191.274573 363.855366,191.117494 363.799267,190.976123" id="Fill-79" fill="#355389"></path>
                <path d="M364.450022,192.611988 L364.297431,192.228267 C364.243575,192.08914 364.090984,192.017332 363.956345,192.071188 L361.079558,193.217864 C360.947162,193.269475 360.886575,193.426554 360.942674,193.567925 L361.095265,193.949403 C361.151365,194.090774 361.303956,194.162581 361.436351,194.108726 L364.313139,192.96205 C364.445534,192.910438 364.506122,192.753359 364.450022,192.611988" id="Fill-80" fill="#355389"></path>
                <path d="M365.103021,194.247853 L364.95043,193.864131 C364.894331,193.725004 364.74174,193.653197 364.609345,193.704808 L361.732557,194.853728 C361.600162,194.90534 361.53733,195.062419 361.59343,195.20379 L361.746021,195.585267 C361.80212,195.726638 361.954711,195.798446 362.087106,195.74459 L364.963894,194.597914 C365.096289,194.544058 365.159121,194.389224 365.103021,194.247853" id="Fill-81" fill="#355389"></path>
                <path d="M373.051214,192.564864 L361.021214,209.695441 C360.994286,209.733588 360.971846,209.776224 360.958382,209.821104 L359.730923,213.584266 C359.589552,214.021842 360.094448,214.385368 360.462462,214.107114 L363.682579,211.679123 C363.722971,211.649951 363.756631,211.614047 363.785803,211.573656 L375.847218,194.3982 C376.002053,194.178289 375.941466,193.875351 375.714823,193.731736 L373.690749,192.436957 C373.477571,192.302318 373.197073,192.358418 373.051214,192.564864" id="Fill-82" fill="#B75742"></path>
                <path d="M363.772339,211.591607 L363.743167,211.634243 L360.635249,213.976963 L359.789267,213.409235 L360.95165,209.8413 C361.860464,210.339464 362.95104,210.851093 363.772339,211.591607" id="Fill-83" fill="#F7CC7F"></path>
                <path d="M327.606043,242.320729 C327.617263,243.227299 327.269446,247.145295 320.752915,248.778916 C321.181516,249.362352 321.603385,249.95252 322.016278,250.547175 C326.140721,249.326448 327.996497,247.210371 328.831259,245.596946 C328.96141,245.343376 329.120733,245.000046 329.2262,244.735256 C328.676424,243.936398 328.135624,243.133051 327.606043,242.320729" id="Fill-89" fill="#B75742"></path>
                <polyline id="Fill-90" fill="#B75742" points="321.338595 247.62102 311.747806 247.27769 314.020962 249.207517 312.663352 251.671412 321.740268 249.357864 321.338595 247.62102"></polyline>
                <polyline id="Fill-91" fill="#B75742" points="322.211505 249.85154 318.805137 255.786879 321.201712 254.875821 322.12399 256.760768 323.726194 250.518004 322.211505 249.85154"></polyline>
                <path d="M323.513016,251.460477 C321.830028,251.579408 320.364706,250.268921 320.241287,248.534322 C320.117868,246.799722 321.383475,245.296252 323.068707,245.177321 C324.751695,245.05839 326.217017,246.368877 326.340436,248.103477 C326.463855,249.838076 325.198248,251.341546 323.513016,251.460477" id="Fill-92" fill="#F47458"></path>
                <path d="M342.91226,102.447576 L341.229272,88.6012946 C341.164197,88.0712655 341.550162,87.5044351 342.090962,87.3359119 C342.631762,87.1669399 343.123195,87.4609018 343.18827,87.9909309 L344.73662,100.73205 L360.051813,104.435297 C360.549977,104.556023 360.781108,105.094355 360.565685,105.638297 C360.350263,106.181341 359.769071,106.523997 359.268662,106.402822 L342.91226,102.447576" id="Fill-94" fill="#FFFFFF"></path>
                <path d="M1.96307626,289.982956 C0.882149005,289.982956 0.00587312391,290.997237 0.00587312391,292.24938 C0.00587312391,293.49928 0.882149005,294.51356 2.19689942,292.992139 L399.97005,292.992139 C400.479434,292.992139 400.894608,292.325676 400.894608,291.497646 C400.899059,290.662883 400.483922,289.982956 399.97005,289.982956 L1.96307626,289.982956" id="Fill-95" fill="#184655"></path>
                <polyline id="Fill-97" fill="#50BFA5" points="331.757414 144.667019 336.043424 146.408351 339.49916 143.194965 344.166648 145.488317 346.792109 140.930785 352.184404 143.291456 355.119535 139.393656 360.677884 140.816342 360.139328 142.918955 355.983469 141.85755 352.886771 145.970774 347.703167 143.702105 345.032826 148.335933 339.882882 145.804719 336.507929 148.941809 332.536077 147.328384 330.749865 149.852867 328.977118 148.598479 331.757414 144.667019"></polyline>
            </g>
        </g>
    </g>
</svg>