<?xml version="1.0" encoding="UTF-8"?>
<svg width="20px" height="20px" viewBox="0 0 20 20" version="1.1" xmlns="http://www.w3.org/2000/svg" xmlns:xlink="http://www.w3.org/1999/xlink">
    <!-- Generator: Sketch 54.1 (76490) - https://sketchapp.com -->
    <title>Shape</title>
    <desc>Created with Sketch.</desc>
    <defs>
        <linearGradient x1="-2.4630735%" y1="-144.511647%" x2="79.6721281%" y2="130.39623%" id="linearGradient-1">
            <stop stop-color="#E65124" offset="0%"></stop>
            <stop stop-color="#A69D00" offset="52.821032%"></stop>
            <stop stop-color="#27953E" offset="74.5956303%"></stop>
            <stop stop-color="#53479E" offset="100%"></stop>
        </linearGradient>
    </defs>
    <g id="Page-1" stroke="none" stroke-width="1" fill="none" fill-rule="evenodd">
        <g id="Artboard" transform="translate(-100.000000, -155.000000)" fill="url(#linearGradient-1)" fill-rule="nonzero">
            <g id="Group" transform="translate(100.000000, 155.000000)">
                <g id="Group-3">
                    <g id="info">
                        <path d="M9.98544762,0 C4.47954286,0 0,4.47954286 0,9.98544762 C0,15.4913524 4.47954286,19.9708952 9.98544762,19.9708952 C15.4913524,19.9708952 19.9708952,15.4913524 19.9708952,9.98544762 C19.9708952,4.47954286 15.4913143,0 9.98544762,0 Z M10.6349714,15.9100571 C10.1605714,15.9891429 9.21660952,16.1866667 8.73725714,16.2263619 C8.33150476,16.2599619 7.94860952,16.0276952 7.7152,15.6942857 C7.48118095,15.3609143 7.42510476,14.9342857 7.5640381,14.5515429 L9.45154286,9.36137143 L7.48906667,9.36137143 C7.48739048,8.27988571 8.29859048,7.48468571 9.33611429,7.17950476 C9.8312381,7.03382857 10.7537143,6.83447619 11.2336,6.86502857 C11.5211048,6.88331429 12.0222476,7.06369524 12.2556571,7.39710476 C12.4896762,7.73047619 12.5457524,8.15710476 12.406819,8.53984762 L10.5193143,13.730019 L12.481181,13.730019 C12.4815619,14.8102476 11.7006095,15.7324571 10.6349714,15.9100571 L10.6349714,15.9100571 Z M11.2336,6.24091429 C10.5442286,6.24091429 9.98540952,5.68201905 9.98540952,4.99272381 C9.98540952,4.30335238 10.5442286,3.74453333 11.2336,3.74453333 C11.9229714,3.74453333 12.4817905,4.30335238 12.4817905,4.99272381 C12.4817905,5.68205714 11.9230095,6.24091429 11.2336,6.24091429 Z" id="Shape"></path>
                    </g>
                </g>
            </g>
        </g>
    </g>
</svg>