<?xml version="1.0" encoding="UTF-8"?>
<svg width="227px" height="80px" viewBox="0 0 227 80" version="1.1" xmlns="http://www.w3.org/2000/svg" xmlns:xlink="http://www.w3.org/1999/xlink">
    <!-- Generator: Sketch 54.1 (76490) - https://sketchapp.com -->
    <title>splash_logo</title>
    <desc>Created with Sketch.</desc>
    <defs>
        <linearGradient x1="101.651406%" y1="49.9968836%" x2="-1.52608494%" y2="49.9968836%" id="linearGradient-1">
            <stop stop-color="#61227F" offset="0%"></stop>
            <stop stop-color="#602682" offset="4%"></stop>
            <stop stop-color="#5C328A" offset="7%"></stop>
            <stop stop-color="#554698" offset="10%"></stop>
            <stop stop-color="#4C61AC" offset="14%"></stop>
            <stop stop-color="#4185C5" offset="17%"></stop>
            <stop stop-color="#3B97D2" offset="19%"></stop>
            <stop stop-color="#5AAB53" offset="36%"></stop>
            <stop stop-color="#95BB44" offset="51%"></stop>
            <stop stop-color="#F6D732" offset="67%"></stop>
            <stop stop-color="#E98A2F" offset="81%"></stop>
            <stop stop-color="#E2412F" offset="100%"></stop>
        </linearGradient>
        <linearGradient x1="101.649385%" y1="49.9841769%" x2="-1.52810624%" y2="49.9841769%" id="linearGradient-2">
            <stop stop-color="#61227F" offset="0%"></stop>
            <stop stop-color="#602682" offset="4%"></stop>
            <stop stop-color="#5C328A" offset="7%"></stop>
            <stop stop-color="#554698" offset="10%"></stop>
            <stop stop-color="#4C61AC" offset="14%"></stop>
            <stop stop-color="#4185C5" offset="17%"></stop>
            <stop stop-color="#3B97D2" offset="19%"></stop>
            <stop stop-color="#5AAB53" offset="36%"></stop>
            <stop stop-color="#95BB44" offset="51%"></stop>
            <stop stop-color="#F6D732" offset="67%"></stop>
            <stop stop-color="#E98A2F" offset="81%"></stop>
            <stop stop-color="#E2412F" offset="100%"></stop>
        </linearGradient>
        <linearGradient x1="101.651439%" y1="50.0037635%" x2="-1.52813713%" y2="50.0037635%" id="linearGradient-3">
            <stop stop-color="#61227F" offset="0%"></stop>
            <stop stop-color="#602682" offset="4%"></stop>
            <stop stop-color="#5C328A" offset="7%"></stop>
            <stop stop-color="#554698" offset="10%"></stop>
            <stop stop-color="#4C61AC" offset="14%"></stop>
            <stop stop-color="#4185C5" offset="17%"></stop>
            <stop stop-color="#3B97D2" offset="19%"></stop>
            <stop stop-color="#5AAB53" offset="36%"></stop>
            <stop stop-color="#95BB44" offset="51%"></stop>
            <stop stop-color="#F6D732" offset="67%"></stop>
            <stop stop-color="#E98A2F" offset="81%"></stop>
            <stop stop-color="#E2412F" offset="100%"></stop>
        </linearGradient>
    </defs>
    <g id="Page-1" stroke="none" stroke-width="1" fill="none" fill-rule="evenodd">
        <g id="splash_logo" fill-rule="nonzero">
            <g id="65591" transform="translate(33.000000, 0.000000)">
                <g id="65590">
                    <g id="Group">
                        <path d="M30.8422311,13.0056958 C21.5759161,15.1874863 12.0675586,16.1688014 0.58687902,14.7491656 L0.0177513169,14.6804735 L0.0177513169,8.15799933 L0.747150616,8.2463177 C23.0870485,11.0103552 37.9268898,7.73276281 58.6411757,1.08598868 C67.2794876,-1.69113298 73.0329107,1.46215946 76.6112193,3.82058671 C78.0738017,4.78094105 79.3549953,5.99244683 80.3955916,7.39911568 C80.5820299,7.65098655 80.7423015,7.88650216 80.8764064,8.10239147 C81.0170527,7.88650216 81.1773244,7.65098655 81.3604919,7.39911568 C82.4033991,5.99219204 83.6867821,4.7807101 85.1514057,3.82058671 C88.7493395,1.46215946 94.4831375,-1.68786193 103.118179,1.08598868 C123.829194,7.73276281 138.770431,11.0103552 161.107058,8.2463177 L161.836458,8.15799933 L161.836458,14.6804735 L161.26733,14.7491656 C149.793192,16.1688014 140.252126,15.1874863 130.969457,13.0056958 C121.686788,10.8239053 112.691953,7.44491038 102.15982,4.07899968 C94.9639523,1.76963819 86.1751815,3.57198687 81.4782424,9.77062711 C81.4331831,9.82523287 81.3745134,9.86698115 81.3081584,9.89165596 C81.2566394,9.90780691 81.2042154,9.92091374 81.1511575,9.93090857 C81.0538656,9.94667687 80.9553052,9.95324796 80.8567813,9.95053487 L80.6997804,9.95053487 L80.3955916,9.92109541 C75.5841727,3.56871582 66.7888602,1.76636714 59.5962635,4.07572863 C49.0739427,7.46126564 40.0660249,10.8304474 30.8422311,13.0056958 Z" id="Path" fill="url(#linearGradient-1)"></path>
                        <path d="M30.8422311,24.8992345 C21.5759161,27.0810251 12.0675586,28.0656111 0.590149869,26.6459754 L0.0210221657,26.5740123 L0.0210221657,20.0613512 L0.750421465,20.1496696 C23.0903193,22.910436 37.9301606,19.6361147 58.6444465,12.9860695 C67.2827583,10.2122189 73.0361815,11.779052 76.6144901,14.1374792 C78.0745837,15.0971548 79.3544597,16.306247 80.3955916,17.7094661 C80.5820299,17.964608 80.7423015,18.2001236 80.8764064,18.4127419 C81.0170527,18.2001236 81.1773244,17.964608 81.3604919,17.7094661 C82.4042721,16.3033179 83.6875059,15.0919768 85.1514057,14.1309371 C88.7493395,11.7725099 94.4831375,10.2056768 103.118179,12.9795274 C123.829194,19.6295726 138.770431,22.9038939 161.107058,20.1431275 L161.839728,20.0613512 L161.839728,26.5805543 L161.270601,26.6525174 C149.793192,28.0721533 140.265209,27.0875671 130.969457,24.9057766 C121.673704,22.7239861 112.691953,19.3646175 102.15982,15.9823515 C94.9639523,13.6729901 86.1751815,13.8888794 81.4782424,20.0875196 C81.4341659,20.1424362 81.3750721,20.1833498 81.3081584,20.2052774 C81.2571637,20.2239998 81.2046301,20.2382285 81.1511575,20.247801 C81.0538656,20.2635693 80.9553052,20.2701404 80.8567813,20.2674275 L80.6997804,20.2674275 L80.4021331,20.2445301 C75.5907145,13.8921504 66.7954018,13.6762611 59.6028053,15.9921647 C49.0739427,19.3580754 40.0660249,22.7272572 30.8422311,24.8992345 Z" id="Path" fill="url(#linearGradient-2)"></path>
                        <path d="M30.8422311,37.5909095 C21.5759161,39.7727 12.0675586,40.7540152 0.590149869,39.3343794 L0.0210221657,39.2656873 L0.0210221657,32.7432131 L0.750421465,32.8348024 C23.0903193,35.5955689 37.9301606,32.3212475 58.6444465,25.6712024 C67.2827583,22.8973517 73.0361815,22.8744543 76.6144901,25.2328816 C78.0760932,26.1946248 79.3561609,27.4072204 80.3955916,28.8146816 C80.5820299,29.0665525 80.7423015,29.3020681 80.8764064,29.5179576 C81.0170527,29.3020681 81.1773244,29.0665525 81.3604919,28.8146816 C82.4031569,27.4066323 83.6865485,26.1940352 85.1514057,25.2328816 C88.7493395,22.8744543 94.4831375,22.8973517 103.118179,25.6712024 C123.829194,32.3212475 138.770431,35.5955689 161.107058,32.8348024 L161.836458,32.7432131 L161.836458,39.2656873 L161.26733,39.3343794 C149.789921,40.7540152 140.261938,39.7727 130.966186,37.5909095 C121.670433,35.409119 112.688683,32.030124 102.156549,28.6674844 C94.9606815,26.358123 86.1719105,24.9875529 81.4749716,31.182922 C81.4299122,31.2375279 81.3712426,31.2792762 81.3048874,31.3039509 C81.2542742,31.3231473 81.2015784,31.336322 81.1478868,31.3432036 C81.0505948,31.3589719 80.9520342,31.365543 80.8535103,31.3628299 L80.6965096,31.3628299 L80.3988623,31.3399325 C75.5874437,24.990824 66.792131,26.3613939 59.5995343,28.6707556 C49.0739427,32.0464794 40.0660249,35.4352875 30.8422311,37.5909095 Z" id="Path" fill="url(#linearGradient-3)"></path>
                    </g>
                </g>
            </g>
            <path d="M76.6525203,60.8169137 C76.0552037,60.8169137 75.3261368,60.7885792 74.465298,60.7319093 C73.6044592,60.6752395 72.9588398,60.6120317 72.5284204,60.5422842 C72.1243533,60.3853523 71.8213074,60.1870109 71.6192738,59.9472537 C71.4172401,59.7074965 71.2876771,59.4350494 71.2305807,59.1299041 C71.1734842,58.8247588 71.1449364,58.4411531 71.1449364,57.9790759 C71.1449364,57.0897951 71.1625043,56.2724537 71.1976406,55.527027 C71.2327768,54.7816004 71.2898724,53.8683576 71.3689291,52.7872711 C71.4128495,52.1421066 71.4545731,51.486054 71.4941014,50.8190933 C71.5336297,50.1521326 71.5533936,49.5396715 71.5533936,48.9816914 C71.5533936,48.5893615 71.5006901,48.2188335 71.3952811,47.8700959 C71.2898722,47.5213583 71.1581133,47.229295 71,46.9938971 C71.1756814,46.8020915 71.4457875,46.623366 71.8103263,46.4577158 C72.1748651,46.2920655 72.5415946,46.2092415 72.9105255,46.2092415 C73.4112174,46.2092415 73.751595,46.3552732 73.9316685,46.6473409 C74.1117419,46.9394086 74.2017772,47.3905812 74.2017772,48.0008718 C74.2017772,48.6721916 74.1820134,49.345681 74.1424851,50.0213601 C74.1029567,50.6970391 74.0436652,51.5230988 73.9646085,52.4995641 C73.8855519,53.449874 73.8262604,54.2323422 73.786732,54.8469922 C73.7472037,55.4616421 73.7274399,56.0697441 73.7274399,56.6713165 C73.7274399,57.1857043 73.7384198,57.5780283 73.76038,57.8482999 C73.7823402,58.1185715 73.8196719,58.3583251 73.8723763,58.5675676 C74.7332151,58.6809072 75.6423526,58.7375763 76.5998161,58.7375763 C77.2586213,58.7375763 77.862517,58.6787277 78.4115214,58.5610288 C78.9605257,58.4433298 79.49415,58.2362701 80.01241,57.9398431 C80.2056595,58.096775 80.3505945,58.2624228 80.4472192,58.4367916 C80.543844,58.6111604 80.5921557,58.8334773 80.5921557,59.1037489 C80.5921557,59.7576318 80.1946824,60.2066248 79.3997242,60.4507411 C78.604766,60.6948573 77.6890405,60.8169137 76.6525203,60.8169137 Z M84.0047495,60.8169137 C83.6270345,60.8169137 83.3261848,60.7493468 83.1021909,60.614211 C82.878197,60.4790752 82.7134984,60.2523992 82.6080895,59.9341761 C82.5026806,59.615953 82.449977,59.1691397 82.449977,58.5937228 C82.449977,57.5387915 82.5334245,55.6687143 82.7003217,52.983435 C82.7091059,52.7829109 82.7420456,52.2249392 82.799142,51.3095031 C82.8562385,50.3940669 82.8847863,49.6878838 82.8847863,49.1909329 C82.8847863,48.6503896 82.8430626,48.2362699 82.7596139,47.9485615 C82.6761652,47.660853 82.5378182,47.3469938 82.3445687,47.0069747 C82.5378182,46.8064505 82.8057284,46.6255458 83.148307,46.4642546 C83.4908856,46.3029634 83.8510271,46.2223191 84.2287421,46.2223191 C84.6064572,46.2223191 84.8897392,46.2986043 85.0785966,46.451177 C85.267454,46.6037496 85.3970172,46.8456827 85.4672897,47.1769834 C85.5375622,47.5082842 85.5683061,47.983432 85.559522,48.6024412 C85.559522,49.0470816 85.5287782,49.7140322 85.4672897,50.603313 C85.4058012,51.4925938 85.3662735,52.033129 85.3487054,52.2249346 C85.1554559,54.6312239 85.0588325,56.3443716 85.0588325,57.3644289 C85.0588325,57.922409 85.0983603,58.4215323 85.1774169,58.8618134 C85.2564735,59.3020946 85.4101925,59.7314714 85.6385782,60.1499564 C85.4628968,60.3417621 85.2301225,60.5008713 84.9402482,60.6272886 C84.6503739,60.7537059 84.3385442,60.8169137 84.0047495,60.8169137 Z M96.0344722,53.1403662 C97.1676171,53.3321718 98.0789506,53.7201365 98.7685001,54.304272 C99.4580496,54.8884075 99.8028191,55.7079284 99.8028191,56.7628596 C99.8028191,57.6957327 99.5436928,58.48256 99.0254328,59.1233653 C98.5071728,59.7641706 97.8549654,60.2371389 97.0687912,60.5422842 C96.2826169,60.8474295 95.4986506,61 94.7168684,61 C93.9790066,61 93.1599044,60.9542288 92.2595373,60.8626853 C91.3591702,60.7711417 90.676219,60.6730608 90.2106634,60.5684394 C89.7275396,60.4812551 89.3652022,60.3003501 89.1236403,60.0257193 C88.8820783,59.7510884 88.7217715,59.3827399 88.6427149,58.9206626 C88.5636582,58.4585853 88.5241305,57.8221487 88.5241305,57.0113339 C88.5241305,55.8081893 88.5987941,53.9860628 88.7481232,51.5448997 C88.8447479,49.9930175 88.8930596,48.9773345 88.8930596,48.4978204 C88.8930596,48.1665197 88.8645118,47.8853542 88.8074154,47.6543156 C88.7503189,47.423277 88.6383236,47.1900622 88.4714264,46.9546643 C88.7613006,46.7454218 89.0511706,46.5928514 89.3410449,46.4969486 C89.8329528,46.3225798 90.4236725,46.1961643 91.113222,46.1176983 C91.8027715,46.0392324 92.6218737,46 93.5705531,46 C94.5280166,46 95.4151944,46.1176971 96.2321128,46.353095 C97.0490312,46.5884929 97.7188065,46.985176 98.2414586,47.5431561 C98.7641106,48.1011361 99.0254328,48.8378332 99.0254328,49.7532694 C99.0254328,50.520492 98.7619147,51.2005202 98.2348705,51.793374 C97.7078264,52.3862278 96.9743676,52.8221432 96.0344722,53.1011334 L96.0344722,53.1403662 Z M94.1502988,58.9598954 C94.9408651,58.9598954 95.5930723,58.7441173 96.1069404,58.3125545 C96.6208085,57.8809917 96.8777386,57.2772489 96.8777386,56.5013078 C96.8777386,55.8822986 96.7240197,55.4049712 96.4165773,55.0693112 C96.1091349,54.7336513 95.7292296,54.5047958 95.27685,54.3827376 C94.8244704,54.2606794 94.2908461,54.1822146 93.6759614,54.1473409 C93.4300075,54.1211855 92.933715,54.1081081 92.1870691,54.1081081 C91.8884107,54.0993896 91.6754002,54.0143862 91.5480313,53.853095 C91.4206623,53.6918038 91.3569787,53.45423 91.3569787,53.1403662 C91.3569787,52.9485605 91.3877225,52.6608563 91.449211,52.277245 C92.5208674,52.2423713 93.3641255,52.1791634 93.9790103,52.0876199 C94.593895,51.9960763 95.1165394,51.775939 95.5469588,51.4272014 C95.9773782,51.0784638 96.1925846,50.5379286 96.1925846,49.8055798 C96.1925846,49.13426 95.9312625,48.6351367 95.4086104,48.3081953 C94.8859583,47.9812538 94.1722634,47.8177855 93.2675042,47.8177855 C92.6262672,47.8177855 92.0465272,47.8788136 91.5282672,48.0008718 C91.5458353,48.3932017 91.4931318,49.6442789 91.3701547,51.7541412 C91.2120415,54.2824888 91.1329861,56.0523053 91.1329861,57.0636443 C91.1329861,57.5867507 91.1593379,58.1098492 91.2120423,58.6329555 C92.4681643,58.8509166 93.4475732,58.9598954 94.1502988,58.9598954 Z M103.676574,60.8169137 C103.096826,60.8169137 102.699352,60.4703609 102.484143,59.777245 C102.268933,59.0841291 102.16133,58.0619073 102.16133,56.7105493 C102.16133,56.0479478 102.200858,54.9712367 102.279914,53.4803836 L102.424851,50.7471665 C102.503907,49.3173425 102.543435,48.5239764 102.543435,48.3670445 C102.543435,47.782909 102.411676,47.3164795 102.148154,46.9677419 C102.315051,46.8195285 102.596137,46.6887538 102.99142,46.5754141 C103.369135,46.4533559 103.924719,46.3269404 104.658189,46.1961639 C105.391659,46.0653874 106.09657,46 106.772943,46 C108.714223,46 110.176748,46.3857852 111.160564,47.157367 C112.14438,47.9289489 112.63628,48.9904031 112.63628,50.3417611 C112.63628,51.3792553 112.377154,52.2946778 111.858894,53.0880558 C111.340634,53.8814338 110.629135,54.4612013 109.724376,54.8273758 C110.453453,56.161297 111.186912,57.1856983 111.924774,57.9006103 C112.662636,58.6155223 113.510286,59.0993884 114.467749,59.3522232 C114.283284,59.8143004 114.002198,60.1935468 113.624483,60.4899738 C113.246768,60.7864008 112.794395,60.934612 112.267351,60.934612 C111.608546,60.9258935 111.01563,60.6381895 110.488586,60.0714908 C110.005462,59.6006951 109.555285,58.9947727 109.138042,58.2537053 C108.720799,57.5126379 108.275014,56.5710606 107.800674,55.4289451 C107.589857,55.4725373 107.339514,55.5074104 107.04964,55.5335658 C106.759766,55.5597212 106.548951,55.5640803 106.41719,55.5466434 C106.241509,55.5030512 106.081202,55.385354 105.936265,55.1935484 C105.791328,55.0017427 105.71886,54.7489118 105.71886,54.435048 C105.71886,54.3478637 105.736428,54.1996523 105.771564,53.9904098 L106.48307,53.8727114 C107.220932,53.802964 107.824828,53.6438547 108.294776,53.3953793 C108.764723,53.1469038 109.120473,52.7720164 109.362035,52.2707062 C109.603597,51.7693959 109.724376,51.1046248 109.724376,50.2763731 C109.724376,49.8142959 109.607988,49.3849193 109.375211,48.9882302 C109.142433,48.5915411 108.817427,48.2755025 108.400184,48.0401046 C107.98294,47.8047067 107.50202,47.6870096 106.957408,47.6870096 C106.614829,47.6870096 106.270059,47.7044462 105.923089,47.73932 C105.576118,47.7741937 105.292836,47.8221444 105.073234,47.8831735 L105.08641,48.2755013 C105.103978,48.5370544 105.112762,48.807322 105.112762,49.0863121 C105.112762,49.740195 105.064451,50.8648568 104.967826,52.4603313 C104.923906,53.210117 104.884378,53.9838669 104.849242,54.7816042 C104.814105,55.5793414 104.796537,56.2484716 104.796537,56.7890148 C104.796537,57.48649 104.829477,58.1207468 104.895358,58.6918047 C104.961238,59.2628626 105.099585,59.7489083 105.310403,60.1499564 C105.099585,60.3591989 104.869007,60.5226672 104.618661,60.6403662 C104.368315,60.7580651 104.054289,60.8169137 103.676574,60.8169137 Z M120.093918,61 C119.241863,61 118.506208,60.762426 117.886931,60.2872711 C117.267654,59.8121163 116.797714,59.1713204 116.477095,58.3648649 C116.156477,57.5584093 115.99617,56.6713213 115.99617,55.7035745 C115.99617,55.197905 116.048873,54.0819616 116.154282,52.3557105 C116.277259,50.5248384 116.338747,49.2911976 116.338747,48.6547515 C116.338747,48.2101111 116.321179,47.8766359 116.286043,47.6543156 C116.250906,47.4319953 116.141107,47.1944215 115.956642,46.9415867 C116.193812,46.7149074 116.448546,46.5274636 116.720852,46.3792502 C116.993158,46.2310368 117.318164,46.1569311 117.695879,46.1569311 C118.179002,46.1569311 118.51938,46.2942445 118.717022,46.5688753 C118.914663,46.8435062 119.013482,47.2467279 119.013482,47.7785527 C119.013482,48.6678335 118.980543,49.5679989 118.914662,50.4790759 C118.848782,51.3901528 118.81145,51.9154308 118.802666,52.0549259 C118.793882,52.1769841 118.765334,52.5562305 118.717022,53.1926765 C118.668709,53.8291226 118.644553,54.3696578 118.644553,54.8142982 C118.644553,56.0523165 118.822428,57.0483833 119.178183,57.8025283 C119.533938,58.5566733 120.12905,58.9337402 120.963536,58.9337402 C121.701398,58.9337402 122.342625,58.6547543 122.887238,58.0967742 C123.43185,57.5387941 123.879831,56.8849209 124.231194,56.1351351 C124.239978,55.5597182 124.270721,54.7881478 124.323426,53.820401 C124.37613,52.8526543 124.406874,52.2467317 124.415658,52.0026155 C124.529851,50.1107142 124.586947,48.8770734 124.586947,48.3016565 C124.586947,48.013948 124.560595,47.7676557 124.50789,47.5627724 C124.455186,47.3578892 124.358563,47.1508293 124.218017,46.9415867 C124.393699,46.7323442 124.646237,46.5492597 124.97564,46.3923278 C125.305042,46.2353959 125.610284,46.1569311 125.891374,46.1569311 C126.35693,46.1569311 126.706091,46.2833466 126.938869,46.5361813 C127.171647,46.7890161 127.288034,47.1551851 127.288034,47.6346992 C127.288034,48.227553 127.230939,49.3827291 127.116746,51.1002616 C126.949849,53.6809197 126.866401,55.6599757 126.866401,57.0374891 C126.866401,57.9006145 126.901537,58.547949 126.971809,58.9795118 C127.042082,59.4110746 127.173841,59.8055779 127.367091,60.163034 C126.971807,60.5989561 126.457947,60.8169137 125.825494,60.8169137 C124.911951,60.8169137 124.455186,60.0453433 124.455186,58.5021796 L124.468362,57.9659983 L124.37613,57.9659983 C124.13896,58.593726 123.787603,59.1364407 123.322047,59.5941587 C122.856491,60.0518767 122.338239,60.400609 121.767274,60.6403662 C121.19631,60.8801233 120.63853,61 120.093918,61 Z M131.715183,60.8169137 C131.135435,60.8169137 130.746745,60.6360087 130.549104,60.2741935 C130.351462,59.9123784 130.252643,59.3653044 130.252643,58.6329555 C130.252643,57.830859 130.283387,56.9306936 130.344875,55.9324324 C130.406364,54.9341712 130.441499,54.3260691 130.450283,54.1081081 C130.599613,52.0331195 130.674276,50.3897183 130.674276,49.1778553 C130.674276,48.20139 130.494205,47.4777705 130.134059,47.0069747 C130.292172,46.8151691 130.54471,46.6386234 130.891681,46.4773322 C131.238651,46.316041 131.557069,46.2353967 131.846943,46.2353967 C132.303715,46.2353967 132.70558,46.4097629 133.052551,46.7585004 C133.399522,47.107238 133.709155,47.5605901 133.981462,48.1185702 C134.253768,48.6765503 134.591949,49.4655573 134.996017,50.4856146 C135.3913,51.4882351 135.753637,52.3557069 136.08304,53.0880558 C136.412442,53.8204047 136.792348,54.5483834 137.222767,55.2720139 C137.57413,54.8535289 137.943055,54.3086345 138.329554,53.6373147 C138.716053,52.965995 139.181602,52.1072415 139.726214,51.0610288 C140.358667,49.875321 140.86594,48.9490008 141.248047,48.2820401 C141.630154,47.6150794 142.014451,47.0418506 142.40095,46.5623365 C142.655688,46.3443755 142.976302,46.2353967 143.362801,46.2353967 C143.802004,46.2353967 144.11603,46.4054038 144.304887,46.7454228 C144.493745,47.0854419 144.588172,47.6870054 144.588172,48.5501308 C144.588172,48.9337421 144.522293,50.0496855 144.390532,51.8979948 C144.188498,54.5745557 144.087483,56.3966822 144.087483,57.3644289 C144.087483,57.9049722 144.12701,58.3997362 144.206067,58.8487358 C144.285124,59.2977355 144.438843,59.7314714 144.667228,60.1499564 C144.517899,60.3243252 144.269753,60.4790752 143.922782,60.614211 C143.575812,60.7493468 143.244218,60.8169137 142.927991,60.8169137 C142.444868,60.8169137 142.089118,60.6490863 141.860732,60.3134263 C141.632347,59.9777663 141.518155,59.4568476 141.518155,58.7506539 C141.518155,57.4428879 141.537919,56.370536 141.577448,55.5335658 C141.616976,54.6965956 141.689443,53.6111662 141.794852,52.277245 L141.913436,50.7210113 C141.702619,51.4969525 141.296362,52.4799417 140.694653,53.6700087 C140.092944,54.8600758 139.460501,55.9128114 138.797304,56.8282476 C138.134106,57.7436838 137.59609,58.2449866 137.183239,58.3321709 C136.84066,58.2449866 136.392679,57.7894548 135.839283,56.9655623 C135.285887,56.1416699 134.741283,55.1456031 134.205454,53.9773322 C133.669626,52.8090612 133.252389,51.7018361 132.953731,50.6556234 C132.962515,50.8648659 132.971299,51.1242356 132.980083,51.4337402 C132.988867,51.7432448 132.993259,52.0069736 132.993259,52.2249346 L132.914203,54.3304272 C132.835146,56.3443867 132.80001,57.3731471 132.808794,57.4167393 C132.835147,58.5588549 133.045961,59.4699181 133.441244,60.1499564 C132.975688,60.5945968 132.400341,60.8169137 131.715183,60.8169137 Z M151.189367,61 C150.187983,61 149.33155,60.8735845 148.62004,60.6207498 C147.90853,60.367915 147.37271,60.0453377 147.012563,59.6530078 C146.652416,59.260678 146.472346,58.8552766 146.472346,58.4367916 C146.472346,57.9921512 146.619477,57.6107253 146.913743,57.2925022 C147.208009,56.9742791 147.627442,56.758501 148.172055,56.6451613 C148.409224,57.3862287 148.833049,57.9965103 149.443542,58.4760244 C150.054035,58.9555385 150.807258,59.1952921 151.703233,59.1952921 C152.160004,59.1952921 152.575045,59.1037499 152.948368,58.9206626 C153.321691,58.7375753 153.618149,58.4847443 153.837751,58.1621622 C154.057353,57.83958 154.167152,57.4821293 154.167152,57.0897995 C154.167152,56.6887513 154.039785,56.3269414 153.785047,56.0043592 C153.530309,55.681777 153.196519,55.3940728 152.783668,55.141238 C152.370817,54.8884033 151.848172,54.6094173 151.215719,54.304272 C150.293392,53.8683499 149.562129,53.4891035 149.021909,53.1665214 C148.481689,52.8439392 148.01614,52.4341785 147.625249,51.9372276 C147.234358,51.4402766 147.038915,50.8517907 147.038915,50.1717524 C147.038915,49.3609376 147.278278,48.6394974 147.757009,48.0074106 C148.235741,47.3753239 148.898928,46.8849189 149.746591,46.5361813 C150.594254,46.1874438 151.545115,46.0130776 152.599203,46.0130776 C153.319497,46.0130776 153.982684,46.1024402 154.588785,46.2811683 C155.194886,46.4598963 155.682394,46.7279842 156.051325,47.0854403 C156.420256,47.4428964 156.604719,47.8700935 156.604719,48.3670445 C156.604719,48.7680926 156.46198,49.0972088 156.176498,49.3544028 C155.891015,49.6115968 155.480366,49.7925016 154.944538,49.8971229 C154.601959,48.4934541 153.670862,47.7916303 152.151218,47.7916303 C151.70323,47.7916303 151.303561,47.8722746 150.952199,48.0335658 C150.600836,48.194857 150.328534,48.4128146 150.135284,48.6874455 C149.942035,48.9620764 149.845411,49.2606785 149.845411,49.5832607 C149.845411,49.9930274 149.944231,50.3308618 150.141872,50.5967742 C150.339514,50.8626865 150.64256,51.1067991 151.051019,51.3291194 C151.459478,51.5514397 152.072158,51.8282459 152.889076,52.1595466 C154.259391,52.7088084 155.287112,53.3081921 155.972269,53.9577158 C156.657426,54.6072394 157,55.4027853 157,56.3443766 C157,57.1900652 156.75405,57.9681744 156.262142,58.6787271 C155.770234,59.3892799 155.080695,59.9537905 154.193504,60.3722755 C153.306313,60.7907605 152.304944,61 151.189367,61 Z" id="LIBRUMS" fill="#300461"></path>
            <path d="M1.42606314,77.6926287 C1.09087569,77.6926287 0.841012421,77.5985174 0.676465851,77.4102921 C0.51191928,77.2220667 0.429647229,76.9267521 0.429647229,76.5243394 C0.429647229,76.2712087 0.447929907,75.7552195 0.484495812,74.9763561 C0.533250351,73.9638335 0.557627255,73.08438 0.557627255,72.3379694 C0.557627255,71.9290662 0.519538358,71.5915637 0.443359375,71.325452 C0.367180423,71.0593404 0.219395427,70.7218378 0,70.3129346 C0.237678379,70.1052378 0.443358522,69.9575803 0.617046553,69.8699583 C0.790734614,69.7823363 1.01774452,69.7385257 1.29808312,69.7385257 C1.57842172,69.7385257 1.80390808,69.8180337 1.97454897,69.9770515 C2.14518986,70.1360693 2.23050902,70.3843285 2.23050902,70.7218359 C2.23050902,71.0333813 2.17566099,71.4422783 2.06596327,71.9485396 C2.07815191,71.9550301 2.09034036,71.9566528 2.10252899,71.9534075 C2.11471763,71.9501623 2.12690608,71.9517849 2.13909472,71.9582754 C2.413339,71.0885447 2.750045,70.4768213 3.14922278,70.1230876 C3.54840058,69.769354 3.96128651,69.5924896 4.3878866,69.5924896 C4.67431952,69.5924896 4.92265924,69.6573939 5.13291318,69.7872045 C5.34316714,69.917015 5.50466413,70.0890115 5.61740899,70.3031989 C5.73015388,70.5173862 5.78652545,70.7510418 5.78652545,71.0041725 C5.78652545,71.3416799 5.69054141,71.6223912 5.49857039,71.8463143 C5.30659941,72.0702374 5.06435391,72.1821975 4.77182668,72.1821975 L4.72611952,72.1919332 C4.64079908,72.0166889 4.52043813,71.8382022 4.36503302,71.6564673 C4.20962794,71.4747325 4.0740314,71.3611501 3.95823937,71.3157163 C3.64133486,71.3286973 3.35642981,71.4828449 3.10351562,71.7781641 C2.85060147,72.0734833 2.65253912,72.4596639 2.50932265,72.9367177 C2.3661062,73.4137714 2.29449903,73.9151573 2.29449903,74.4408901 C2.29449903,75.0445092 2.31125817,75.5572532 2.3447769,75.9791377 C2.37829566,76.4010222 2.46513837,76.8001835 2.60530767,77.1766342 C2.51389291,77.3259163 2.3569666,77.4492347 2.134524,77.5465925 C1.91208143,77.6439503 1.67593016,77.6926287 1.42606314,77.6926287 Z M9.86360341,77.8386648 C9.14447396,77.8386648 8.52286291,77.6715362 7.99875161,77.337274 C7.47464031,77.0030118 7.07546851,76.5357006 6.80122423,75.9353268 C6.52697994,75.334953 6.38985986,74.6356089 6.38985986,73.837274 C6.38985986,73.1947116 6.51631506,72.5472911 6.76922922,71.894993 C7.02214341,71.2426949 7.42131521,70.6974988 7.9667566,70.259388 C8.51219803,69.8212773 9.19627488,69.6022253 10.0190077,69.6022253 C10.5918736,69.6022253 11.0702703,69.7174303 11.4542123,69.9478442 C11.8381543,70.1782581 12.1215358,70.4833082 12.3043653,70.8630042 C12.4871949,71.2427001 12.5786082,71.6629555 12.5786082,72.123783 C12.5786082,72.6819686 12.4750064,73.1168273 12.2677996,73.4283727 C12.0605928,73.7399182 11.7756878,73.9541023 11.4130759,74.0709318 C11.050464,74.1877614 10.6010148,74.2461752 10.0647149,74.2461752 C9.52841495,74.2461752 8.9311808,74.2007421 8.27299452,74.1098748 C8.27299452,74.505797 8.33850747,74.8871098 8.46953528,75.2538248 C8.60056312,75.6205397 8.79862546,75.9223446 9.06372825,76.159249 C9.32883108,76.3961534 9.65030148,76.5146036 10.0281492,76.5146036 C10.3572423,76.4821508 10.6406238,76.386417 10.8783022,76.2273992 C11.1159806,76.0683814 11.3871736,75.8395936 11.6918895,75.5410292 L11.9387081,75.3073713 C12.0910661,75.4047291 12.2312333,75.5361604 12.3592139,75.701669 C12.4871946,75.8671776 12.551184,76.0375512 12.551184,76.2127955 C12.551184,76.4529452 12.4247288,76.7012041 12.1718146,76.95758 C11.9189004,77.2139559 11.5852415,77.4248947 11.170828,77.5904033 C10.7564144,77.755912 10.3206772,77.8386648 9.86360341,77.8386648 Z M9.06829897,73.1070932 C9.79961706,73.1070932 10.4120868,73.0162272 10.9057265,72.8344924 C10.972764,72.6527575 11.0062822,72.4191019 11.0062822,72.1335188 C11.0062822,71.7375966 10.9057275,71.4179429 10.704615,71.174548 C10.5035025,70.9311531 10.2292624,70.8094576 9.88188628,70.8094576 C9.42481247,70.8094576 9.0561118,71.0139063 8.7757732,71.4228095 C8.49543459,71.8317127 8.32174915,72.3801541 8.25471166,73.0681502 C8.5472389,73.0941122 8.81843196,73.1070932 9.06829897,73.1070932 Z M15.9700789,77.8386648 C15.5556653,77.8386648 15.1762998,77.7364405 14.8319708,77.5319889 C14.4876419,77.3275373 14.2164489,77.0452036 14.0183835,76.6849791 C13.8203182,76.3247547 13.721287,75.914235 13.721287,75.4534075 C13.721287,74.6096388 13.9924801,74.0271226 14.5348744,73.7058414 C15.0772686,73.3845603 15.7415392,73.2239221 16.5277062,73.2239221 C16.8202334,73.2239221 17.1264683,73.2515064 17.4464199,73.3066759 C17.7663716,73.3618455 18.0695593,73.4381078 18.3559923,73.5354659 C18.3803695,73.3537311 18.392558,72.9707957 18.392558,72.3866481 C18.392558,71.9323111 18.2782913,71.5737148 18.0497543,71.3108484 C17.8212175,71.047982 17.4784172,70.9165508 17.0213434,70.9165508 C16.6191185,70.9165508 16.3037423,70.9782098 16.0752054,71.1015299 C15.8466685,71.22485 15.6821244,71.401714 15.5815681,71.632128 C15.4810119,71.8625419 15.4094047,72.1627241 15.3667445,72.5326843 C15.3362729,72.5391748 15.2753307,72.555401 15.1839159,72.581363 C15.0925012,72.607325 14.9919464,72.620306 14.8822487,72.620306 C14.5714385,72.620306 14.3307166,72.5278174 14.1600757,72.3428373 C13.9894348,72.1578572 13.9041157,71.9258242 13.9041157,71.6467316 C13.9041157,71.2118661 14.0397122,70.8402891 14.3109093,70.5319889 C14.5821065,70.2236887 14.9508071,69.9916557 15.4170224,69.8358832 C15.8832377,69.6801106 16.4119118,69.6022253 17.0030606,69.6022253 C17.99034,69.6022253 18.773448,69.8245225 19.3524082,70.2691238 C19.9313683,70.713725 20.2208441,71.3838619 20.2208441,72.2795549 C20.2208441,72.5391761 20.2025614,72.9350924 20.1659955,73.4673157 C20.117241,74.0904066 20.092864,74.6453382 20.092864,75.132128 C20.092864,75.573484 20.1355236,75.9385708 20.2208441,76.2273992 C20.3061645,76.5162275 20.4615673,76.8099196 20.687057,77.108484 C20.5164161,77.3161809 20.3412072,77.4751964 20.1614248,77.5855355 C19.9816424,77.6958745 19.7515854,77.7510431 19.4712468,77.7510431 C19.1543423,77.7510431 18.9014319,77.6536866 18.7125081,77.4589708 C18.5235842,77.2642549 18.4291237,76.9494691 18.4291237,76.5146036 C18.4291237,76.3783025 18.4382651,76.2322677 18.456548,76.0764951 L18.4108409,76.0764951 C18.1792568,76.5957374 17.8501686,77.0192381 17.4235664,77.3470097 C16.9969641,77.6747814 16.5124732,77.8386648 15.9700789,77.8386648 Z M16.481999,76.5438108 C16.7989035,76.5438108 17.0944735,76.461058 17.3687178,76.2955494 C17.6429621,76.1300408 17.8654013,75.8931402 18.0360422,75.5848401 C18.2066831,75.2765399 18.2980965,74.911453 18.3102851,74.4895688 C17.9507204,74.307834 17.5332659,74.216968 17.0579091,74.216968 C16.5216092,74.216968 16.1315788,74.2980982 15.8878061,74.4603616 C15.6440334,74.622625 15.5221488,74.9146944 15.5221488,75.3365786 C15.5221488,75.687067 15.6028973,75.9758911 15.7643967,76.2030598 C15.9258962,76.4302285 16.1650945,76.5438108 16.481999,76.5438108 Z M24.2887806,77.8386648 C23.7707638,77.8386648 23.3182672,77.676404 22.9312782,77.3518776 C22.5442891,77.0273512 22.2471954,76.5795115 22.0399887,76.0083449 C21.8327819,75.4371783 21.7291801,74.797871 21.7291801,74.0904033 C21.7291801,73.3569737 21.8525882,72.6446489 22.099408,71.9534075 C22.3462279,71.2621661 22.7073107,70.6958762 23.1826675,70.2545202 C23.6580243,69.8131642 24.2247872,69.5924896 24.8829736,69.5924896 C25.3461418,69.5924896 25.7559784,69.7093172 26.112496,69.9429764 C26.4690136,70.1766355 26.7325888,70.4459882 26.9032297,70.7510431 L26.9489369,70.7510431 C26.9489369,70.1798765 26.9367483,69.5860023 26.9123711,68.9694019 C26.8575222,68.1515952 26.7508734,67.5350043 26.5924211,67.1196106 C26.7874392,66.9508567 26.9717895,66.8340291 27.1454776,66.7691238 C27.3191657,66.7042185 27.5004689,66.6717663 27.6893927,66.6717663 C28.0306746,66.6717663 28.2866319,66.7869713 28.4572729,67.0173853 C28.6279138,67.2477992 28.7132329,67.5577171 28.7132329,67.9471488 C28.7132329,68.5832207 28.6797147,69.4853905 28.6126772,70.6536857 C28.5700169,71.4974544 28.5364986,72.2341182 28.5121215,72.8636996 C28.4877443,73.4932809 28.4755557,74.1974926 28.4755557,74.9763561 C28.4755557,75.4761268 28.519739,75.8769108 28.6081065,76.1787204 C28.6964739,76.4805301 28.8534003,76.7969386 29.0788901,77.1279555 C28.8899663,77.3096904 28.7010453,77.450857 28.5121215,77.5514604 C28.3231976,77.6520637 28.1068526,77.7023644 27.8630799,77.7023644 C27.5400812,77.7023644 27.293265,77.6033853 27.122624,77.4054242 C26.9519831,77.2074631 26.866664,76.8618478 26.866664,76.3685675 C26.866664,76.1154368 26.8879937,75.8428389 26.930654,75.550765 L26.8758054,75.550765 C26.5771838,76.2971756 26.2039124,76.8650885 25.7559802,77.2545202 C25.308048,77.6439519 24.8189863,77.8386648 24.2887806,77.8386648 Z M24.7915593,76.4075104 C25.1267469,76.4075104 25.44517,76.2322687 25.7468388,75.8817803 C26.0485075,75.5312918 26.2938001,75.0818292 26.4827239,74.5333797 C26.6716477,73.9849302 26.781344,73.4283757 26.8118154,72.8636996 L26.8209568,71.7732962 C26.6868819,71.5655994 26.4812019,71.3562828 26.2039103,71.1453408 C25.9266187,70.9343987 25.6081956,70.8289291 25.2486308,70.8289291 C24.9134435,70.8289291 24.6193969,70.9749639 24.3664828,71.2670376 C24.1135686,71.5591115 23.9185533,71.9517823 23.7814312,72.4450626 C23.6443092,72.9383429 23.575749,73.470558 23.575749,74.0417246 C23.575749,74.7037585 23.6823981,75.2635582 23.8956991,75.7211405 C24.1090004,76.1787227 24.4076174,76.4075104 24.7915593,76.4075104 Z M30.4226804,80 C30.3373601,79.974038 30.258135,79.9075111 30.1850032,79.8004172 C30.1118715,79.6933234 30.0692118,79.5878541 30.0570232,79.4840056 C30.2764187,79.2698182 30.4485805,79.0848407 30.573514,78.9290682 C30.6984475,78.7732956 30.8020495,78.5883181 30.8843226,78.3741307 C30.9665958,78.1599434 31.007732,77.9100616 31.007732,77.6244784 C31.007732,77.4687059 30.9711665,77.3275389 30.8980348,77.2009736 C30.824903,77.0744083 30.7213011,76.9364865 30.5872262,76.7872045 C30.5019058,76.6833559 30.4409636,76.6054709 30.4043976,76.5535466 C30.4287747,76.3847927 30.5019055,76.2160418 30.6237919,76.0472879 C30.7456782,75.878534 30.8934632,75.7422352 31.0671513,75.6383866 C31.2408393,75.5345381 31.4160483,75.4826147 31.5927835,75.4826147 C31.9035937,75.4826147 32.1580277,75.627027 32.3560929,75.9158554 C32.5541582,76.2046837 32.6531894,76.5600351 32.6531894,76.9819193 C32.6531894,77.4297658 32.5526346,77.8759829 32.3515222,78.3205841 C32.1504098,78.7651854 31.8776932,79.1416303 31.5333642,79.4499305 C31.1890352,79.7582306 30.8188112,79.9415852 30.4226804,80 Z M36.4194588,77.7413074 C36.1574032,77.7413074 35.9288696,77.6098761 35.7338515,77.3470097 C35.5388334,77.0841433 35.3621009,76.6833591 35.2036485,76.1446453 C35.0451961,75.6059316 34.8745579,74.8660222 34.6917284,73.9248957 C34.5515592,73.1784851 34.4083447,72.57812 34.2620812,72.123783 C34.1158177,71.669446 33.9680325,71.3222081 33.8187218,71.0820584 C33.6694112,70.8419088 33.5002962,70.6407053 33.3113724,70.4784423 C33.4576359,70.2318021 33.646557,70.0224859 33.8781411,69.8504868 C34.1097252,69.6784877 34.3870125,69.5924896 34.7100113,69.5924896 C34.9598783,69.5924896 35.1792705,69.6833555 35.3681943,69.8650904 C35.5571181,70.0468253 35.732327,70.3956859 35.8938265,70.9116829 C36.055326,71.4276799 36.2000638,72.1659664 36.3280445,73.1265647 L36.3554687,73.3310153 C36.4407891,74.0384829 36.5184906,74.601528 36.5885752,75.0201669 C36.6586598,75.4388058 36.7424554,75.7357431 36.8399646,75.9109875 C36.9984169,75.7487244 37.1903848,75.4907295 37.4158747,75.1369958 C37.6413645,74.7832622 37.8668507,74.3630064 38.0923405,73.876217 C38.3178304,73.3894272 38.5097983,72.8864189 38.6682506,72.3671766 C38.5890246,71.9777449 38.4899934,71.6516007 38.3711542,71.3887344 C38.252315,71.125868 38.0923414,70.8646281 37.8912291,70.605007 C38.0374926,70.4427436 38.2081311,70.3064448 38.4031492,70.1961057 C38.5981673,70.0857666 38.7840412,70.0305981 38.9607764,70.0305981 C39.2411151,70.0305981 39.4650777,70.1555388 39.6326716,70.4054242 C39.8002654,70.6553096 39.9297677,70.9879443 40.0211823,71.403338 C40.1125973,71.8187317 40.1979164,72.3639281 40.2771424,73.038943 C40.3807459,73.8372779 40.47673,74.4603593 40.5650975,74.9082058 C40.6534649,75.3560523 40.7616376,75.7097808 40.8896182,75.9694019 C41.2918433,75.3592924 41.622455,74.6096476 41.8814634,73.7204451 C42.1404718,72.8312426 42.2760685,72.006958 42.2882571,71.2475661 C42.2943514,70.8711153 42.2852099,70.5871591 42.2608328,70.3956885 C42.2364556,70.2042178 42.1877017,69.9981465 42.1145699,69.7774687 C42.1998902,69.7320349 42.3202512,69.6898473 42.4756564,69.650904 C42.6310616,69.6119607 42.7788466,69.5924896 42.9190158,69.5924896 C43.2968634,69.5924896 43.6000511,69.7093172 43.8285881,69.9429764 C44.0571251,70.1766355 44.1683446,70.4687049 44.1622503,70.8191933 C44.1439675,71.5850758 43.9428578,72.5261883 43.5589159,73.6425591 C43.174974,74.7589299 42.7011478,75.7227589 42.1374235,76.5340751 C41.5736992,77.345391 41.0236953,77.7510431 40.4873953,77.7510431 C40.2923772,77.7510431 40.0958383,77.6261024 39.897773,77.376217 C39.6997078,77.1263316 39.5199282,76.7385283 39.3584286,76.2127955 C39.1969291,75.6870628 39.0765682,75.0347744 38.9973421,74.255911 L38.951635,74.255911 C38.701768,74.9179448 38.4229571,75.5150646 38.1151941,76.0472879 C37.8074311,76.5795112 37.5042434,76.9948987 37.2056218,77.2934631 C36.9070002,77.5920276 36.6449486,77.7413074 36.4194588,77.7413074 Z M46.703568,77.6926287 C46.3683804,77.6926287 46.1185173,77.5985174 45.9539707,77.4102921 C45.789424,77.2220667 45.7071521,76.9267521 45.7071521,76.5243394 C45.7071521,76.2712087 45.7254346,75.7552195 45.7620006,74.9763561 C45.8107552,73.9638335 45.8351321,73.08438 45.8351321,72.3379694 C45.8351321,71.9290662 45.7970431,71.5915637 45.7208642,71.325452 C45.6446853,71.0593404 45.4969004,70.7218378 45.2775048,70.3129346 C45.5151832,70.1052378 45.7208633,69.9575803 45.8945514,69.8699583 C46.0682395,69.7823363 46.2952492,69.7385257 46.575588,69.7385257 C46.8559267,69.7385257 47.0814129,69.8180337 47.2520538,69.9770515 C47.4226948,70.1360693 47.5080139,70.3843285 47.5080139,70.7218359 C47.5080139,71.0333813 47.4531659,71.4422783 47.3434681,71.9485396 C47.3556567,71.9550301 47.3678453,71.9566528 47.3800338,71.9534075 C47.3922224,71.9501623 47.404411,71.9517849 47.4165995,71.9582754 C47.690844,71.0885447 48.0275497,70.4768213 48.4267276,70.1230876 C48.8259055,69.769354 49.2387913,69.5924896 49.6653914,69.5924896 C49.9518244,69.5924896 50.2001642,69.6573939 50.410418,69.7872045 C50.6206718,69.917015 50.7821689,70.0890115 50.8949138,70.3031989 C51.0076587,70.5173862 51.0640303,70.7510418 51.0640303,71.0041725 C51.0640303,71.3416799 50.9680462,71.6223912 50.7760752,71.8463143 C50.5841043,72.0702374 50.3418588,72.1821975 50.0493315,72.1821975 L50.0036244,72.1919332 C49.918304,72.0166889 49.7979431,71.8382022 49.6425379,71.6564673 C49.4871326,71.4747325 49.3515363,71.3611501 49.2357442,71.3157163 C48.9188398,71.3286973 48.6339346,71.4828449 48.3810205,71.7781641 C48.1281063,72.0734833 47.9300438,72.4596639 47.7868275,72.9367177 C47.6436111,73.4137714 47.5720039,73.9151573 47.5720039,74.4408901 C47.5720039,75.0445092 47.5887629,75.5572532 47.6222817,75.9791377 C47.6558006,76.4010222 47.7426433,76.8001835 47.8828125,77.1766342 C47.7913979,77.3259163 47.6344715,77.4492347 47.4120288,77.5465925 C47.1895861,77.6439503 46.953435,77.6926287 46.703568,77.6926287 Z M53.1574178,68.3365786 C52.8831734,68.3365786 52.6500694,68.2392221 52.4580984,68.0445063 C52.2661275,67.8497904 52.1701434,67.6063994 52.1701434,67.3143255 C52.1701434,67.0222518 52.2646039,66.77237 52.4535277,66.5646732 C52.6424515,66.3569763 52.8892677,66.2531293 53.1939836,66.2531293 C53.4804166,66.2531293 53.7196149,66.3488632 53.9115859,66.5403338 C54.1035568,66.7318044 54.1995409,66.9703279 54.1995409,67.255911 C54.1995409,67.5544754 54.1020332,67.8092248 53.9070151,68.0201669 C53.711997,68.231109 53.4621337,68.3365786 53.1574178,68.3365786 Z M53.3676707,77.7023644 C53.0995209,77.7023644 52.8892698,77.6650444 52.736912,77.5904033 C52.584554,77.5157623 52.4718109,77.3843311 52.3986791,77.1961057 C52.3255474,77.0078803 52.288982,76.7385274 52.288982,76.3880389 C52.288982,75.9337019 52.3103117,75.2457162 52.352972,74.3240612 C52.389538,73.2985576 52.4078206,72.6365338 52.4078206,72.3379694 C52.4078206,72.0199335 52.3864909,71.7538257 52.3438305,71.5396384 C52.3011702,71.325451 52.2463223,71.1388509 52.1792848,70.9798331 C52.1122473,70.8208153 52.0025511,70.5985178 51.8501933,70.3129346 C52.0391171,70.1376903 52.2265146,69.9981462 52.4123913,69.8942976 C52.5982679,69.790449 52.8069951,69.7385257 53.0385793,69.7385257 C53.3554837,69.7385257 53.594682,69.8018074 53.7561815,69.9283727 C53.9176811,70.0549381 54.0212827,70.2188215 54.0669902,70.4200278 C54.1126976,70.6212342 54.1355509,70.8808514 54.1355509,71.1988873 C54.1355509,71.6726958 54.1264095,72.2276277 54.1081266,72.8636996 C54.1020323,73.1103397 54.095938,73.4202577 54.0898437,73.7934631 C54.0837495,74.1666686 54.0807023,74.5901693 54.0807023,75.0639777 C54.0807023,75.4858619 54.1081263,75.8331002 54.1629752,76.1057024 C54.2178241,76.3783045 54.2970489,76.6736191 54.4006524,76.9916551 C54.412841,77.0176171 54.4341707,77.0825214 54.4646424,77.18637 C54.1416437,77.5303679 53.7759901,77.7023644 53.3676707,77.7023644 Z M58.5782861,77.7510431 C57.8347794,77.7510431 57.3000109,77.5255006 56.973965,77.0744089 C56.6479192,76.6233172 56.4848985,75.9564255 56.4848985,75.0737135 C56.4909928,74.3792268 56.5275582,73.4803022 56.5945957,72.3769124 C56.6311617,71.7603123 56.6524914,71.351415 56.6585857,71.1502086 C56.3294927,71.1566991 55.8937554,71.108021 55.3513611,71.0041725 C55.3513611,70.705608 55.403162,70.4573491 55.5067655,70.259388 C55.610369,70.0614269 55.7353006,69.9332409 55.8815641,69.8748261 C56.3447324,69.9007881 56.6250665,69.9137691 56.7225757,69.9137691 C56.7469529,69.5243374 56.7591414,69.1868349 56.7591414,68.9012517 C56.7591414,68.5702348 56.7957068,68.3171081 56.8688386,68.1418637 C56.9419703,67.9666193 57.0516666,67.8465465 57.1979301,67.7816412 C57.3441936,67.7167359 57.5453032,67.6842837 57.8012645,67.6842837 C57.9719054,67.6842837 58.1242611,67.7102454 58.258336,67.7621697 C58.3924109,67.814094 58.5325783,67.888734 58.6788418,67.9860918 C58.4655409,68.849332 58.3558446,69.4853944 58.3497503,69.8942976 L60.2511678,69.8553547 C60.2572621,70.1019948 60.2252674,70.3632347 60.1551828,70.6390821 C60.0850982,70.9149294 59.9647373,71.0788128 59.7940963,71.1307371 C59.3065509,71.1696804 58.8007303,71.1891516 58.2766189,71.1891516 C58.2339586,71.9290717 58.2004403,72.5927185 58.1760631,73.1801113 C58.151686,73.7675041 58.1394974,74.4279056 58.1394974,75.1613352 C58.1394974,75.5507669 58.1943454,75.852572 58.3040432,76.0667594 C58.4137409,76.2809467 58.6178974,76.3977747 58.916519,76.4172462 C59.0810657,76.3847934 59.2501803,76.29555 59.4238684,76.1495132 C59.5975565,76.0034764 59.8306605,75.7844244 60.1231878,75.4923505 C60.3182059,75.6286516 60.4629437,75.7730638 60.5574058,75.9255911 C60.6518678,76.0781184 60.6990979,76.258228 60.6990979,76.4659249 C60.6990979,76.6995841 60.5939724,76.9153908 60.3837186,77.1133519 C60.1734648,77.311313 59.903795,77.4670833 59.574702,77.5806676 C59.245609,77.6942519 58.9134737,77.7510431 58.5782861,77.7510431 Z M64.6847616,77.8386648 C63.9656321,77.8386648 63.3440212,77.6715362 62.8199098,77.337274 C62.2957984,77.0030118 61.8966268,76.5357006 61.6223824,75.9353268 C61.3481383,75.334953 61.211018,74.6356089 61.211018,73.837274 C61.211018,73.1947116 61.3374733,72.5472911 61.5903874,71.894993 C61.8433015,71.2426949 62.2424734,70.6974988 62.7879148,70.259388 C63.3333562,69.8212773 64.0174332,69.6022253 64.8401659,69.6022253 C65.4130316,69.6022253 65.8914286,69.7174303 66.2753705,69.9478442 C66.6593124,70.1782581 66.942694,70.4833082 67.1255235,70.8630042 C67.308353,71.2427001 67.3997664,71.6629555 67.3997664,72.123783 C67.3997664,72.6819686 67.2961645,73.1168273 67.0889578,73.4283727 C66.8817511,73.7399182 66.596846,73.9541023 66.2342341,74.0709318 C65.8716222,74.1877614 65.4221731,74.2461752 64.8858731,74.2461752 C64.3495731,74.2461752 63.752339,74.2007421 63.0941527,74.1098748 C63.0941527,74.505797 63.1596657,74.8871098 63.2906935,75.2538248 C63.4217212,75.6205397 63.6197837,75.9223446 63.8848864,76.159249 C64.1499891,76.3961534 64.4714597,76.5146036 64.8493073,76.5146036 C65.1784004,76.4821508 65.461782,76.386417 65.6994604,76.2273992 C65.9371388,76.0683814 66.2083318,75.8395936 66.5130477,75.5410292 L66.7598663,75.3073713 C66.9122244,75.4047291 67.0523915,75.5361604 67.1803721,75.701669 C67.3083527,75.8671776 67.3723421,76.0375512 67.3723421,76.2127955 C67.3723421,76.4529452 67.2458869,76.7012041 66.9929728,76.95758 C66.7400587,77.2139559 66.4063998,77.4248947 65.9919861,77.5904033 C65.5775725,77.755912 65.1418356,77.8386648 64.6847616,77.8386648 Z M63.8894572,73.1070932 C64.6207752,73.1070932 65.233245,73.0162272 65.7268847,72.8344924 C65.7939221,72.6527575 65.8274404,72.4191019 65.8274404,72.1335188 C65.8274404,71.7375966 65.7268856,71.4179429 65.5257732,71.174548 C65.3246608,70.9311531 65.0504206,70.8094576 64.7030445,70.8094576 C64.2459708,70.8094576 63.8772701,71.0139063 63.5969314,71.4228095 C63.3165927,71.8317127 63.1429073,72.3801541 63.0758698,73.0681502 C63.3683971,73.0941122 63.6395902,73.1070932 63.8894572,73.1070932 Z M68.5698695,80 C68.4845492,79.974038 68.4053241,79.9075111 68.3321923,79.8004172 C68.2590606,79.6933234 68.2164009,79.5878541 68.2042123,79.4840056 C68.4236079,79.2698182 68.5957696,79.0848407 68.7207031,78.9290682 C68.8456366,78.7732956 68.9492386,78.5883181 69.0315118,78.3741307 C69.1137849,78.1599434 69.1549211,77.9100616 69.1549211,77.6244784 C69.1549211,77.4687059 69.1183557,77.3275389 69.0452239,77.2009736 C68.9720922,77.0744083 68.8684902,76.9364865 68.7344153,76.7872045 C68.6490949,76.6833559 68.5881527,76.6054709 68.5515867,76.5535466 C68.5759638,76.3847927 68.6490946,76.2160418 68.770981,76.0472879 C68.8928673,75.878534 69.0406523,75.7422352 69.2143404,75.6383866 C69.3880285,75.5345381 69.5632374,75.4826147 69.7399726,75.4826147 C70.0507828,75.4826147 70.3052168,75.627027 70.5032821,75.9158554 C70.7013473,76.2046837 70.8003785,76.5600351 70.8003785,76.9819193 C70.8003785,77.4297658 70.6998237,77.8759829 70.4987113,78.3205841 C70.297599,78.7651854 70.0248824,79.1416303 69.6805533,79.4499305 C69.3362243,79.7582306 68.9660003,79.9415852 68.5698695,80 Z M74.3381121,77.8386648 C73.856661,77.8386648 73.4133062,77.7705153 73.008034,77.6342142 C72.6027618,77.4979131 72.2812915,77.3064454 72.0436131,77.0598053 C71.8059347,76.8131651 71.6870973,76.5275862 71.6870973,76.2030598 C71.6870973,75.9174767 71.7800343,75.6805758 71.9659109,75.4923505 C72.1517876,75.3041251 72.3970802,75.167826 72.7017961,75.0834492 C72.8541542,75.5572577 73.0903053,75.9385708 73.4102569,76.2273992 C73.7302085,76.5162275 74.1339511,76.6606398 74.6214965,76.6606398 C74.9079295,76.6606398 75.1501749,76.5632833 75.3482402,76.3685675 C75.5463054,76.1738516 75.6453367,75.9369508 75.6453367,75.6578581 C75.6453367,75.3528032 75.5264993,75.1012991 75.2888209,74.903338 C75.0511425,74.7053769 74.7007246,74.5025508 74.2375564,74.294854 C73.7926713,74.0936476 73.4102585,73.8940668 73.0903069,73.6961057 C72.7703553,73.4981446 72.5006858,73.2547533 72.2812903,72.9659249 C72.0618947,72.6770965 71.9521988,72.3379713 71.9521988,71.9485396 C71.9521988,71.5071836 72.0725597,71.108022 72.3132853,70.7510431 C72.5540108,70.3940642 72.8968111,70.1133529 73.3416962,69.9089013 C73.7865813,69.7044497 74.3106848,69.6022253 74.9140222,69.6022253 C75.3223416,69.6022253 75.6986598,69.6573939 76.0429889,69.767733 C76.3873179,69.878072 76.6600345,70.0338423 76.8611469,70.2350487 C77.0622593,70.436255 77.1628141,70.6634201 77.1628141,70.9165508 C77.1628141,71.0982856 77.104919,71.2670369 76.9891269,71.4228095 C76.8733349,71.578582 76.7301207,71.7019005 76.5594797,71.7927677 C76.3888388,71.883635 76.227342,71.9290682 76.0749839,71.9290682 L76.0384182,71.9290682 C75.6605706,71.2994868 75.2035036,70.9035704 74.6672036,70.7413074 C74.3807706,70.7542884 74.1415723,70.8500222 73.9496013,71.0285118 C73.7576304,71.2070014 73.6616463,71.4163177 73.6616463,71.6564673 C73.6616463,71.8057494 73.6890702,71.935558 73.7439191,72.0458971 C73.798768,72.1562362 73.9130347,72.2730638 74.0867228,72.3963839 C74.2604109,72.5197039 74.5209389,72.6624936 74.8683151,72.8247566 C74.9841071,72.8831714 75.0877091,72.9334721 75.1791237,72.9756606 C75.2705383,73.0178492 75.3528106,73.0551689 75.4259423,73.0876217 C75.8952049,73.301809 76.2578113,73.4900318 76.5137726,73.6522949 C76.7697338,73.8145582 76.9815082,74.0287423 77.149102,74.294854 C77.3166958,74.5609656 77.4004913,74.8984682 77.4004913,75.3073713 C77.4004913,75.7681988 77.2709889,76.1916995 77.0119805,76.577886 C76.7529721,76.9640724 76.3903657,77.2707454 75.9241503,77.4979138 C75.4579349,77.7250824 74.929261,77.8386648 74.3381121,77.8386648 Z M79.6767075,77.7023644 C79.3293313,77.7023644 79.0809915,77.5985174 78.9316809,77.3908206 C78.7823703,77.1831237 78.7077159,76.8553569 78.7077159,76.4075104 C78.7077159,75.5767227 78.738187,74.4798399 78.7991302,73.1168289 C78.8235073,72.5716247 78.8463609,71.9858632 78.8676909,71.3595271 C78.8890209,70.733191 78.8996859,70.092261 78.8996859,69.4367177 C78.8996859,68.5410247 78.8021782,67.7719087 78.6071601,67.1293463 C78.9545363,66.8242914 79.3323781,66.6717663 79.7406975,66.6717663 C80.0515076,66.6717663 80.3044181,66.785349 80.4994362,67.0125174 C80.6944543,67.239686 80.791962,67.5479814 80.791962,67.9374131 C80.791962,68.26843 80.7706323,68.628649 80.727972,69.0180807 C80.6853117,69.4075124 80.6213223,69.9267469 80.5360019,70.5757997 C80.4567759,71.1145135 80.3958336,71.5753342 80.3531733,71.9582754 L80.4080219,71.9582754 C80.6883606,71.2183553 81.067726,70.6423293 81.54613,70.2301808 C82.024534,69.8180324 82.5349253,69.6119611 83.0773196,69.6119611 C83.7294116,69.6119611 84.2215204,69.8553521 84.5536606,70.3421419 C84.8858008,70.8289317 85.0518686,71.5136719 85.0518686,72.3963839 C85.0518686,72.7533631 85.0305389,73.1655054 84.9878785,73.6328234 C84.9391239,74.2039899 84.9147471,74.6810365 84.9147471,75.0639777 C84.9147471,75.5248052 84.9650244,75.8915147 85.0655807,76.1641168 C85.166137,76.436719 85.3382988,76.7352789 85.5820715,77.0598053 C85.3748649,77.2739926 85.1874674,77.4346308 85.0198736,77.5417246 C84.8522797,77.6488185 84.652694,77.7023644 84.4211099,77.7023644 C83.9884134,77.7023644 83.6593252,77.575801 83.4338354,77.3226704 C83.2083455,77.0695397 83.0956024,76.6573975 83.0956024,76.0862309 C83.0956024,75.8266097 83.1199793,75.2879041 83.1687339,74.4700974 C83.2174885,73.6393096 83.2418653,73.0681518 83.2418653,72.7566064 C83.2418653,72.3541937 83.1733052,71.9988426 83.0361832,71.6905424 C82.8990611,71.3822422 82.6872867,71.2280946 82.4008537,71.2280946 C82.0291004,71.2280946 81.7000123,71.3643937 81.4135793,71.6369958 C81.1271462,71.909598 80.9047072,72.2763074 80.7462548,72.7371349 C80.5878025,73.1979624 80.5085776,73.6977257 80.5085776,74.2364395 C80.5085776,75.0542462 80.5314309,75.6464978 80.5771384,76.0132128 C80.6228458,76.3799278 80.7279711,76.7709763 80.8925177,77.18637 C80.7401599,77.3421425 80.571045,77.4670836 80.3851683,77.5611961 C80.1992917,77.6553086 79.9631405,77.7023644 79.6767075,77.7023644 Z M89.0923808,77.8386648 C88.6779672,77.8386648 88.2986018,77.7364405 87.9542727,77.5319889 C87.6099437,77.3275373 87.3387506,77.0452036 87.1406854,76.6849791 C86.9426202,76.3247547 86.8435889,75.914235 86.8435889,75.4534075 C86.8435889,74.6096388 87.1147819,74.0271226 87.6571762,73.7058414 C88.1995705,73.3845603 88.8638411,73.2239221 89.6500081,73.2239221 C89.9425354,73.2239221 90.2487702,73.2515064 90.5687218,73.3066759 C90.8886734,73.3618455 91.1918611,73.4381078 91.4782941,73.5354659 C91.5026713,73.3537311 91.5148599,72.9707957 91.5148599,72.3866481 C91.5148599,71.9323111 91.4005932,71.5737148 91.1720562,71.3108484 C90.9435192,71.047982 90.6007193,70.9165508 90.1436453,70.9165508 C89.7414202,70.9165508 89.4260442,70.9782098 89.1975072,71.1015299 C88.9689703,71.22485 88.8044264,71.401714 88.70387,71.632128 C88.6033137,71.8625419 88.5317067,72.1627241 88.4890464,72.5326843 C88.458575,72.5391748 88.3976327,72.555401 88.3062178,72.581363 C88.2148029,72.607325 88.1142484,72.620306 88.0045506,72.620306 C87.6937404,72.620306 87.4530185,72.5278174 87.2823776,72.3428373 C87.1117366,72.1578572 87.0264175,71.9258242 87.0264175,71.6467316 C87.0264175,71.2118661 87.1620142,70.8402891 87.4332112,70.5319889 C87.7044082,70.2236887 88.0731089,69.9916557 88.5393243,69.8358832 C89.0055396,69.6801106 89.5342136,69.6022253 90.1253624,69.6022253 C91.1126418,69.6022253 91.89575,69.8245225 92.4747101,70.2691238 C93.0536701,70.713725 93.3431459,71.3838619 93.3431459,72.2795549 C93.3431459,72.5391761 93.3248634,72.9350924 93.2882974,73.4673157 C93.2395428,74.0904066 93.2151659,74.6453382 93.2151659,75.132128 C93.2151659,75.573484 93.2578256,75.9385708 93.3431459,76.2273992 C93.4284663,76.5162275 93.5838691,76.8099196 93.8093589,77.108484 C93.6387179,77.3161809 93.463509,77.4751964 93.2837266,77.5855355 C93.1039443,77.6958745 92.8738874,77.7510431 92.5935486,77.7510431 C92.2766442,77.7510431 92.0237337,77.6536866 91.8348099,77.4589708 C91.6458861,77.2642549 91.5514256,76.9494691 91.5514256,76.5146036 C91.5514256,76.3783025 91.560567,76.2322677 91.5788499,76.0764951 L91.5331427,76.0764951 C91.3015586,76.5957374 90.9724705,77.0192381 90.5458682,77.3470097 C90.119266,77.6747814 89.6347751,77.8386648 89.0923808,77.8386648 Z M89.6043009,76.5438108 C89.9212053,76.5438108 90.2167755,76.461058 90.4910197,76.2955494 C90.7652638,76.1300408 90.9877031,75.8931402 91.1583441,75.5848401 C91.328985,75.2765399 91.4203984,74.911453 91.432587,74.4895688 C91.0730222,74.307834 90.6555678,74.216968 90.180211,74.216968 C89.643911,74.216968 89.2538806,74.2980982 89.0101079,74.4603616 C88.7663352,74.622625 88.6444507,74.9146944 88.6444507,75.3365786 C88.6444507,75.687067 88.7251991,75.9758911 88.8866986,76.2030598 C89.0481981,76.4302285 89.2873965,76.5438108 89.6043009,76.5438108 Z M96.4786566,77.6926287 C96.143469,77.6926287 95.8936059,77.5985174 95.7290593,77.4102921 C95.5645126,77.2220667 95.4822407,76.9267521 95.4822407,76.5243394 C95.4822407,76.2712087 95.5005232,75.7552195 95.5370892,74.9763561 C95.5858438,73.9638335 95.6102207,73.08438 95.6102207,72.3379694 C95.6102207,71.9290662 95.5721317,71.5915637 95.4959528,71.325452 C95.4197739,71.0593404 95.271989,70.7218378 95.0525934,70.3129346 C95.2902718,70.1052378 95.4959519,69.9575803 95.66964,69.8699583 C95.8433281,69.7823363 96.0703378,69.7385257 96.3506765,69.7385257 C96.6310153,69.7385257 96.8565014,69.8180337 97.0271424,69.9770515 C97.1977833,70.1360693 97.2831024,70.3843285 97.2831024,70.7218359 C97.2831024,71.0333813 97.2282545,71.4422783 97.1185567,71.9485396 C97.1307453,71.9550301 97.1429338,71.9566528 97.1551224,71.9534075 C97.167311,71.9501623 97.1794996,71.9517849 97.1916881,71.9582754 C97.4659323,71.0885447 97.8026383,70.4768213 98.2018162,70.1230876 C98.6009941,69.769354 99.0138799,69.5924896 99.44048,69.5924896 C99.726913,69.5924896 99.9752528,69.6573939 100.185507,69.7872045 C100.39576,69.917015 100.557257,70.0890115 100.670002,70.3031989 C100.782747,70.5173862 100.839119,70.7510418 100.839119,71.0041725 C100.839119,71.3416799 100.743135,71.6223912 100.551164,71.8463143 C100.359193,72.0702374 100.116947,72.1821975 99.8244201,72.1821975 L99.778713,72.1919332 C99.6933926,72.0166889 99.5730317,71.8382022 99.4176264,71.6564673 C99.2622212,71.4747325 99.1266249,71.3611501 99.0108328,71.3157163 C98.6939284,71.3286973 98.4090232,71.4828449 98.1561091,71.7781641 C97.9031949,72.0734833 97.7051324,72.4596639 97.5619161,72.9367177 C97.4186997,73.4137714 97.3470925,73.9151573 97.3470925,74.4408901 C97.3470925,75.0445092 97.3638514,75.5572532 97.3973703,75.9791377 C97.4308892,76.4010222 97.5177319,76.8001835 97.6579011,77.1766342 C97.5664862,77.3259163 97.4095601,77.4492347 97.1871174,77.5465925 C96.9646747,77.6439503 96.7285236,77.6926287 96.4786566,77.6926287 Z M104.916197,77.8386648 C104.197067,77.8386648 103.575456,77.6715362 103.051345,77.337274 C102.527234,77.0030118 102.128062,76.5357006 101.853818,75.9353268 C101.579574,75.334953 101.442453,74.6356089 101.442453,73.837274 C101.442453,73.1947116 101.568909,72.5472911 101.821823,71.894993 C102.074737,71.2426949 102.473909,70.6974988 103.01935,70.259388 C103.564791,69.8212773 104.248868,69.6022253 105.071601,69.6022253 C105.644467,69.6022253 106.122864,69.7174303 106.506806,69.9478442 C106.890748,70.1782581 107.174129,70.4833082 107.356959,70.8630042 C107.539788,71.2427001 107.631202,71.6629555 107.631202,72.123783 C107.631202,72.6819686 107.5276,73.1168273 107.320393,73.4283727 C107.113186,73.7399182 106.828281,73.9541023 106.465669,74.0709318 C106.103057,74.1877614 105.653608,74.2461752 105.117308,74.2461752 C104.581008,74.2461752 103.983774,74.2007421 103.325588,74.1098748 C103.325588,74.505797 103.391101,74.8871098 103.522129,75.2538248 C103.653156,75.6205397 103.851219,75.9223446 104.116322,76.159249 C104.381424,76.3961534 104.702895,76.5146036 105.080743,76.5146036 C105.409836,76.4821508 105.693217,76.386417 105.930896,76.2273992 C106.168574,76.0683814 106.439767,75.8395936 106.744483,75.5410292 L106.991302,75.3073713 C107.143659,75.4047291 107.283827,75.5361604 107.411807,75.701669 C107.539788,75.8671776 107.603777,76.0375512 107.603777,76.2127955 C107.603777,76.4529452 107.477322,76.7012041 107.224408,76.95758 C106.971494,77.2139559 106.637835,77.4248947 106.223421,77.5904033 C105.809008,77.755912 105.37327,77.8386648 104.916197,77.8386648 Z M104.120892,73.1070932 C104.85221,73.1070932 105.46468,73.0162272 105.95832,72.8344924 C106.025357,72.6527575 106.058876,72.4191019 106.058876,72.1335188 C106.058876,71.7375966 105.958321,71.4179429 105.757208,71.174548 C105.556096,70.9311531 105.281856,70.8094576 104.93448,70.8094576 C104.477406,70.8094576 104.108705,71.0139063 103.828367,71.4228095 C103.548028,71.8317127 103.374343,72.3801541 103.307305,73.0681502 C103.599832,73.0941122 103.871025,73.1070932 104.120892,73.1070932 Z M114.660962,77.7510431 C113.917455,77.7510431 113.382686,77.5255006 113.056641,77.0744089 C112.730595,76.6233172 112.567574,75.9564255 112.567574,75.0737135 C112.573668,74.3792268 112.610234,73.4803022 112.677271,72.3769124 C112.713837,71.7603123 112.735167,71.351415 112.741261,71.1502086 C112.412168,71.1566991 111.976431,71.108021 111.434037,71.0041725 C111.434037,70.705608 111.485838,70.4573491 111.589441,70.259388 C111.693045,70.0614269 111.817976,69.9332409 111.96424,69.8748261 C112.427408,69.9007881 112.707742,69.9137691 112.805251,69.9137691 C112.829628,69.5243374 112.841817,69.1868349 112.841817,68.9012517 C112.841817,68.5702348 112.878382,68.3171081 112.951514,68.1418637 C113.024646,67.9666193 113.134342,67.8465465 113.280606,67.7816412 C113.426869,67.7167359 113.627979,67.6842837 113.88394,67.6842837 C114.054581,67.6842837 114.206937,67.7102454 114.341012,67.7621697 C114.475087,67.814094 114.615254,67.888734 114.761517,67.9860918 C114.548216,68.849332 114.43852,69.4853944 114.432426,69.8942976 L116.333843,69.8553547 C116.339938,70.1019948 116.307943,70.3632347 116.237858,70.6390821 C116.167774,70.9149294 116.047413,71.0788128 115.876772,71.1307371 C115.389227,71.1696804 114.883406,71.1891516 114.359294,71.1891516 C114.316634,71.9290717 114.283116,72.5927185 114.258739,73.1801113 C114.234362,73.7675041 114.222173,74.4279056 114.222173,75.1613352 C114.222173,75.5507669 114.277021,75.852572 114.386719,76.0667594 C114.496417,76.2809467 114.700573,76.3977747 114.999195,76.4172462 C115.163741,76.3847934 115.332856,76.29555 115.506544,76.1495132 C115.680232,76.0034764 115.913336,75.7844244 116.205863,75.4923505 C116.400881,75.6286516 116.545619,75.7730638 116.640081,75.9255911 C116.734543,76.0781184 116.781774,76.258228 116.781774,76.4659249 C116.781774,76.6995841 116.676648,76.9153908 116.466394,77.1133519 C116.25614,77.311313 115.986471,77.4670833 115.657378,77.5806676 C115.328285,77.6942519 114.996149,77.7510431 114.660962,77.7510431 Z M120.621174,77.8386648 C119.908139,77.8386648 119.301764,77.6569329 118.80203,77.2934631 C118.302296,76.9299934 117.925977,76.4561921 117.673063,75.8720445 C117.420149,75.2878969 117.293694,74.6648155 117.293694,74.0027816 C117.293694,73.2304087 117.435384,72.5099708 117.71877,71.8414465 C118.002156,71.1729221 118.421134,70.6325935 118.975717,70.2204451 C119.5303,69.8082966 120.191523,69.6022253 120.959407,69.6022253 C121.629782,69.6022253 122.208734,69.7790897 122.696279,70.1328234 C123.183824,70.486557 123.552525,70.9554908 123.802392,71.5396384 C124.052259,72.123786 124.177191,72.7566028 124.177191,73.4381085 C124.177191,74.2039909 124.038547,74.9228062 123.761256,75.5945758 C123.483964,76.2663454 123.077175,76.8082966 122.540875,77.2204451 C122.004575,77.6325935 121.364681,77.8386648 120.621174,77.8386648 Z M120.730871,76.5632823 C121.261077,76.5632823 121.651108,76.2777034 121.900975,75.7065369 C122.150842,75.1353703 122.275773,74.4506298 122.275773,73.6522949 C122.275773,72.8215071 122.140177,72.1497476 121.86898,71.6369958 C121.597783,71.124244 121.218417,70.867872 120.730871,70.867872 C120.413967,70.867872 120.135156,70.9928128 119.894431,71.2426982 C119.653705,71.4925836 119.469355,71.8365763 119.341374,72.2746871 C119.213393,72.7127978 119.149404,73.2012028 119.149404,73.7399166 C119.149404,74.6031567 119.288047,75.2895199 119.565339,75.7990264 C119.842631,76.308533 120.231137,76.5632823 120.730871,76.5632823 Z M129.634625,77.7023644 C129.287248,77.7023644 129.038909,77.5985174 128.889598,77.3908206 C128.740287,77.1831237 128.665633,76.8553569 128.665633,76.4075104 C128.665633,75.5767227 128.696104,74.4798399 128.757047,73.1168289 C128.781425,72.5716247 128.804278,71.9858632 128.825608,71.3595271 C128.846938,70.733191 128.857603,70.092261 128.857603,69.4367177 C128.857603,68.5410247 128.760095,67.7719087 128.565077,67.1293463 C128.912454,66.8242914 129.290295,66.6717663 129.698615,66.6717663 C130.009425,66.6717663 130.262335,66.785349 130.457353,67.0125174 C130.652372,67.239686 130.749879,67.5479814 130.749879,67.9374131 C130.749879,68.26843 130.728549,68.628649 130.685889,69.0180807 C130.643229,69.4075124 130.579239,69.9267469 130.493919,70.5757997 C130.414693,71.1145135 130.353751,71.5753342 130.311091,71.9582754 L130.365939,71.9582754 C130.646278,71.2183553 131.025643,70.6423293 131.504047,70.2301808 C131.982451,69.8180324 132.492843,69.6119611 133.035237,69.6119611 C133.687329,69.6119611 134.179438,69.8553521 134.511578,70.3421419 C134.843718,70.8289317 135.009786,71.5136719 135.009786,72.3963839 C135.009786,72.7533631 134.988456,73.1655054 134.945796,73.6328234 C134.897041,74.2039899 134.872664,74.6810365 134.872664,75.0639777 C134.872664,75.5248052 134.922942,75.8915147 135.023498,76.1641168 C135.124054,76.436719 135.296216,76.7352789 135.539989,77.0598053 C135.332782,77.2739926 135.145385,77.4346308 134.977791,77.5417246 C134.810197,77.6488185 134.610611,77.7023644 134.379027,77.7023644 C133.946331,77.7023644 133.617242,77.575801 133.391753,77.3226704 C133.166263,77.0695397 133.05352,76.6573975 133.05352,76.0862309 C133.05352,75.8266097 133.077896,75.2879041 133.126651,74.4700974 C133.175406,73.6393096 133.199783,73.0681518 133.199783,72.7566064 C133.199783,72.3541937 133.131222,71.9988426 132.9941,71.6905424 C132.856978,71.3822422 132.645204,71.2280946 132.358771,71.2280946 C131.987018,71.2280946 131.657929,71.3643937 131.371496,71.6369958 C131.085063,71.909598 130.862624,72.2763074 130.704172,72.7371349 C130.54572,73.1979624 130.466495,73.6977257 130.466495,74.2364395 C130.466495,75.0542462 130.489348,75.6464978 130.535056,76.0132128 C130.580763,76.3799278 130.685888,76.7709763 130.850435,77.18637 C130.698077,77.3421425 130.528962,77.4670836 130.343086,77.5611961 C130.157209,77.6553086 129.921058,77.7023644 129.634625,77.7023644 Z M140.064997,77.8386648 C139.345867,77.8386648 138.724256,77.6715362 138.200145,77.337274 C137.676034,77.0030118 137.276862,76.5357006 137.002618,75.9353268 C136.728373,75.334953 136.591253,74.6356089 136.591253,73.837274 C136.591253,73.1947116 136.717708,72.5472911 136.970623,71.894993 C137.223537,71.2426949 137.622709,70.6974988 138.16815,70.259388 C138.713591,69.8212773 139.397668,69.6022253 140.220401,69.6022253 C140.793267,69.6022253 141.271664,69.7174303 141.655606,69.9478442 C142.039548,70.1782581 142.322929,70.4833082 142.505759,70.8630042 C142.688588,71.2427001 142.780002,71.6629555 142.780002,72.123783 C142.780002,72.6819686 142.6764,73.1168273 142.469193,73.4283727 C142.261986,73.7399182 141.977081,73.9541023 141.614469,74.0709318 C141.251857,74.1877614 140.802408,74.2461752 140.266108,74.2461752 C139.729808,74.2461752 139.132574,74.2007421 138.474388,74.1098748 C138.474388,74.505797 138.539901,74.8871098 138.670929,75.2538248 C138.801956,75.6205397 139.000019,75.9223446 139.265122,76.159249 C139.530224,76.3961534 139.851695,76.5146036 140.229543,76.5146036 C140.558636,76.4821508 140.842017,76.386417 141.079696,76.2273992 C141.317374,76.0683814 141.588567,75.8395936 141.893283,75.5410292 L142.140101,75.3073713 C142.29246,75.4047291 142.432627,75.5361604 142.560607,75.701669 C142.688588,75.8671776 142.752577,76.0375512 142.752577,76.2127955 C142.752577,76.4529452 142.626122,76.7012041 142.373208,76.95758 C142.120294,77.2139559 141.786635,77.4248947 141.372221,77.5904033 C140.957808,77.755912 140.52207,77.8386648 140.064997,77.8386648 Z M139.269692,73.1070932 C140.00101,73.1070932 140.61348,73.0162272 141.10712,72.8344924 C141.174157,72.6527575 141.207676,72.4191019 141.207676,72.1335188 C141.207676,71.7375966 141.107121,71.4179429 140.906008,71.174548 C140.704896,70.9311531 140.430656,70.8094576 140.08328,70.8094576 C139.626206,70.8094576 139.257505,71.0139063 138.977167,71.4228095 C138.696828,71.8317127 138.523142,72.3801541 138.456105,73.0681502 C138.748632,73.0941122 139.019825,73.1070932 139.269692,73.1070932 Z M146.171472,77.8386648 C145.757059,77.8386648 145.377693,77.7364405 145.033364,77.5319889 C144.689035,77.3275373 144.417842,77.0452036 144.219777,76.6849791 C144.021712,76.3247547 143.92268,75.914235 143.92268,75.4534075 C143.92268,74.6096388 144.193873,74.0271226 144.736268,73.7058414 C145.278662,73.3845603 145.942933,73.2239221 146.7291,73.2239221 C147.021627,73.2239221 147.327862,73.2515064 147.647813,73.3066759 C147.967765,73.3618455 148.270953,73.4381078 148.557386,73.5354659 C148.581763,73.3537311 148.593951,72.9707957 148.593951,72.3866481 C148.593951,71.9323111 148.479685,71.5737148 148.251148,71.3108484 C148.022611,71.047982 147.67981,70.9165508 147.222737,70.9165508 C146.820512,70.9165508 146.505136,70.9782098 146.276599,71.1015299 C146.048062,71.22485 145.883518,71.401714 145.782962,71.632128 C145.682405,71.8625419 145.610798,72.1627241 145.568138,72.5326843 C145.537666,72.5391748 145.476724,72.555401 145.385309,72.581363 C145.293895,72.607325 145.19334,72.620306 145.083642,72.620306 C144.772832,72.620306 144.53211,72.5278174 144.361469,72.3428373 C144.190828,72.1578572 144.105509,71.9258242 144.105509,71.6467316 C144.105509,71.2118661 144.241106,70.8402891 144.512303,70.5319889 C144.7835,70.2236887 145.1522,69.9916557 145.618416,69.8358832 C146.084631,69.6801106 146.613305,69.6022253 147.204454,69.6022253 C148.191733,69.6022253 148.974841,69.8245225 149.553802,70.2691238 C150.132762,70.713725 150.422237,71.3838619 150.422237,72.2795549 C150.422237,72.5391761 150.403955,72.9350924 150.367389,73.4673157 C150.318634,74.0904066 150.294257,74.6453382 150.294257,75.132128 C150.294257,75.573484 150.336917,75.9385708 150.422237,76.2273992 C150.507558,76.5162275 150.662961,76.8099196 150.88845,77.108484 C150.717809,77.3161809 150.542601,77.4751964 150.362818,77.5855355 C150.183036,77.6958745 149.952979,77.7510431 149.67264,77.7510431 C149.355736,77.7510431 149.102825,77.6536866 148.913901,77.4589708 C148.724978,77.2642549 148.630517,76.9494691 148.630517,76.5146036 C148.630517,76.3783025 148.639659,76.2322677 148.657941,76.0764951 L148.612234,76.0764951 C148.38065,76.5957374 148.051562,77.0192381 147.62496,77.3470097 C147.198358,77.6747814 146.713867,77.8386648 146.171472,77.8386648 Z M146.683392,76.5438108 C147.000297,76.5438108 147.295867,76.461058 147.570111,76.2955494 C147.844356,76.1300408 148.066795,75.8931402 148.237436,75.5848401 C148.408077,75.2765399 148.49949,74.911453 148.511678,74.4895688 C148.152114,74.307834 147.734659,74.216968 147.259303,74.216968 C146.723003,74.216968 146.332972,74.2980982 146.089199,74.4603616 C145.845427,74.622625 145.723542,74.9146944 145.723542,75.3365786 C145.723542,75.687067 145.804291,75.9758911 145.96579,76.2030598 C146.12729,76.4302285 146.366488,76.5438108 146.683392,76.5438108 Z M153.557748,77.6926287 C153.222561,77.6926287 152.972697,77.5985174 152.808151,77.4102921 C152.643604,77.2220667 152.561332,76.9267521 152.561332,76.5243394 C152.561332,76.2712087 152.579615,75.7552195 152.616181,74.9763561 C152.664935,73.9638335 152.689312,73.08438 152.689312,72.3379694 C152.689312,71.9290662 152.651223,71.5915637 152.575044,71.325452 C152.498865,71.0593404 152.35108,70.7218378 152.131685,70.3129346 C152.369363,70.1052378 152.575043,69.9575803 152.748731,69.8699583 C152.92242,69.7823363 153.149429,69.7385257 153.429768,69.7385257 C153.710107,69.7385257 153.935593,69.8180337 154.106234,69.9770515 C154.276875,70.1360693 154.362194,70.3843285 154.362194,70.7218359 C154.362194,71.0333813 154.307346,71.4422783 154.197648,71.9485396 C154.209837,71.9550301 154.222025,71.9566528 154.234214,71.9534075 C154.246402,71.9501623 154.258591,71.9517849 154.27078,71.9582754 C154.545024,71.0885447 154.88173,70.4768213 155.280908,70.1230876 C155.680086,69.769354 156.092971,69.5924896 156.519572,69.5924896 C156.806005,69.5924896 157.054344,69.6573939 157.264598,69.7872045 C157.474852,69.917015 157.636349,70.0890115 157.749094,70.3031989 C157.861839,70.5173862 157.91821,70.7510418 157.91821,71.0041725 C157.91821,71.3416799 157.822226,71.6223912 157.630255,71.8463143 C157.438284,72.0702374 157.196039,72.1821975 156.903512,72.1821975 L156.857804,72.1919332 C156.772484,72.0166889 156.652123,71.8382022 156.496718,71.6564673 C156.341313,71.4747325 156.205716,71.3611501 156.089924,71.3157163 C155.77302,71.3286973 155.488115,71.4828449 155.235201,71.7781641 C154.982286,72.0734833 154.784224,72.4596639 154.641008,72.9367177 C154.497791,73.4137714 154.426184,73.9151573 154.426184,74.4408901 C154.426184,75.0445092 154.442943,75.5572532 154.476462,75.9791377 C154.509981,76.4010222 154.596823,76.8001835 154.736993,77.1766342 C154.645578,77.3259163 154.488652,77.4492347 154.266209,77.5465925 C154.043766,77.6439503 153.807615,77.6926287 153.557748,77.6926287 Z M161.465085,77.7510431 C160.721579,77.7510431 160.18681,77.5255006 159.860764,77.0744089 C159.534718,76.6233172 159.371698,75.9564255 159.371698,75.0737135 C159.377792,74.3792268 159.414358,73.4803022 159.481395,72.3769124 C159.517961,71.7603123 159.539291,71.351415 159.545385,71.1502086 C159.216292,71.1566991 158.780555,71.108021 158.23816,71.0041725 C158.23816,70.705608 158.289961,70.4573491 158.393565,70.259388 C158.497168,70.0614269 158.6221,69.9332409 158.768363,69.8748261 C159.231532,69.9007881 159.511866,69.9137691 159.609375,69.9137691 C159.633752,69.5243374 159.645941,69.1868349 159.645941,68.9012517 C159.645941,68.5702348 159.682506,68.3171081 159.755638,68.1418637 C159.82877,67.9666193 159.938466,67.8465465 160.084729,67.7816412 C160.230993,67.7167359 160.432103,67.6842837 160.688064,67.6842837 C160.858705,67.6842837 161.01106,67.7102454 161.145135,67.7621697 C161.27921,67.814094 161.419378,67.888734 161.565641,67.9860918 C161.35234,68.849332 161.242644,69.4853944 161.23655,69.8942976 L163.137967,69.8553547 C163.144061,70.1019948 163.112067,70.3632347 163.041982,70.6390821 C162.971898,70.9149294 162.851537,71.0788128 162.680896,71.1307371 C162.19335,71.1696804 161.68753,71.1891516 161.163418,71.1891516 C161.120758,71.9290717 161.08724,72.5927185 161.062862,73.1801113 C161.038485,73.7675041 161.026297,74.4279056 161.026297,75.1613352 C161.026297,75.5507669 161.081145,75.852572 161.190842,76.0667594 C161.30054,76.2809467 161.504697,76.3977747 161.803318,76.4172462 C161.967865,76.3847934 162.13698,76.29555 162.310668,76.1495132 C162.484356,76.0034764 162.71746,75.7844244 163.009987,75.4923505 C163.205005,75.6286516 163.349743,75.7730638 163.444205,75.9255911 C163.538667,76.0781184 163.585897,76.258228 163.585897,76.4659249 C163.585897,76.6995841 163.480772,76.9153908 163.270518,77.1133519 C163.060264,77.311313 162.790594,77.4670833 162.461501,77.5806676 C162.132408,77.6942519 161.800273,77.7510431 161.465085,77.7510431 Z M164.335495,70.5173853 C164.250174,70.4914233 164.170949,70.4248963 164.097817,70.3178025 C164.024686,70.2107087 163.982026,70.1019942 163.969837,69.9916551 C164.183138,69.7839582 164.353777,69.602226 164.481757,69.4464534 C164.609738,69.2906809 164.714864,69.1057033 164.797137,68.891516 C164.87941,68.6773287 164.920546,68.4242016 164.920546,68.132128 C164.920546,67.9828459 164.885504,67.8481694 164.81542,67.7280946 C164.745335,67.6080197 164.640209,67.4668531 164.50004,67.3045897 C164.41472,67.2007411 164.353778,67.1228561 164.317212,67.0709318 C164.341589,66.902178 164.41472,66.733427 164.536606,66.5646732 C164.658492,66.3959193 164.806277,66.2596205 164.979965,66.1557719 C165.153653,66.0519233 165.328862,66 165.505598,66 C165.816408,66 166.070842,66.1444122 166.268907,66.4332406 C166.466972,66.722069 166.566004,67.0774201 166.566004,67.4993046 C166.566004,67.9471511 166.465449,68.3933682 166.264336,68.8379694 C166.063224,69.2825707 165.790507,69.6590155 165.446178,69.9673157 C165.101849,70.2756159 164.731625,70.4589705 164.335495,70.5173853 Z M170.103737,77.8386648 C169.622286,77.8386648 169.178931,77.7705153 168.773659,77.6342142 C168.368387,77.4979131 168.046916,77.3064454 167.809238,77.0598053 C167.57156,76.8131651 167.452722,76.5275862 167.452722,76.2030598 C167.452722,75.9174767 167.545659,75.6805758 167.731536,75.4923505 C167.917413,75.3041251 168.162705,75.167826 168.467421,75.0834492 C168.619779,75.5572577 168.85593,75.9385708 169.175882,76.2273992 C169.495834,76.5162275 169.899576,76.6606398 170.387121,76.6606398 C170.673554,76.6606398 170.9158,76.5632833 171.113865,76.3685675 C171.31193,76.1738516 171.410962,75.9369508 171.410962,75.6578581 C171.410962,75.3528032 171.292124,75.1012991 171.054446,74.903338 C170.816767,74.7053769 170.46635,74.5025508 170.003181,74.294854 C169.558296,74.0936476 169.175883,73.8940668 168.855932,73.6961057 C168.53598,73.4981446 168.266311,73.2547533 168.046915,72.9659249 C167.82752,72.6770965 167.717824,72.3379713 167.717824,71.9485396 C167.717824,71.5071836 167.838185,71.108022 168.07891,70.7510431 C168.319636,70.3940642 168.662436,70.1133529 169.107321,69.9089013 C169.552206,69.7044497 170.07631,69.6022253 170.679647,69.6022253 C171.087967,69.6022253 171.464285,69.6573939 171.808614,69.767733 C172.152943,69.878072 172.42566,70.0338423 172.626772,70.2350487 C172.827884,70.436255 172.928439,70.6634201 172.928439,70.9165508 C172.928439,71.0982856 172.870544,71.2670369 172.754752,71.4228095 C172.63896,71.578582 172.495746,71.7019005 172.325105,71.7927677 C172.154464,71.883635 171.992967,71.9290682 171.840609,71.9290682 L171.804043,71.9290682 C171.426196,71.2994868 170.969129,70.9035704 170.432829,70.7413074 C170.146396,70.7542884 169.907197,70.8500222 169.715226,71.0285118 C169.523255,71.2070014 169.427271,71.4163177 169.427271,71.6564673 C169.427271,71.8057494 169.454695,71.935558 169.509544,72.0458971 C169.564393,72.1562362 169.67866,72.2730638 169.852348,72.3963839 C170.026036,72.5197039 170.286564,72.6624936 170.63394,72.8247566 C170.749732,72.8831714 170.853334,72.9334721 170.944749,72.9756606 C171.036163,73.0178492 171.118436,73.0551689 171.191567,73.0876217 C171.66083,73.301809 172.023436,73.4900318 172.279398,73.6522949 C172.535359,73.8145582 172.747133,74.0287423 172.914727,74.294854 C173.082321,74.5609656 173.166116,74.8984682 173.166116,75.3073713 C173.166116,75.7681988 173.036614,76.1916995 172.777606,76.577886 C172.518597,76.9640724 172.155991,77.2707454 171.689775,77.4979138 C171.22356,77.7250824 170.694886,77.8386648 170.103737,77.8386648 Z M180.671231,77.8386648 C179.96429,77.8386648 179.35182,77.6682909 178.833803,77.3275382 C178.315786,76.9867856 177.921185,76.5162292 177.649988,75.9158554 C177.378791,75.3154815 177.243194,74.6323637 177.243194,73.8664812 C177.243194,73.2109379 177.371173,72.5570269 177.627134,71.9047288 C177.883096,71.2524307 178.285315,70.7056119 178.833803,70.2642559 C179.382292,69.8228999 180.067892,69.6022253 180.890625,69.6022253 C181.29285,69.6022253 181.672215,69.6638844 182.028733,69.7872045 C182.385251,69.9105245 182.673203,70.082521 182.892598,70.3031989 C183.111994,70.5238767 183.22169,70.7705133 183.22169,71.0431154 C183.22169,71.3351894 183.11047,71.5769578 182.888028,71.7684284 C182.665585,71.959899 182.420292,72.0783492 182.152142,72.123783 C181.914464,71.6759365 181.696595,71.3465471 181.49853,71.135605 C181.300465,70.9246629 181.097832,70.8191933 180.890625,70.8191933 C180.518872,70.8191933 180.200448,70.9571151 179.935346,71.2329624 C179.670243,71.5088098 179.47218,71.8690288 179.341153,72.31363 C179.210125,72.7582313 179.144612,73.23041 179.144612,73.7301808 C179.144612,74.5220252 179.295444,75.1759362 179.597113,75.6919332 C179.898781,76.2079303 180.323854,76.4756606 180.872342,76.4951321 C181.183152,76.4367173 181.445204,76.3377382 181.658505,76.1981919 C181.871806,76.0586456 182.118622,75.8590648 182.398961,75.5994437 C182.520847,75.4761236 182.645779,75.3625412 182.77376,75.2586926 C183.175985,75.5637476 183.377094,75.8817786 183.377094,76.2127955 C183.377094,76.4204924 183.252162,76.6525254 183.002295,76.9089013 C182.752428,77.1652771 182.41877,77.3843291 182.001309,77.566064 C181.583848,77.7477988 181.140493,77.8386648 180.671231,77.8386648 Z M187.600435,77.8386648 C186.8874,77.8386648 186.281024,77.6569329 185.78129,77.2934631 C185.281556,76.9299934 184.905238,76.4561921 184.652324,75.8720445 C184.399409,75.2878969 184.272954,74.6648155 184.272954,74.0027816 C184.272954,73.2304087 184.414645,72.5099708 184.698031,71.8414465 C184.981417,71.1729221 185.400395,70.6325935 185.954977,70.2204451 C186.50956,69.8082966 187.170784,69.6022253 187.938668,69.6022253 C188.609043,69.6022253 189.187994,69.7790897 189.67554,70.1328234 C190.163085,70.486557 190.531786,70.9554908 190.781653,71.5396384 C191.03152,72.123786 191.156451,72.7566028 191.156451,73.4381085 C191.156451,74.2039909 191.017808,74.9228062 190.740516,75.5945758 C190.463225,76.2663454 190.056435,76.8082966 189.520135,77.2204451 C188.983835,77.6325935 188.343942,77.8386648 187.600435,77.8386648 Z M187.710132,76.5632823 C188.240338,76.5632823 188.630368,76.2777034 188.880235,75.7065369 C189.130102,75.1353703 189.255034,74.4506298 189.255034,73.6522949 C189.255034,72.8215071 189.119437,72.1497476 188.84824,71.6369958 C188.577043,71.124244 188.197677,70.867872 187.710132,70.867872 C187.393228,70.867872 187.114417,70.9928128 186.873691,71.2426982 C186.632966,71.4925836 186.448615,71.8365763 186.320635,72.2746871 C186.192654,72.7127978 186.128665,73.2012028 186.128665,73.7399166 C186.128665,74.6031567 186.267308,75.2895199 186.5446,75.7990264 C186.821891,76.308533 187.210398,76.5632823 187.710132,76.5632823 Z M193.752618,77.7023644 C193.435713,77.7023644 193.188897,77.6196115 193.012162,77.4541029 C192.835426,77.2885943 192.74706,76.9981475 192.74706,76.5827538 C192.74706,76.2452464 192.765343,75.5962033 192.801909,74.635605 C192.844569,73.7464025 192.865899,73.0227197 192.865899,72.4645341 C192.865899,72.1724601 192.855234,71.9323144 192.833904,71.744089 C192.812574,71.5558637 192.762296,71.3481697 192.68307,71.1210014 C192.603844,70.8938331 192.478913,70.6244801 192.308272,70.3129346 C192.472818,70.1441808 192.651074,70.0062593 192.843045,69.8991655 C193.035016,69.7920717 193.258979,69.7385257 193.51494,69.7385257 C193.911071,69.7385257 194.180741,69.8293917 194.323957,70.0111266 C194.467173,70.1928614 194.538781,70.4427429 194.538781,70.7607789 C194.538781,70.9425137 194.526592,71.1145099 194.502215,71.2767733 C194.477838,71.4390367 194.441272,71.6305044 194.392518,71.8511822 L194.483932,71.8511822 C194.660667,71.3643924 194.893771,70.9506275 195.183251,70.6098748 C195.472732,70.2691222 195.788108,70.0143728 196.129389,69.8456189 C196.470671,69.676865 196.802807,69.5924896 197.125805,69.5924896 C197.79618,69.5924896 198.297431,69.8164094 198.629571,70.2642559 C198.961711,70.7121024 199.127779,71.3384291 199.127779,72.1432545 C199.127779,72.4742714 199.118637,72.774454 199.100354,73.0438108 C199.082072,73.3131677 199.063789,73.5581817 199.045506,73.7788595 C198.990657,74.2721398 198.963233,74.7524317 198.963233,75.2197497 C198.963233,75.9337078 199.182625,76.5502987 199.621416,77.069541 C199.450775,77.2642569 199.275566,77.4184045 199.095784,77.5319889 C198.916001,77.6455732 198.692038,77.7023644 198.423889,77.7023644 C198.058229,77.7023644 197.782466,77.6261017 197.596589,77.4735744 C197.410712,77.3210471 197.288828,77.1052401 197.230932,76.8261474 C197.173036,76.5470548 197.144088,76.1771001 197.144088,75.7162726 C197.144088,75.5020853 197.15323,75.2619392 197.171513,74.9958275 C197.189795,74.7297159 197.201984,74.547984 197.208078,74.4506259 C197.262927,73.8534973 197.290351,73.3212818 197.290351,72.8539638 C197.290351,72.3671744 197.229409,71.9793708 197.107523,71.6905424 C196.985636,71.401714 196.769291,71.2573018 196.458481,71.2573018 C196.105011,71.2573018 195.785064,71.3871104 195.498631,71.6467316 C195.212198,71.9063527 194.986712,72.2665717 194.822165,72.7273992 C194.657618,73.1882267 194.575346,73.7074611 194.575346,74.2851182 C194.575346,75.0964341 194.5982,75.6919313 194.643907,76.0716273 C194.689615,76.4513232 194.788645,76.8229002 194.941004,77.18637 C194.776457,77.3421425 194.605819,77.4670836 194.429083,77.5611961 C194.252348,77.6553086 194.026862,77.7023644 193.752618,77.7023644 Z M203.616221,77.7510431 C202.872714,77.7510431 202.337946,77.5255006 202.0119,77.0744089 C201.685854,76.6233172 201.522833,75.9564255 201.522833,75.0737135 C201.528928,74.3792268 201.565493,73.4803022 201.632531,72.3769124 C201.669097,71.7603123 201.690426,71.351415 201.696521,71.1502086 C201.367428,71.1566991 200.93169,71.108021 200.389296,71.0041725 C200.389296,70.705608 200.441097,70.4573491 200.5447,70.259388 C200.648304,70.0614269 200.773236,69.9332409 200.919499,69.8748261 C201.382667,69.9007881 201.663001,69.9137691 201.760511,69.9137691 C201.784888,69.5243374 201.797076,69.1868349 201.797076,68.9012517 C201.797076,68.5702348 201.833642,68.3171081 201.906774,68.1418637 C201.979905,67.9666193 202.089602,67.8465465 202.235865,67.7816412 C202.382129,67.7167359 202.583238,67.6842837 202.839199,67.6842837 C203.00984,67.6842837 203.162196,67.7102454 203.296271,67.7621697 C203.430346,67.814094 203.570513,67.888734 203.716777,67.9860918 C203.503476,68.849332 203.39378,69.4853944 203.387685,69.8942976 L205.289103,69.8553547 C205.295197,70.1019948 205.263202,70.3632347 205.193118,70.6390821 C205.123033,70.9149294 205.002672,71.0788128 204.832031,71.1307371 C204.344486,71.1696804 203.838665,71.1891516 203.314554,71.1891516 C203.271893,71.9290717 203.238375,72.5927185 203.213998,73.1801113 C203.189621,73.7675041 203.177432,74.4279056 203.177432,75.1613352 C203.177432,75.5507669 203.23228,75.852572 203.341978,76.0667594 C203.451676,76.2809467 203.655832,76.3977747 203.954454,76.4172462 C204.119001,76.3847934 204.288115,76.29555 204.461803,76.1495132 C204.635491,76.0034764 204.868595,75.7844244 205.161123,75.4923505 C205.356141,75.6286516 205.500879,75.7730638 205.595341,75.9255911 C205.689803,76.0781184 205.737033,76.258228 205.737033,76.4659249 C205.737033,76.6995841 205.631907,76.9153908 205.421654,77.1133519 C205.2114,77.311313 204.94173,77.4670833 204.612637,77.5806676 C204.283544,77.6942519 203.951409,77.7510431 203.616221,77.7510431 Z M209.722697,77.8386648 C209.003567,77.8386648 208.381956,77.6715362 207.857845,77.337274 C207.333733,77.0030118 206.934561,76.5357006 206.660317,75.9353268 C206.386073,75.334953 206.248953,74.6356089 206.248953,73.837274 C206.248953,73.1947116 206.375408,72.5472911 206.628322,71.894993 C206.881236,71.2426949 207.280408,70.6974988 207.82585,70.259388 C208.371291,69.8212773 209.055368,69.6022253 209.878101,69.6022253 C210.450967,69.6022253 210.929364,69.7174303 211.313305,69.9478442 C211.697247,70.1782581 211.980629,70.4833082 212.163458,70.8630042 C212.346288,71.2427001 212.437701,71.6629555 212.437701,72.123783 C212.437701,72.6819686 212.334099,73.1168273 212.126893,73.4283727 C211.919686,73.7399182 211.634781,73.9541023 211.272169,74.0709318 C210.909557,74.1877614 210.460108,74.2461752 209.923808,74.2461752 C209.387508,74.2461752 208.790274,74.2007421 208.132088,74.1098748 C208.132088,74.505797 208.197601,74.8871098 208.328628,75.2538248 C208.459656,75.6205397 208.657719,75.9223446 208.922821,76.159249 C209.187924,76.3961534 209.509395,76.5146036 209.887242,76.5146036 C210.216335,76.4821508 210.499717,76.386417 210.737395,76.2273992 C210.975074,76.0683814 211.246267,75.8395936 211.550983,75.5410292 L211.797801,75.3073713 C211.950159,75.4047291 212.090326,75.5361604 212.218307,75.701669 C212.346288,75.8671776 212.410277,76.0375512 212.410277,76.2127955 C212.410277,76.4529452 212.283822,76.7012041 212.030908,76.95758 C211.777994,77.2139559 211.444335,77.4248947 211.029921,77.5904033 C210.615507,77.755912 210.17977,77.8386648 209.722697,77.8386648 Z M208.927392,73.1070932 C209.65871,73.1070932 210.27118,73.0162272 210.76482,72.8344924 C210.831857,72.6527575 210.865375,72.4191019 210.865375,72.1335188 C210.865375,71.7375966 210.764821,71.4179429 210.563708,71.174548 C210.362596,70.9311531 210.088356,70.8094576 209.740979,70.8094576 C209.283905,70.8094576 208.915205,71.0139063 208.634866,71.4228095 C208.354528,71.8317127 208.180842,72.3801541 208.113805,73.0681502 C208.406332,73.0941122 208.677525,73.1070932 208.927392,73.1070932 Z M215.015585,77.7023644 C214.69868,77.7023644 214.451864,77.6196115 214.275129,77.4541029 C214.098394,77.2885943 214.010027,76.9981475 214.010027,76.5827538 C214.010027,76.2452464 214.02831,75.5962033 214.064876,74.635605 C214.107536,73.7464025 214.128866,73.0227197 214.128866,72.4645341 C214.128866,72.1724601 214.118201,71.9323144 214.096871,71.744089 C214.075541,71.5558637 214.025263,71.3481697 213.946037,71.1210014 C213.866811,70.8938331 213.74188,70.6244801 213.571239,70.3129346 C213.735785,70.1441808 213.914041,70.0062593 214.106012,69.8991655 C214.297983,69.7920717 214.521946,69.7385257 214.777908,69.7385257 C215.174038,69.7385257 215.443708,69.8293917 215.586924,70.0111266 C215.73014,70.1928614 215.801748,70.4427429 215.801748,70.7607789 C215.801748,70.9425137 215.789559,71.1145099 215.765182,71.2767733 C215.740805,71.4390367 215.704239,71.6305044 215.655485,71.8511822 L215.746899,71.8511822 C215.923634,71.3643924 216.156738,70.9506275 216.446219,70.6098748 C216.735699,70.2691222 217.051075,70.0143728 217.392357,69.8456189 C217.733639,69.676865 218.065774,69.5924896 218.388773,69.5924896 C219.059147,69.5924896 219.560398,69.8164094 219.892538,70.2642559 C220.224678,70.7121024 220.390746,71.3384291 220.390746,72.1432545 C220.390746,72.4742714 220.381604,72.774454 220.363322,73.0438108 C220.345039,73.3131677 220.326756,73.5581817 220.308473,73.7788595 C220.253624,74.2721398 220.2262,74.7524317 220.2262,75.2197497 C220.2262,75.9337078 220.445592,76.5502987 220.884383,77.069541 C220.713742,77.2642569 220.538533,77.4184045 220.358751,77.5319889 C220.178968,77.6455732 219.955006,77.7023644 219.686856,77.7023644 C219.321197,77.7023644 219.045433,77.6261017 218.859556,77.4735744 C218.67368,77.3210471 218.551795,77.1052401 218.493899,76.8261474 C218.436003,76.5470548 218.407055,76.1771001 218.407055,75.7162726 C218.407055,75.5020853 218.416197,75.2619392 218.43448,74.9958275 C218.452763,74.7297159 218.464951,74.547984 218.471045,74.4506259 C218.525894,73.8534973 218.553318,73.3212818 218.553318,72.8539638 C218.553318,72.3671744 218.492376,71.9793708 218.37049,71.6905424 C218.248603,71.401714 218.032258,71.2573018 217.721448,71.2573018 C217.367978,71.2573018 217.048031,71.3871104 216.761598,71.6467316 C216.475165,71.9063527 216.249679,72.2665717 216.085132,72.7273992 C215.920585,73.1882267 215.838313,73.7074611 215.838313,74.2851182 C215.838313,75.0964341 215.861167,75.6919313 215.906874,76.0716273 C215.952582,76.4513232 216.051613,76.8229002 216.203971,77.18637 C216.039424,77.3421425 215.868786,77.4670836 215.692051,77.5611961 C215.515315,77.6553086 215.289829,77.7023644 215.015585,77.7023644 Z M224.879188,77.7510431 C224.135681,77.7510431 223.600913,77.5255006 223.274867,77.0744089 C222.948821,76.6233172 222.785801,75.9564255 222.785801,75.0737135 C222.791895,74.3792268 222.82846,73.4803022 222.895498,72.3769124 C222.932064,71.7603123 222.953393,71.351415 222.959488,71.1502086 C222.630395,71.1566991 222.194657,71.108021 221.652263,71.0041725 C221.652263,70.705608 221.704064,70.4573491 221.807668,70.259388 C221.911271,70.0614269 222.036203,69.9332409 222.182466,69.8748261 C222.645634,69.9007881 222.925969,69.9137691 223.023478,69.9137691 C223.047855,69.5243374 223.060043,69.1868349 223.060043,68.9012517 C223.060043,68.5702348 223.096609,68.3171081 223.169741,68.1418637 C223.242872,67.9666193 223.352569,67.8465465 223.498832,67.7816412 C223.645096,67.7167359 223.846205,67.6842837 224.102167,67.6842837 C224.272808,67.6842837 224.425163,67.7102454 224.559238,67.7621697 C224.693313,67.814094 224.83348,67.888734 224.979744,67.9860918 C224.766443,68.849332 224.656747,69.4853944 224.650652,69.8942976 L226.55207,69.8553547 C226.558164,70.1019948 226.526169,70.3632347 226.456085,70.6390821 C226.386,70.9149294 226.265639,71.0788128 226.094998,71.1307371 C225.607453,71.1696804 225.101632,71.1891516 224.577521,71.1891516 C224.534861,71.9290717 224.501342,72.5927185 224.476965,73.1801113 C224.452588,73.7675041 224.440399,74.4279056 224.440399,75.1613352 C224.440399,75.5507669 224.495247,75.852572 224.604945,76.0667594 C224.714643,76.2809467 224.918799,76.3977747 225.217421,76.4172462 C225.381968,76.3847934 225.551082,76.29555 225.72477,76.1495132 C225.898459,76.0034764 226.131563,75.7844244 226.42409,75.4923505 C226.619108,75.6286516 226.763846,75.7730638 226.858308,75.9255911 C226.95277,76.0781184 227,76.258228 227,76.4659249 C227,76.6995841 226.894874,76.9153908 226.684621,77.1133519 C226.474367,77.311313 226.204697,77.4670833 225.875604,77.5806676 C225.546511,77.6942519 225.214376,77.7510431 224.879188,77.7510431 Z" id="read,write,sharetoheart’scontent" fill="#0C953C"></path>
            <ellipse id="Oval" fill="#606060" opacity="0.197893415" cx="114" cy="32" rx="18" ry="2"></ellipse>
        </g>
    </g>
</svg>