<?xml version="1.0" encoding="UTF-8"?>
<svg width="35px" height="35px" viewBox="0 0 35 35" version="1.1" xmlns="http://www.w3.org/2000/svg" xmlns:xlink="http://www.w3.org/1999/xlink">
    <!-- Generator: Sketch 54.1 (76490) - https://sketchapp.com -->
    <title>Group 5</title>
    <desc>Created with Sketch.</desc>
    <defs>
        <linearGradient x1="-7.85599879%" y1="-10.6740953%" x2="78.7497223%" y2="96.2339186%" id="linearGradient-1">
            <stop stop-color="#E65124" offset="0%"></stop>
            <stop stop-color="#9C9400" offset="39.1200864%"></stop>
            <stop stop-color="#27953E" offset="64.1025473%"></stop>
            <stop stop-color="#53479E" offset="100%"></stop>
        </linearGradient>
    </defs>
    <g id="UI-of-the-day-#23" stroke="none" stroke-width="1" fill="none" fill-rule="evenodd">
        <g id="Profile_view" transform="translate(-844.000000, -347.000000)" fill-rule="nonzero">
            <g id="Group-5" transform="translate(844.000000, 347.000000)">
                <circle id="Oval" fill="url(#linearGradient-1)" cx="17.5" cy="17.5" r="17.5"></circle>
                <g id="edit-(2)" transform="translate(10.000000, 9.000000)" fill="#FFFFFF">
                    <path d="M16.8340843,1.16509509 C15.2846438,-0.388365031 12.7648853,-0.388365031 11.2154447,1.16509509 L0.913966226,11.4639604 C0.833426,11.5445101 0.783567764,11.6480742 0.768226769,11.7593096 L0.00501224103,17.4131373 C-0.0179992523,17.5742369 0.039529481,17.7353364 0.150751699,17.8465718 C0.246632921,17.9424644 0.380866632,18 0.515100342,18 C0.538111836,18 0.561123329,18 0.584134822,17.9961643 L3.98983583,17.5358798 C4.27364425,17.4975228 4.47307719,17.2366949 4.4347247,16.9528528 C4.39637221,16.6690107 4.13557529,16.4695541 3.85176687,16.5079111 L1.12106967,16.8761387 L1.65416926,12.933035 L5.80390855,17.0832667 C5.89978977,17.1791593 6.03402349,17.2366949 6.1682572,17.2366949 C6.30249091,17.2366949 6.43672462,17.182995 6.53260584,17.0832667 L16.8340843,6.78440147 C17.5857931,6.03260348 18,5.03532044 18,3.97283043 C18,2.91034042 17.5857931,1.91305738 16.8340843,1.16509509 Z M11.4148777,2.43087742 L13.1445749,4.16077993 L3.7443799,13.5620905 L2.01468266,11.8321879 L11.4148777,2.43087742 Z M6.17209244,15.9862554 L4.48074769,14.2947099 L13.8809427,4.89339939 L15.5722875,6.58494486 L6.17209244,15.9862554 Z M16.2933142,5.84465399 L12.1550807,1.70592936 C12.6805098,1.27249481 13.3363374,1.03468116 14.0266822,1.03468116 C14.8129082,1.03468116 15.549276,1.34153748 16.1053871,1.89387886 C16.6614981,2.44622023 16.9644828,3.18651111 16.9644828,3.97283043 C16.9644828,4.66709286 16.7266974,5.31916254 16.2933142,5.84465399 Z" id="Shape"></path>
                </g>
            </g>
        </g>
    </g>
</svg>