<?xml version="1.0" encoding="UTF-8"?>
<svg width="12px" height="12px" viewBox="0 0 12 12" version="1.1" xmlns="http://www.w3.org/2000/svg" xmlns:xlink="http://www.w3.org/1999/xlink">
    <!-- Generator: Sketch 54.1 (76490) - https://sketchapp.com -->
    <title>Group 13</title>
    <desc>Created with Sketch.</desc>
    <defs>
        <linearGradient x1="0%" y1="49.8369252%" x2="93.7811511%" y2="50.125%" id="linearGradient-1">
            <stop stop-color="#E65124" offset="0%"></stop>
            <stop stop-color="#9C9400" offset="39.1200864%"></stop>
            <stop stop-color="#27953E" offset="64.1025473%"></stop>
            <stop stop-color="#53479E" offset="100%"></stop>
        </linearGradient>
        <linearGradient x1="-32.298003%" y1="49.8404178%" x2="137.215569%" y2="50.1171142%" id="linearGradient-2">
            <stop stop-color="#E65124" offset="0%"></stop>
            <stop stop-color="#A69D00" offset="42.866987%"></stop>
            <stop stop-color="#27953E" offset="67.1789487%"></stop>
            <stop stop-color="#27953E" offset="67.1789487%"></stop>
            <stop stop-color="#53479E" offset="100%"></stop>
        </linearGradient>
    </defs>
    <g id="Page-1" stroke="none" stroke-width="1" fill="none" fill-rule="evenodd">
        <g id="d9-copy-3" transform="translate(-1437.000000, -236.000000)" fill="url(#linearGradient-1)" stroke="url(#linearGradient-2)">
            <g id="Group-13" transform="translate(1438.000000, 237.000000)">
                <rect id="Rectangle-Copy-30" x="0" y="5" width="10" height="1" rx="0.25"></rect>
                <rect id="Rectangle-Copy-31" transform="translate(5.000000, 5.250000) rotate(-90.000000) translate(-5.000000, -5.250000) " x="0" y="5" width="10" height="1" rx="0.25"></rect>
            </g>
        </g>
    </g>
</svg>