<?xml version="1.0" encoding="UTF-8"?>
<svg width="270px" height="360px" viewBox="0 0 270 360" version="1.1" xmlns="http://www.w3.org/2000/svg" xmlns:xlink="http://www.w3.org/1999/xlink">
    <!-- Generator: Sketch 64 (93537) - https://sketch.com -->
    <title>Group</title>
    <desc>Created with Sketch.</desc>
    <g id="Page-1" stroke="none" stroke-width="1" fill="none" fill-rule="evenodd">
        <g id="Artboard" transform="translate(-60.000000, -331.000000)">
            <g id="Group" transform="translate(60.000000, 331.000000)">
                <rect id="Rectangle" fill="#F3F3F3" x="0" y="0" width="270" height="360"></rect>
                <g id="photo" transform="translate(45.000000, 113.000000)" fill="#97A5B0" fill-rule="nonzero">
                    <path d="M52.4995421,37.5004579 C52.4995421,45.7841493 45.7841493,52.4995421 37.5004579,52.4995421 C29.2153929,52.4995421 22.5,45.7841493 22.5,37.5004579 C22.5,29.2153929 29.2153929,22.5 37.5004579,22.5 C45.7841493,22.5 52.4995421,29.2153929 52.4995421,37.5004579 Z" id="Path"></path>
                    <path d="M157.5,0 L22.5,0 C10.0950623,0 0,10.0950623 0,22.5 L0,112.5 C0,112.920227 0.104370117,113.317108 0.127715977,113.737335 C0.0219726562,114.636841 0.0672911719,115.544586 0.396881016,116.400146 C2.24945086,126.945648 11.4299012,135 22.5,135 L157.5,135 C169.904938,135 180,124.904938 180,112.5 L180,22.5 C180,10.0950623 169.904938,0 157.5,0 Z M22.5,15.0004579 L157.5,15.0004579 C161.632233,15.0004579 164.999542,18.3677674 164.999542,22.5 L164.999542,82.043152 L125.550385,42.5926209 C120.419769,37.4620057 112.072906,37.4620057 106.950531,42.5926209 L71.2504579,78.2926942 L61.7994689,68.8430784 C56.6702269,63.7124632 48.3219911,63.7124632 43.1996154,68.8430784 L15.0004579,97.0422363 L15.0004579,22.5 C15.0004579,18.3677674 18.3677674,15.0004579 22.5,15.0004579 Z" id="Shape"></path>
                </g>
            </g>
        </g>
    </g>
</svg>