<?xml version="1.0" encoding="UTF-8"?>
<svg width="201px" height="306px" viewBox="0 0 201 306" version="1.1" xmlns="http://www.w3.org/2000/svg" xmlns:xlink="http://www.w3.org/1999/xlink">
    <!-- Generator: Sketch 54.1 (76490) - https://sketchapp.com -->
    <title>Rectangle</title>
    <desc>Created with Sketch.</desc>
    <defs>
        <linearGradient x1="28.4265667%" y1="-15.2299352%" x2="62.4046043%" y2="96.2339186%" id="linearGradient-1">
            <stop stop-color="#E65124" offset="0%"></stop>
            <stop stop-color="#9C9400" offset="39.1200864%"></stop>
            <stop stop-color="#27953E" offset="64.1025473%"></stop>
            <stop stop-color="#53479E" offset="100%"></stop>
        </linearGradient>
    </defs>
    <g id="Page-1" stroke="none" stroke-width="1" fill="none" fill-rule="evenodd">
        <g id="d10" transform="translate(-191.000000, -321.000000)" stroke="url(#linearGradient-1)" stroke-width="5">
            <rect id="Rectangle" x="193.5" y="323.5" width="196" height="301"></rect>
        </g>
    </g>
</svg>