<?xml version="1.0" encoding="UTF-8"?>
<svg width="27px" height="27px" viewBox="0 0 27 27" version="1.1" xmlns="http://www.w3.org/2000/svg" xmlns:xlink="http://www.w3.org/1999/xlink">
    <!-- Generator: Sketch 54.1 (76490) - https://sketchapp.com -->
    <title>search</title>
    <desc>Created with Sketch.</desc>
    <defs>
        <linearGradient x1="0%" y1="-15.2299352%" x2="78.7497223%" y2="96.2339186%" id="linearGradient-1">
            <stop stop-color="#E65124" offset="0%"></stop>
            <stop stop-color="#9C9400" offset="39.1200864%"></stop>
            <stop stop-color="#27953E" offset="64.1025473%"></stop>
            <stop stop-color="#53479E" offset="100%"></stop>
        </linearGradient>
    </defs>
    <g id="UI-of-the-day-#23" stroke="none" stroke-width="1" fill="none" fill-rule="evenodd" stroke-linecap="round">
        <g id="Book-page-Copy" transform="translate(-1380.000000, -46.000000)" stroke="url(#linearGradient-1)" stroke-width="2.4">
            <g id="Group-11" transform="translate(1340.000000, 44.000000)">
                <g id="search" transform="translate(42.000000, 4.000000)">
                    <path d="M9.6,19.2 C4.2980664,19.2 0,14.9019336 0,9.6 C0,4.2980664 4.2980664,0 9.6,0 C14.9019336,0 19.2,4.2980664 19.2,9.6 C19.2,14.9019336 14.9019336,19.2 9.6,19.2 Z M16.8,16.8 L24,24 L16.8,16.8 Z" id="Combined-Shape"></path>
                </g>
            </g>
        </g>
    </g>
</svg>