<?xml version="1.0" encoding="UTF-8"?>
<svg width="14px" height="8px" viewBox="0 0 14 8" version="1.1" xmlns="http://www.w3.org/2000/svg" xmlns:xlink="http://www.w3.org/1999/xlink">
    <!-- Generator: Sketch 54.1 (76490) - https://sketchapp.com -->
    <title>Shape Copy 2</title>
    <desc>Created with Sketch.</desc>
    <defs>
        <linearGradient x1="0%" y1="33.6925162%" x2="89.2055857%" y2="62.5%" id="linearGradient-1">
            <stop stop-color="#E65124" offset="0%"></stop>
            <stop stop-color="#9C9400" offset="39.1200864%"></stop>
            <stop stop-color="#27953E" offset="64.1025473%"></stop>
            <stop stop-color="#53479E" offset="100%"></stop>
        </linearGradient>
    </defs>
    <g id="UI-of-the-day-#23" stroke="none" stroke-width="1" fill="none" fill-rule="evenodd" stroke-linecap="round" stroke-linejoin="round">
        <g id="Book-page-Copy-7" transform="translate(-1098.000000, -157.000000)" stroke="url(#linearGradient-1)" stroke-width="2">
            <g id="Group-5" transform="translate(991.000000, 146.000000)">
                <polyline id="Shape-Copy-2" points="108 12 114 18 120 12"></polyline>
            </g>
        </g>
    </g>
</svg>