<?xml version="1.0" encoding="UTF-8"?>
<svg width="42px" height="42px" viewBox="0 0 42 42" version="1.1" xmlns="http://www.w3.org/2000/svg" xmlns:xlink="http://www.w3.org/1999/xlink">
    <!-- Generator: Sketch 60 (88103) - https://sketch.com -->
    <title>Group 5</title>
    <desc>Created with Sketch.</desc>
    <defs>
        <linearGradient x1="-7.85599879%" y1="-10.6740953%" x2="78.7497223%" y2="96.2339186%" id="linearGradient-1">
            <stop stop-color="#E65124" offset="0%"></stop>
            <stop stop-color="#9C9400" offset="39.1200864%"></stop>
            <stop stop-color="#27953E" offset="64.1025473%"></stop>
            <stop stop-color="#53479E" offset="100%"></stop>
        </linearGradient>
        <linearGradient x1="27.7777778%" y1="91.9801142%" x2="72.2222222%" y2="38.5701952%" id="linearGradient-2">
            <stop stop-color="#E65124" offset="0%"></stop>
            <stop stop-color="#9C9400" offset="39.1200864%"></stop>
            <stop stop-color="#27953E" offset="64.1025473%"></stop>
            <stop stop-color="#53479E" offset="100%"></stop>
        </linearGradient>
    </defs>
    <g id="UI-of-the-day-#23" stroke="none" stroke-width="1" fill="none" fill-rule="evenodd">
        <g id="Book-Page-Copy-Min" transform="translate(-318.000000, -1315.000000)" fill-rule="nonzero">
            <g id="Group-5" transform="translate(339.000000, 1336.000000) scale(-1, 1) translate(-339.000000, -1336.000000) translate(319.000000, 1316.000000)">
                <g id="Group-4-Copy-2" transform="translate(20.000000, 20.000000) scale(-1, 1) translate(-20.000000, -20.000000) ">
                    <rect id="Rectangle" stroke="url(#linearGradient-1)" fill="#FFFFFF" x="0" y="0" width="40" height="40" rx="20"></rect>
                    <polygon id="Path" fill="url(#linearGradient-2)" points="18.5135135 14 17 15.4 21.972973 20 17 24.6 18.5135135 26 25 20"></polygon>
                </g>
            </g>
        </g>
    </g>
</svg>