<?xml version="1.0" encoding="UTF-8"?>
<svg width="12px" height="12px" viewBox="0 0 12 12" version="1.1" xmlns="http://www.w3.org/2000/svg" xmlns:xlink="http://www.w3.org/1999/xlink">
    <!-- Generator: Sketch 54.1 (76490) - https://sketchapp.com -->
    <title>left-align</title>
    <desc>Created with Sketch.</desc>
    <g id="Page-1" stroke="none" stroke-width="1" fill="none" fill-rule="evenodd">
        <g id="d14" transform="translate(-801.000000, -1186.000000)" fill="#000000" fill-rule="nonzero">
            <g id="left-align" transform="translate(801.000000, 1186.000000)">
                <rect id="Rectangle" x="0.0930232558" y="10.3255814" width="11.9069767" height="1.6744186"></rect>
                <rect id="Rectangle" x="0" y="6.88372093" width="9.39534884" height="1.6744186"></rect>
                <rect id="Rectangle" x="0.0930232558" y="3.44186047" width="11.9069767" height="1.6744186"></rect>
                <rect id="Rectangle" x="0" y="0" width="6.79069767" height="1.6744186"></rect>
            </g>
        </g>
    </g>
</svg>