<?xml version="1.0" encoding="UTF-8"?>
<svg width="9px" height="14px" viewBox="0 0 9 14" version="1.1" xmlns="http://www.w3.org/2000/svg" xmlns:xlink="http://www.w3.org/1999/xlink">
    <!-- Generator: Sketch 54.1 (76490) - https://sketchapp.com -->
    <title>I</title>
    <desc>Created with Sketch.</desc>
    <g id="Page-1" stroke="none" stroke-width="1" fill="none" fill-rule="evenodd" font-family="Baskerville-SemiBoldItalic, Baskerville" font-size="20" font-style="italic" font-weight="500">
        <g id="d14" transform="translate(-754.000000, -1172.000000)" fill="#000000">
            <text id="I">
                <tspan x="754" y="1186">I</tspan>
            </text>
        </g>
    </g>
</svg>