<?xml version="1.0" encoding="UTF-8"?>
<svg width="10px" height="14px" viewBox="0 0 10 14" version="1.1" xmlns="http://www.w3.org/2000/svg" xmlns:xlink="http://www.w3.org/1999/xlink">
    <!-- Generator: Sketch 54.1 (76490) - https://sketchapp.com -->
    <title>bold</title>
    <desc>Created with Sketch.</desc>
    <g id="Page-1" stroke="none" stroke-width="1" fill="none" fill-rule="evenodd">
        <g id="d14" transform="translate(-724.000000, -1172.000000)" fill="#000000" fill-rule="nonzero">
            <g id="bold" transform="translate(724.000000, 1172.000000)">
                <path d="M0,14 L0,0 L4.44448408,0 C6.0502433,0 7.30368584,0.322147799 8.20445497,0.966366217 C9.10508141,1.61050746 9.55550165,2.57054494 9.55550165,3.84616996 C9.55550165,4.51292483 9.41045106,5.10558725 9.11999315,5.62508338 C8.82960659,6.14442515 8.38225431,6.53541718 7.77772228,6.79813666 C8.53622341,6.98398523 9.0961629,7.3573803 9.45775482,7.91832189 C9.81906135,8.47926349 10,9.12517986 10,9.85583947 C10,11.2212244 9.57626393,12.2533477 8.72900584,12.9519005 C7.88146235,13.6507621 6.6667618,14 5.08440474,14 L0,14 Z M3.01338489,5.83655558 L4.50669958,5.83655558 C5.18814481,5.82374376 5.69785528,5.6811158 6.03568829,5.4085945 C6.37344996,5.13622757 6.54240215,4.73720885 6.54240215,4.21153836 C6.54240215,3.61532567 6.37045335,3.18119022 6.02691248,2.90866893 C5.68301488,2.63630199 5.15568145,2.50000276 4.44455543,2.50000276 L3.01338489,2.50000276 L3.01338489,5.83655558 L3.01338489,5.83655558 Z M3.01338489,7.99048485 L3.01338489,11.5000744 L5.08440474,11.5000744 C5.7244681,11.5000744 6.20449778,11.3637752 6.52449379,11.0912539 C6.84441844,10.818887 7.00459481,10.4007277 7.00459481,9.83662174 C7.00459481,9.22759723 6.86675038,8.76768378 6.59113286,8.45672703 C6.31565804,8.14592464 5.86973273,7.99048485 5.25349962,7.99048485 L3.01338489,7.99048485 L3.01338489,7.99048485 Z" id="Shape"></path>
            </g>
        </g>
    </g>
</svg>