<?xml version="1.0" encoding="UTF-8"?>
<svg width="12px" height="17px" viewBox="0 0 12 17" version="1.1" xmlns="http://www.w3.org/2000/svg" xmlns:xlink="http://www.w3.org/1999/xlink">
    <!-- Generator: Sketch 54.1 (76490) - https://sketchapp.com -->
    <title>keyboard-right-arrow-button copy 5</title>
    <desc>Created with Sketch.</desc>
    <defs>
        <linearGradient x1="25.0865052%" y1="-15.2299352%" x2="64.3251212%" y2="96.2339186%" id="linearGradient-1">
            <stop stop-color="#E65124" offset="0%"></stop>
            <stop stop-color="#9C9400" offset="39.1200864%"></stop>
            <stop stop-color="#27953E" offset="64.1025473%"></stop>
            <stop stop-color="#53479E" offset="100%"></stop>
        </linearGradient>
    </defs>
    <g id="UI-of-the-day-#23" stroke="none" stroke-width="1" fill="none" fill-rule="evenodd">
        <g id="Book-page-Copy" transform="translate(-1491.000000, -940.000000)" fill="url(#linearGradient-1)" fill-rule="nonzero">
            <g id="keyboard-right-arrow-button-copy-5" transform="translate(1491.000000, 940.000000)">
                <polygon id="Path" points="2.27027027 0 0 1.98333333 7.45945946 8.5 0 15.0166667 2.27027027 17 12 8.5"></polygon>
            </g>
        </g>
    </g>
</svg>