<?xml version="1.0" encoding="UTF-8"?>
<svg width="18px" height="16px" viewBox="0 0 18 16" version="1.1" xmlns="http://www.w3.org/2000/svg" xmlns:xlink="http://www.w3.org/1999/xlink">
    <!-- Generator: Sketch 54.1 (76490) - https://sketchapp.com -->
    <title>open_book</title>
    <desc>Created with Sketch.</desc>
    <g id="Page-1" stroke="none" stroke-width="1" fill="none" fill-rule="evenodd">
        <g id="open_book" fill="#FFFFFF" fill-rule="nonzero" stroke="#FFFFFF" stroke-width="0.51369863">
            <path d="M17.1182701,2.40030962 L15.9124256,2.40024994 L15.9124256,1.1140253 C15.9124256,0.819550225 15.703333,0.569359808 15.4206816,0.525791344 C15.3713334,0.518151942 14.1965922,0.342326329 12.7820027,0.607556819 C11.2050045,0.90322555 9.94732127,1.63237066 9.0943278,2.73465282 C8.2412764,1.63237066 6.98359322,0.90322555 5.40665288,0.607556819 C3.99200546,0.342386012 2.81726427,0.518151942 2.76797402,0.525791344 C2.48532255,0.569419491 2.27622997,0.819609908 2.27622997,1.1140253 L2.27622997,2.40024994 L1.07038553,2.40024994 C0.751649667,2.40024994 0.493151,2.6666144 0.493151,2.99510869 L0.493151,14.2038423 C0.493151,14.3964388 0.583622637,14.5770987 0.736011164,14.6887056 C0.88839969,14.8003125 1.08376514,14.8289602 1.26024855,14.7655771 C1.30357299,14.7501192 5.62924091,13.2289233 8.85476909,14.7449865 C9.00698386,14.8165462 9.18172965,14.8165462 9.33394442,14.7449865 C12.550437,13.2332204 16.8853722,14.7502386 16.928465,14.7655771 C16.9903239,14.7877791 17.0543839,14.798701 17.1182121,14.798701 C17.2365435,14.798701 17.3536585,14.7612202 17.4527023,14.6887653 C17.6050909,14.5771584 17.6955625,14.3964984 17.6955625,14.203902 L17.6955625,2.99516837 C17.6955046,2.66667408 17.4370638,2.40030962 17.1182701,2.40030962 Z M1.64767798,13.4079718 L1.64767798,3.58990775 L2.27622997,3.58990775 L2.27622997,11.5113708 C2.27622997,11.6842123 2.3496151,11.8483401 2.47651866,11.9613197 C2.60342221,12.0742993 2.77220221,12.12497 2.93808618,12.0997242 C2.96994239,12.0949495 5.47766327,11.7401948 7.30980081,13.0354912 C5.05293311,12.6378245 2.79415403,13.0978001 1.64767798,13.4079718 Z M8.51709326,12.499062 C7.7101465,11.7477745 6.65906531,11.2397543 5.40665288,11.004962 C4.80393338,10.8919228 4.24477001,10.8589778 3.79762466,10.8589778 C3.66487114,10.8589778 3.54196409,10.8619023 3.43081488,10.8664979 L3.43081488,1.66024255 L3.43075696,1.66024255 C4.54022188,1.60867658 7.23913794,1.73090701 8.51709326,3.96322385 L8.51709326,12.499062 Z M9.67156233,3.96328353 C10.9449419,1.74051595 13.6480862,1.61273501 14.7578986,1.66173462 L14.7578986,10.8664979 C14.2723521,10.8463251 13.5635803,10.858381 12.7820027,11.004962 C11.5295903,11.2397543 10.4785091,11.7477148 9.67156233,12.499062 L9.67156233,3.96328353 Z M10.8769434,13.0358493 C12.7093126,11.739777 15.2183657,12.0948898 15.2496427,12.0996645 C15.4159321,12.1253878 15.5845963,12.0750155 15.7119053,11.9620956 C15.8392143,11.8490563 15.9124256,11.6845704 15.9124256,11.5113708 L15.9124256,3.58996744 L16.5409776,3.58996744 L16.5409776,13.4079718 C15.394154,13.0976807 13.1344482,12.6375261 10.8769434,13.0358493 Z" id="Shape"></path>
        </g>
    </g>
</svg>