<?xml version="1.0" encoding="UTF-8"?>
<svg width="18px" height="23px" viewBox="0 0 18 23" version="1.1" xmlns="http://www.w3.org/2000/svg" xmlns:xlink="http://www.w3.org/1999/xlink">
    <!-- Generator: Sketch 54.1 (76490) - https://sketchapp.com -->
    <title>bell</title>
    <desc>Created with Sketch.</desc>
    <g id="Page-1" stroke="none" stroke-width="1" fill="none" fill-rule="evenodd">
        <g id="Artboard-Copy-46" transform="translate(-36.000000, -584.000000)" fill="#FFFFFF" fill-rule="nonzero">
            <g id="bell" transform="translate(36.000000, 584.000000)">
                <path d="M17.6098966,18.3035527 C17.5431724,18.2596641 17.0409901,17.903209 16.5381429,16.8248594 C15.6146897,14.8446133 15.4208571,12.0550547 15.4208571,10.063623 C15.4208571,10.0549531 15.4206798,10.046373 15.4203695,10.037748 C15.4103054,7.40582031 13.8549015,5.13699609 11.6291084,4.11902148 L11.6291084,2.56216406 C11.6291084,1.14937109 10.4966158,-5.68434189e-14 9.10458621,-5.68434189e-14 L8.89536946,-5.68434189e-14 C7.5033399,-5.68434189e-14 6.37084729,1.14937109 6.37084729,2.56216406 L6.37084729,4.11893164 C4.13760591,5.14018555 2.57909852,7.42059961 2.57909852,10.063623 C2.57909852,12.0550547 2.38526601,14.8445684 1.46181281,16.8248594 C0.959009852,17.9031641 0.456827586,18.2596191 0.390059113,18.3035527 C0.1088867,18.4353984 -0.0297487685,18.7399687 0.0349359606,19.048627 C0.100241379,19.3603398 0.38779803,19.5752461 0.70182266,19.5752461 L5.5763202,19.5752461 C5.60354187,21.4682988 7.12839901,23 9,23 C10.871601,23 12.3964581,21.4682988 12.4236798,19.5752461 L17.2981773,19.5752461 C17.6121576,19.5752461 17.8997586,19.3603398 17.965064,19.048627 C18.0296601,18.7399687 17.891069,18.4353535 17.6098966,18.3035527 Z M7.70094089,2.56216406 C7.70094089,1.89368164 8.2367734,1.34985742 8.89541379,1.34985742 L9.10463054,1.34985742 C9.76327094,1.34985742 10.2991034,1.89368164 10.2991034,2.56216406 L10.2991034,3.68148242 C9.8793399,3.59357031 9.44481281,3.54730078 8.99982266,3.54730078 C8.55496552,3.54730078 8.12057143,3.59352539 7.70098522,3.68134766 L7.70098522,2.56216406 L7.70094089,2.56216406 Z M9,21.6501426 C7.86178818,21.6501426 6.93336946,20.7239883 6.90636946,19.575291 L11.0935862,19.575291 C11.0666305,20.7239434 10.1382118,21.6501426 9,21.6501426 L9,21.6501426 Z M11.6778325,18.2253437 C11.6776995,18.2253437 2.21741379,18.2253437 2.21741379,18.2253437 C2.33246305,18.0436797 2.44955172,17.8379824 2.56593103,17.6055117 C3.45724138,15.8246738 3.90919212,13.2872168 3.90919212,10.063623 C3.90919212,7.2148125 6.19284236,4.8971582 8.99977833,4.8971582 C11.8067143,4.8971582 14.0903645,7.2148125 14.0903645,10.0658691 C14.0903645,10.0741797 14.0904975,10.0824453 14.0908079,10.0907109 C14.093335,13.3013672 14.5452414,15.8297051 15.434069,17.6055117 C15.5504483,17.8380273 15.6675813,18.0436797 15.7825862,18.2253437 L11.6778325,18.2253437 Z" id="Shape"></path>
            </g>
        </g>
    </g>
</svg>