<?xml version="1.0" encoding="UTF-8"?>
<svg width="60px" height="60px" viewBox="0 0 60 60" version="1.1" xmlns="http://www.w3.org/2000/svg" xmlns:xlink="http://www.w3.org/1999/xlink">
    <!-- Generator: Sketch 54.1 (76490) - https://sketchapp.com -->
    <title>content</title>
    <desc>Created with Sketch.</desc>
    <g id="Page-1" stroke="none" stroke-width="1" fill="none" fill-rule="evenodd">
        <g id="Artboard" transform="translate(-320.000000, -56.000000)" fill="#FFFFFF" fill-rule="nonzero">
            <g id="content" transform="translate(320.000000, 56.000000)">
                <path d="M60,57.65625 C60,58.9508057 58.9508057,60 57.65625,60 L30,60 C28.7054443,60 27.65625,58.9508057 27.65625,57.65625 C27.65625,56.3616943 28.7054443,55.3125 30,55.3125 L57.65625,55.3125 C58.9508057,55.3125 60,56.3616943 60,57.65625 Z M57.65625,46.0935974 L39.2189026,46.0935974 C37.924347,46.0935974 36.8751526,47.1432495 36.8751526,48.4373474 C36.8751526,49.731903 37.924347,50.7810974 39.2189026,50.7810974 L57.65625,50.7810974 C58.9508057,50.7810974 60,49.731903 60,48.4373474 C60,47.1432495 58.9508057,46.0935974 57.65625,46.0935974 Z M57.65625,36.8751526 L48.4373474,36.8751526 C47.1427917,36.8751526 46.0935974,37.924347 46.0935974,39.2189026 C46.0935974,40.5134583 47.1427917,41.5626526 48.4373474,41.5626526 L57.65625,41.5626526 C58.9508057,41.5626526 60,40.5134583 60,39.2189026 C60,37.924347 58.9508057,36.8751526 57.65625,36.8751526 Z M59.3133545,17.8289795 L17.8289795,59.3133545 C17.3895264,59.7532654 16.7935181,60 16.171875,60 L2.34375,60 C1.04919434,60 0,58.9508057 0,57.65625 L0,43.828125 C0,43.2064819 0.246734648,42.6104736 0.686645508,42.1710205 L42.1710205,0.686645508 C43.0860901,-0.228881836 44.5701599,-0.228881836 45.4852295,0.686645508 L59.3133545,14.5147705 C60.2288818,15.4298401 60.2288818,16.9139099 59.3133545,17.8289795 Z M54.3415833,16.171875 L43.828125,5.65841672 L4.6875,44.7990417 L4.6875,55.3125 L15.2009583,55.3125 L54.3415833,16.171875 Z" id="Shape"></path>
            </g>
        </g>
    </g>
</svg>