<?xml version="1.0" encoding="UTF-8"?>
<svg width="512px" height="512px" viewBox="0 0 512 512" version="1.1" xmlns="http://www.w3.org/2000/svg" xmlns:xlink="http://www.w3.org/1999/xlink">
    <!-- Generator: Sketch 54.1 (76490) - https://sketchapp.com -->
    <title>copyright (2)</title>
    <desc>Created with Sketch.</desc>
    <g id="Page-1" stroke="none" stroke-width="1" fill="none" fill-rule="evenodd">
        <g id="Artboard" transform="translate(-606.000000, -922.000000)" fill="#FFFFFF" fill-rule="nonzero">
            <g id="copyright-(2)" transform="translate(606.000000, 922.000000)">
                <path d="M256,512 C187.621094,512 123.332031,485.371094 74.980469,437.019531 C26.628906,388.667969 0,324.378906 0,256 C0,187.621094 26.628906,123.332031 74.980469,74.980469 C123.332031,26.628906 187.621094,0 256,0 C324.378906,0 388.667969,26.628906 437.019531,74.980469 C485.371094,123.332031 512,187.621094 512,256 C512,324.378906 485.371094,388.667969 437.019531,437.019531 C388.667969,485.371094 324.378906,512 256,512 Z M256,40 C136.898438,40 40,136.898438 40,256 C40,375.101562 136.898438,472 256,472 C375.101562,472 472,375.101562 472,256 C472,136.898438 375.101562,40 256,40 Z M361.359375,361.359375 L333.074219,333.074219 C290.574219,375.574219 221.425781,375.574219 178.925781,333.074219 C136.425781,290.574219 136.425781,221.425781 178.925781,178.925781 C221.425781,136.425781 290.574219,136.425781 333.074219,178.925781 L361.359375,150.640625 C303.261719,92.546875 208.734375,92.546875 150.640625,150.640625 C92.546875,208.738281 92.546875,303.265625 150.640625,361.359375 C179.6875,390.40625 217.84375,404.929688 256,404.929688 C294.152344,404.929688 332.3125,390.40625 361.359375,361.359375 Z" id="Shape"></path>
            </g>
        </g>
    </g>
</svg>