<?xml version="1.0" encoding="UTF-8"?>
<svg width="20px" height="20px" viewBox="0 0 20 20" version="1.1" xmlns="http://www.w3.org/2000/svg" xmlns:xlink="http://www.w3.org/1999/xlink">
    <!-- Generator: Sketch 54.1 (76490) - https://sketchapp.com -->
    <title>dashboard</title>
    <desc>Created with Sketch.</desc>
    <defs>
        <linearGradient x1="-7.85599879%" y1="-10.6740953%" x2="78.7497223%" y2="96.2339186%" id="linearGradient-1">
            <stop stop-color="#E65124" offset="0%"></stop>
            <stop stop-color="#9C9400" offset="39.1200864%"></stop>
            <stop stop-color="#27953E" offset="64.1025473%"></stop>
            <stop stop-color="#53479E" offset="100%"></stop>
        </linearGradient>
    </defs>
    <g id="Page-1" stroke="none" stroke-width="1" fill="none" fill-rule="evenodd">
        <g id="Artboard" transform="translate(-46.000000, -36.000000)" fill="url(#linearGradient-1)" fill-rule="nonzero">
            <g id="dashboard" transform="translate(46.000000, 36.000000)">
                <path d="M7.82546996,4.26325641e-14 C8.62976074,4.26325641e-14 9.28390504,0.654144297 9.28390504,1.45828246 L9.28390504,5.20828246 C9.28390504,6.01257324 8.62976074,6.66671754 7.82546996,6.66671754 L1.57546996,6.66671754 C0.771331797,6.66671754 0.1171875,6.01257324 0.1171875,5.20828246 L0.1171875,1.45828246 C0.1171875,0.654144297 0.771331797,4.26325641e-14 1.57546996,4.26325641e-14 L7.82546996,4.26325641e-14 Z M7.70828246,8.33328246 C8.51257324,8.33328246 9.16671754,8.98742676 9.16671754,9.79171754 L9.16671754,18.5417175 C9.16671754,19.3458557 8.51257324,20 7.70828246,20 L1.45828246,20 C0.654144297,20 1.90425453e-12,19.3458557 1.90425453e-12,18.5417175 L1.90425453e-12,9.79171754 C1.90425453e-12,8.98742676 0.654144297,8.33328246 1.45828246,8.33328246 L7.70828246,8.33328246 Z M18.5417175,13.3332825 C19.3458557,13.3332825 20,13.9874268 20,14.7917175 L20,18.5417175 C20,19.3458557 19.3458557,20 18.5417175,20 L12.2917175,20 C11.4874268,20 10.8332825,19.3458557 10.8332825,18.5417175 L10.8332825,14.7917175 C10.8332825,13.9874268 11.4874268,13.3332825 12.2917175,13.3332825 L18.5417175,13.3332825 Z M18.5417175,2.95319325e-14 C19.3458557,2.95319325e-14 20,0.654144297 20,1.45828246 L20,10.2082825 C20,11.0125732 19.3458557,11.6667175 18.5417175,11.6667175 L12.2917175,11.6667175 C11.4874268,11.6667175 10.8332825,11.0125732 10.8332825,10.2082825 L10.8332825,1.45828246 C10.8332825,0.654144297 11.4874268,2.84217094e-14 12.2917175,2.84217094e-14 L18.5417175,2.84217094e-14 Z" id="Combined-Shape"></path>
            </g>
        </g>
    </g>
</svg>