<?xml version="1.0" encoding="UTF-8"?>
<svg width="26px" height="26px" viewBox="0 0 26 26" version="1.1" xmlns="http://www.w3.org/2000/svg" xmlns:xlink="http://www.w3.org/1999/xlink">
    <!-- Generator: Sketch 54.1 (76490) - https://sketchapp.com -->
    <title>settings (1)</title>
    <desc>Created with Sketch.</desc>
    <defs>
        <linearGradient x1="-7.83297246%" y1="-10.6740953%" x2="78.7382801%" y2="96.2339186%" id="linearGradient-1">
            <stop stop-color="#E65124" offset="0%"></stop>
            <stop stop-color="#9C9400" offset="39.1200864%"></stop>
            <stop stop-color="#27953E" offset="64.1025473%"></stop>
            <stop stop-color="#53479E" offset="100%"></stop>
        </linearGradient>
    </defs>
    <g id="Page-1" stroke="none" stroke-width="1" fill="none" fill-rule="evenodd">
        <g id="Artboard" transform="translate(-195.000000, -33.000000)" fill="url(#linearGradient-1)" fill-rule="nonzero">
            <g id="settings-(1)" transform="translate(195.000000, 33.000000)">
                <path d="M16.2820513,17.3332672 L18.0883413,18.7287598 C18.5160256,19.0580444 18.6342148,19.6580963 18.3629808,20.1240539 L17.1967148,22.1259461 C16.9264824,22.5907135 16.3455529,22.7900696 15.8411458,22.5897217 L13.7001202,21.7393341 C13.1346154,22.1941834 12.4967949,22.5603638 11.8273237,22.8150635 L11.5034054,25.0694733 C11.426883,25.600296 10.9619391,26 10.4202724,26 L8.08794072,26 C7.54627405,26 7.08133015,25.600296 7.0038061,25.0704651 L6.67988779,22.8172455 C6.01141826,22.565918 5.38020831,22.2039032 4.79827723,21.7393341 L2.66706728,22.5897217 C2.16486379,22.7890777 1.58173077,22.5897217 1.31049682,22.1259461 L0.144230769,20.1240539 C-0.124799692,19.6580963 -0.00781251283,19.0602265 0.416666667,18.7297516 L2.22495995,17.3247375 C2.17027241,16.972641 2.14302882,16.6130066 2.14302882,16.25 C2.14302882,15.8850098 2.17027241,15.5210113 2.22616185,15.1667328 L0.419871795,13.7712402 C-0.00781251283,13.4419556 -0.12600159,12.8419037 0.145232359,12.3759461 L1.31149841,10.3740539 C1.58293272,9.91027832 2.16486379,9.71092225 2.66706728,9.91027832 L4.80809292,10.7606659 C5.37359774,10.3058166 6.01141826,9.93963623 6.68088944,9.68493652 L7.00480769,7.43052675 C7.08133015,6.89970399 7.54627405,6.5 8.08794072,6.5 L10.4202724,6.5 C10.9619391,6.5 11.426883,6.89970399 11.5034054,7.42953494 L11.8273237,9.6827545 C12.4955929,9.93408203 13.1270032,10.2960968 13.7089343,10.7606659 L15.8401442,9.91027832 C16.3423477,9.70993045 16.9252805,9.90928651 17.1967148,10.3740539 L18.3639824,12.3759461 C18.6332131,12.8419037 18.5160256,13.4397735 18.0915465,13.7702484 L16.2832532,15.1752625 C16.3379407,15.527359 16.3651843,15.8869934 16.3651843,16.25 C16.3651843,16.6149902 16.3379407,16.9789887 16.2820513,17.3332672 Z M9.25420672,20.0417328 C11.3655849,20.0417328 13.083133,18.3407593 13.083133,16.25 C13.083133,14.1592407 11.3655849,12.4582672 9.25420672,12.4582672 C7.14262821,12.4582672 5.4250801,14.1592407 5.4250801,16.25 C5.4250801,18.3407593 7.14262821,20.0417328 9.25420672,20.0417328 Z M24.7924679,5.92474365 L25.7770433,6.6636505 C25.9969952,6.82928467 26.0582933,7.13040159 25.9202724,7.36665343 L25.0364584,8.88334657 C24.8986378,9.12059022 24.6041667,9.21798709 24.349359,9.1118622 L23.2149439,8.63856505 C22.9391026,8.84645079 22.6438302,9.03172304 22.3189103,9.16601562 L22.1678686,10.3587799 C22.1340144,10.6297455 21.9010416,10.8332672 21.6252003,10.8332672 L19.8561698,10.8332672 C19.5805288,10.8332672 19.3485577,10.6297455 19.3135016,10.3577881 L19.1626603,9.16502382 C18.8377404,9.03073123 18.5434695,8.84645079 18.2666266,8.63737489 L17.1322115,9.1118622 C16.8784054,9.21798709 16.5839343,9.11959841 16.4461138,8.88334657 L15.5610977,7.36665343 C15.4232772,7.12940978 15.4845753,6.82829286 15.7045272,6.6636505 L16.6901042,5.92474365 C16.6692708,5.75692752 16.6388221,5.59109495 16.6388221,5.4167328 C16.6388221,5.24217225 16.6692708,5.07653809 16.6913061,4.90852355 L15.7055288,4.16981505 C15.4855769,4.00398253 15.4242789,3.70286561 15.5622997,3.46661377 L16.4461138,1.94992068 C16.5839343,1.71267698 16.8784054,1.61528016 17.1332131,1.72140505 L18.2676282,2.1949005 C18.5434695,1.98681641 18.838742,1.80154416 19.1636618,1.66725157 L19.3147035,0.474487305 C19.3485577,0.203720105 19.5817308,-2.64677169e-13 19.8573718,-2.64677169e-13 L21.6264023,-2.64677169e-13 C21.9020433,-2.64677169e-13 22.1340144,0.203720105 22.1690705,0.474487305 L22.3199118,1.66725157 C22.6448317,1.80154416 22.9391026,1.9858246 23.2159455,2.1949005 L24.3503606,1.72140505 C24.6041667,1.61528016 24.8986378,1.71386719 25.0364584,1.94992068 L25.9214744,3.46661377 C26.0592949,3.70385742 25.9979968,4.00517274 25.7782452,4.16981505 L24.7924679,4.90852355 C24.8133013,5.07653809 24.8439503,5.24217225 24.8439503,5.4167328 C24.8439503,5.59109495 24.8133013,5.75692752 24.7924679,5.92474365 Z M20.7413862,7.5832672 C21.9501202,7.5832672 22.9292869,6.61366271 22.9292869,5.4167328 C22.9292869,4.21960449 21.9501202,3.25 20.7413862,3.25 C19.5324519,3.25 18.5532852,4.21960449 18.5532852,5.4167328 C18.5532852,6.61366271 19.5324519,7.5832672 20.7413862,7.5832672 Z" id="Combined-Shape"></path>
            </g>
        </g>
    </g>
</svg>