<?xml version="1.0" encoding="UTF-8"?>
<svg width="20px" height="20px" viewBox="0 0 20 20" version="1.1" xmlns="http://www.w3.org/2000/svg" xmlns:xlink="http://www.w3.org/1999/xlink">
    <!-- Generator: Sketch 54.1 (76490) - https://sketchapp.com -->
    <title>wallet</title>
    <desc>Created with Sketch.</desc>
    <defs>
        <linearGradient x1="-7.85428907%" y1="-10.6740953%" x2="78.7488727%" y2="96.2339186%" id="linearGradient-1">
            <stop stop-color="#E65124" offset="0%"></stop>
            <stop stop-color="#9C9400" offset="39.1200864%"></stop>
            <stop stop-color="#27953E" offset="64.1025473%"></stop>
            <stop stop-color="#53479E" offset="100%"></stop>
        </linearGradient>
    </defs>
    <g id="Page-1" stroke="none" stroke-width="1" fill="none" fill-rule="evenodd">
        <g id="Artboard" transform="translate(-139.000000, -36.000000)" fill="url(#linearGradient-1)" fill-rule="nonzero">
            <g id="wallet" transform="translate(139.000000, 36.000000)">
                <path d="M18.6100851,16.3407234 C18.8609787,16.3407234 19.064,16.5437447 19.064,16.7946383 L19.064,18.1563404 C19.064,19.1577021 18.2497021,19.9719574 17.248383,19.9719574 L1.81574468,19.9719574 C0.814382979,19.9719574 0.000127659575,19.1576596 0.000127659575,18.1563404 L0.000127659575,7.2627234 C0.000127659575,6.2613617 0.814425532,5.44710638 1.81574468,5.44710638 L3.38523404,5.44710638 L12.3215319,0.244553191 C12.7373191,0.00255319149 13.2231064,-0.0626382979 13.6876596,0.0614893617 C14.1544255,0.186468085 14.5445106,0.487446809 14.7860851,0.908553191 L17.3928936,5.46174468 C18.3257021,5.53680851 19.064,6.31089362 19.064,7.2627234 L19.064,8.62442553 C19.064,8.87531915 18.8609787,9.07834043 18.6100851,9.07834043 L15.432766,9.07834043 C13.4305532,9.07834043 11.8015745,10.7073191 11.8015745,12.7095319 C11.8015745,14.7117447 13.4305532,16.3407234 15.432766,16.3407234 L18.6100851,16.3407234 Z M15.3490213,3.71961702 L12.3818298,5.44710638 L16.3380426,5.44710638 L15.3490213,3.71961702 Z M5.18948936,5.44710638 L6.98144681,5.44710638 L13.9988936,1.36144681 L13.9979574,1.35978723 C13.8778298,1.15012766 13.6845532,1.00029787 13.4527234,0.938255319 C13.2235319,0.87706383 12.9837447,0.908978723 12.7785106,1.02910638 L5.18948936,5.44710638 Z M18.6100851,9.98612766 C19.3609787,9.98612766 19.9717872,10.5969362 19.9717872,11.3478298 L19.9717872,14.071234 C19.9717872,14.8221277 19.3609787,15.4329362 18.6100851,15.4329362 L15.432766,15.4329362 C13.9309787,15.4329362 12.7093617,14.2113191 12.7093617,12.7095319 C12.7093617,11.2077447 13.9309787,9.98612766 15.432766,9.98612766 L18.6100851,9.98612766 Z M15.432766,13.6173191 C15.933234,13.6173191 16.3405957,13.2099574 16.3405532,12.7095319 C16.3405532,12.2091064 15.9331915,11.8017447 15.432766,11.8017447 C14.9323404,11.8017447 14.5249787,12.2091064 14.5249787,12.7095319 C14.5249787,13.2099574 14.9323404,13.6173191 15.432766,13.6173191 Z" id="Combined-Shape"></path>
            </g>
        </g>
    </g>
</svg>