<?xml version="1.0" encoding="UTF-8"?>
<svg width="23px" height="20px" viewBox="0 0 23 20" version="1.1" xmlns="http://www.w3.org/2000/svg" xmlns:xlink="http://www.w3.org/1999/xlink">
    <!-- Generator: Sketch 54.1 (76490) - https://sketchapp.com -->
    <title>team</title>
    <desc>Created with Sketch.</desc>
    <defs>
        <linearGradient x1="-7.85599879%" y1="4.47478515%" x2="78.7497223%" y2="84.6904073%" id="linearGradient-1">
            <stop stop-color="#E65124" offset="0%"></stop>
            <stop stop-color="#9C9400" offset="39.1200864%"></stop>
            <stop stop-color="#27953E" offset="64.1025473%"></stop>
            <stop stop-color="#53479E" offset="100%"></stop>
        </linearGradient>
    </defs>
    <g id="Page-1" stroke="none" stroke-width="1" fill="none" fill-rule="evenodd">
        <g id="Artboard" transform="translate(-74.000000, -36.000000)" fill="url(#linearGradient-1)" fill-rule="nonzero">
            <g id="team" transform="translate(74.000000, 36.000000)">
                <path d="M19.6798242,10.7944954 C21.5105703,10.7944954 23,12.3154128 22.9999551,14.1848165 L22.9999551,17.9270642 C22.9999551,19.0487156 22.1063242,19.9612844 21.0078496,19.9612844 L18.0672188,19.9612844 C18.1409355,19.7490826 18.1814551,19.5209174 18.1814551,19.283211 L18.1814551,12.4185321 C18.1814551,11.8483945 18.0824023,11.3013761 17.9010977,10.7944954 L19.6798242,10.7944954 Z M4.81854492,12.418578 L4.81854492,19.2832569 C4.81854492,19.5209633 4.85906445,19.7490826 4.93278125,19.9613761 L1.99210547,19.9613761 C0.893630859,19.9613761 -3.37596617e-12,19.0488073 -3.37596617e-12,17.927156 L-3.37596617e-12,14.1849083 C-3.37596617e-12,12.3154587 1.48942969,10.7945413 3.32017578,10.7945413 L5.09890234,10.7945413 C4.91759766,11.301422 4.81854492,11.8483945 4.81854492,12.418578 Z M13.533209,9.02821101 C15.3639551,9.02821101 16.8533848,10.5491284 16.8533848,12.418578 L16.8533848,19.2832569 C16.8533848,19.6577523 16.5560918,19.9613303 16.1893496,19.9613303 L6.81065039,19.9613303 C6.4439082,19.9613303 6.14661523,19.6577064 6.14661523,19.2832569 L6.14661523,12.418578 C6.14661523,10.5491284 7.63604492,9.02821101 9.46679102,9.02821101 L13.533209,9.02821101 Z M11.5,0.0385321101 C13.7017109,0.0385321101 15.4929258,1.86766055 15.4929258,4.11591743 C15.4929258,5.64087156 14.6686992,6.97279817 13.4513613,7.67206422 C12.8739805,8.0037156 12.2083281,8.19325688 11.5,8.19325688 C10.7916719,8.19325688 10.1260195,8.0037156 9.54863867,7.67206422 C8.3313457,6.97279817 7.50707422,5.64091743 7.50707422,4.11591743 C7.50707422,1.86761468 9.29828906,0.0385321101 11.5,0.0385321101 Z M4.48850391,3.83894495 C6.13511523,3.83894495 7.47468555,5.20688073 7.47468555,6.88825688 C7.47468555,7.40573394 7.34742188,7.89330275 7.12371094,8.32068807 C6.80499023,8.92963303 6.28991602,9.41577982 5.66523242,9.69041284 C5.30392578,9.84922018 4.9061875,9.93756881 4.48850391,9.93756881 C2.84189258,9.93756881 1.50232227,8.5696789 1.50232227,6.88825688 C1.50232227,5.20683486 2.84189258,3.83894495 4.48850391,3.83894495 Z M18.5114961,3.83894495 C20.1581074,3.83894495 21.4976777,5.20683486 21.4976777,6.88825688 C21.4976777,8.5696789 20.1581074,9.93756881 18.5114961,9.93756881 C18.0938125,9.93756881 17.6960742,9.84922018 17.3347676,9.69041284 C16.710084,9.41582569 16.1950098,8.9296789 15.8762891,8.32068807 C15.6525781,7.89334862 15.5253145,7.40577982 15.5253145,6.88825688 C15.5253145,5.20683486 16.8648848,3.83894495 18.5114961,3.83894495 Z" id="Combined-Shape"></path>
            </g>
        </g>
    </g>
</svg>