<?xml version="1.0" encoding="UTF-8"?>
<svg width="223px" height="117px" viewBox="0 0 223 117" version="1.1" xmlns="http://www.w3.org/2000/svg" xmlns:xlink="http://www.w3.org/1999/xlink">
    <!-- Generator: Sketch 54.1 (76490) - https://sketchapp.com -->
    <title>Group 9</title>
    <desc>Created with Sketch.</desc>
    <defs>
        <linearGradient x1="-32.298003%" y1="-13.8328834%" x2="137.215569%" y2="96.8456601%" id="linearGradient-1">
            <stop stop-color="#E65124" offset="0%"></stop>
            <stop stop-color="#A69D00" offset="42.866987%"></stop>
            <stop stop-color="#27953E" offset="67.1789487%"></stop>
            <stop stop-color="#27953E" offset="67.1789487%"></stop>
            <stop stop-color="#53479E" offset="100%"></stop>
        </linearGradient>
    </defs>
    <g id="Page-1" stroke="none" stroke-width="1" fill="none" fill-rule="evenodd" opacity="0.339401972">
        <g id="Artboard-Copy-46" transform="translate(-520.000000, -223.000000)" fill="url(#linearGradient-1)">
            <g id="Oval" transform="translate(392.000000, 223.000000)">
                <g id="Rectangle">
                    <g id="Oval-Copy-+-Oval-Copy-2-Mask">
                        <g id="Oval-Copy-12">
                            <g id="Group-9" transform="translate(128.000000, -51.000000)">
                                <circle id="Oval-Copy-12" cx="241.5" cy="38.5" r="38.5"></circle>
                                <circle id="Oval-Copy" cx="6.5" cy="71.5" r="6.5"></circle>
                                <circle id="Oval-Copy-2" cx="116.5" cy="161.5" r="6.5"></circle>
                            </g>
                        </g>
                    </g>
                </g>
            </g>
        </g>
    </g>
</svg>