<?xml version="1.0" encoding="UTF-8"?>
<svg width="18px" height="24px" viewBox="0 0 18 24" version="1.1" xmlns="http://www.w3.org/2000/svg" xmlns:xlink="http://www.w3.org/1999/xlink">
    <!-- Generator: Sketch 54.1 (76490) - https://sketchapp.com -->
    <title>shopping-list (1)</title>
    <desc>Created with Sketch.</desc>
    <g id="Page-1" stroke="none" stroke-width="1" fill="none" fill-rule="evenodd">
        <g id="Artboard-Copy-46" transform="translate(-36.000000, -293.000000)" fill="#FFFFFF" fill-rule="nonzero">
            <g id="shopping-list-(1)" transform="translate(36.000000, 293.000000)">
                <path d="M8.781,9.2205 C8.4885,8.928 8.013,8.9265 7.719,9.219 L5.25,11.6895 L4.281,10.719 C3.9885,10.4265 3.513,10.4265 3.2205,10.719 C2.928,11.0115 2.928,11.487 3.2205,11.7795 L4.7205,13.2795 C4.866,13.4265 5.058,13.5 5.25,13.5 C5.442,13.5 5.634,13.4265 5.781,13.281 L8.781,10.281 C9.0735,9.9885 9.0735,9.513 8.781,9.2205 Z" id="Path"></path>
                <path d="M8.781,15.2205 C8.4885,14.928 8.013,14.9265 7.719,15.219 L5.25,17.6895 L4.281,16.7205 C3.9885,16.428 3.513,16.428 3.2205,16.7205 C2.928,17.013 2.928,17.4885 3.2205,17.781 L4.7205,19.281 C4.866,19.4265 5.058,19.5 5.25,19.5 C5.442,19.5 5.634,19.4265 5.781,19.281 L8.781,16.281 C9.0735,15.9885 9.0735,15.513 8.781,15.2205 Z" id="Path"></path>
                <path d="M14.25,10.5 L11.25,10.5 C10.836,10.5 10.5,10.836 10.5,11.25 C10.5,11.664 10.836,12 11.25,12 L14.25,12 C14.664,12 15,11.664 15,11.25 C15,10.836 14.664,10.5 14.25,10.5 Z" id="Path"></path>
                <path d="M14.25,16.5 L11.25,16.5 C10.836,16.5 10.5,16.836 10.5,17.25 C10.5,17.664 10.836,18 11.25,18 L14.25,18 C14.664,18 15,17.664 15,17.25 C15,16.836 14.664,16.5 14.25,16.5 Z" id="Path"></path>
                <path d="M16.5,3 L13.5,3 L13.5,2.25 C13.5,1.836 13.164,1.5 12.75,1.5 L11.1225,1.5 C10.812,0.627 9.978,0 9,0 C8.022,0 7.188,0.627 6.8775,1.5 L5.25,1.5 C4.836,1.5 4.5,1.836 4.5,2.25 L4.5,3 L1.5,3 C0.6735,3 0,3.6735 0,4.5 L0,22.5 C0,23.3265 0.6735,24 1.5,24 L16.5,24 C17.3265,24 18,23.3265 18,22.5 L18,4.5 C18,3.6735 17.3265,3 16.5,3 Z M6,3 L7.5,3 C7.914,3 8.25,2.664 8.25,2.25 C8.25,1.836 8.586,1.5 9,1.5 C9.414,1.5 9.75,1.836 9.75,2.25 C9.75,2.664 10.086,3 10.5,3 L12,3 L12,4.5 L6,4.5 L6,3 Z M16.5,22.5 L1.5,22.5 L1.5,4.5 L4.5,4.5 L4.5,5.25 C4.5,5.664 4.836,6 5.25,6 L12.75,6 C13.164,6 13.5,5.664 13.5,5.25 L13.5,4.5 L16.5,4.5 L16.5,22.5 Z" id="Shape"></path>
            </g>
        </g>
    </g>
</svg>