<?xml version="1.0" encoding="UTF-8"?>
<svg width="22px" height="22px" viewBox="0 0 22 22" version="1.1" xmlns="http://www.w3.org/2000/svg" xmlns:xlink="http://www.w3.org/1999/xlink">
    <!-- Generator: Sketch 52.1 (67048) - http://www.bohemiancoding.com/sketch -->
    <title>writing</title>
    <desc>Created with Sketch.</desc>
    <g id="Page-1" stroke="none" stroke-width="1" fill="none" fill-rule="evenodd">
        <g id="Artboard-Copy-46" transform="translate(-33.000000, -510.000000)" fill="#FFFFFF" fill-rule="nonzero">
            <g id="writing" transform="translate(33.000000, 510.000000)">
                <path d="M19.0608705,0.188827504 C18.8097588,-0.0629425156 18.4023514,-0.0629425156 18.1512396,0.188827504 L13.1935003,5.15625 L1.95126706,5.15625 C0.887183236,5.15625 0.0214424951,6.02368164 0.0214424951,7.08984375 L0.0214424951,16.1131134 C0.0214424951,17.1794434 0.887183236,18.0467072 1.95126706,18.0467072 L2.6374269,18.0467072 L2.6374269,21.3553009 C2.6374269,21.6173096 2.79573281,21.853302 3.03779851,21.9521637 C3.28338207,22.052536 3.56029178,21.9906006 3.74054275,21.8061371 L7.41089487,18.0467072 L14.9025341,18.0467072 C15.9666179,18.0467072 16.8323587,17.1794434 16.8323587,16.1131134 L16.8323587,8.80221555 L21.7900981,3.8347931 C22.0412098,3.58302308 22.0412098,3.17498779 21.7900981,2.92321777 L19.0608705,0.188827504 Z M13.1475999,10.6710205 L11.3281707,8.84803773 L16.7866259,3.37908936 L18.6060551,5.20207213 L13.1475999,10.6710205 Z M10.6428484,9.98435973 L12.0134929,11.3576813 L9.66419954,12.3382416 L10.6428484,9.98435973 Z M15.545809,16.1131134 C15.545809,16.4686127 15.2571729,16.7576447 14.9025341,16.7576447 L7.14035088,16.7576447 C6.96730325,16.7576447 6.80145893,16.8276367 6.68050988,16.9515075 L3.92397661,19.7748566 L3.92397661,17.4021759 C3.92397661,17.046341 3.63601059,16.7576447 3.28070175,16.7576447 L1.95126706,16.7576447 C1.5966283,16.7576447 1.3079922,16.4686127 1.3079922,16.1131134 L1.3079922,7.08984375 C1.3079922,6.73434446 1.5966283,6.4453125 1.95126706,6.4453125 L11.906783,6.4453125 L9.96355688,8.39233398 C9.90995065,8.44604492 9.85684698,8.5200653 9.82150035,8.60768129 L8.04093567,12.890625 L4.56725146,12.890625 C4.21194263,12.890625 3.92397661,13.1791535 3.92397661,13.5351563 C3.92397661,13.8909912 4.21194263,14.1791839 4.56725146,14.1791839 L8.46945056,14.1791839 L8.46995308,14.1791839 C8.55270773,14.1791839 8.64149304,14.1622314 8.72274003,14.1273193 L13.3874878,12.1806335 C13.4652169,12.1502533 13.543616,12.0973816 13.6025828,12.0382995 L15.545809,10.0912781 L15.545809,16.1131134 Z M19.5156859,4.2904968 L17.6962567,2.46751403 L18.6060551,1.55610658 L20.4254843,3.37908936 L19.5156859,4.2904968 Z" id="Shape"></path>
            </g>
        </g>
    </g>
</svg>