<?xml version="1.0" encoding="UTF-8"?>
<svg width="20px" height="15px" viewBox="0 0 20 15" version="1.1" xmlns="http://www.w3.org/2000/svg" xmlns:xlink="http://www.w3.org/1999/xlink">
    <!-- Generator: Sketch 54.1 (76490) - https://sketchapp.com -->
    <title>envelope (3)</title>
    <desc>Created with Sketch.</desc>
    <g id="Page-1" stroke="none" stroke-width="1" fill="none" fill-rule="evenodd">
        <g id="Artboard-Copy-46" transform="translate(-34.000000, -442.000000)" fill="#FFFFFF" fill-rule="nonzero">
            <g id="envelope-(3)" transform="translate(34.000000, 442.000000)">
                <path d="M17.5330579,0.0304878049 L2.44214876,0.0304878049 C1.09504132,0.0304878049 0,1.10772358 0,2.43292683 L0,12.5792683 C0,13.9044715 1.09504132,14.9817073 2.44214876,14.9817073 L17.5289256,14.9817073 C18.8760331,14.9817073 19.9710744,13.9044715 19.9710744,12.5792683 L19.9710744,2.43699187 C19.9752066,1.11178862 18.8801653,0.0304878049 17.5330579,0.0304878049 Z M18.8595041,12.5792683 C18.8595041,13.2987805 18.2644628,13.8841463 17.5330579,13.8841463 L2.44214876,13.8841463 C1.7107438,13.8841463 1.11570248,13.2987805 1.11570248,12.5792683 L1.11570248,2.43699187 C1.11570248,1.71747967 1.7107438,1.13211382 2.44214876,1.13211382 L17.5289256,1.13211382 C18.2603306,1.13211382 18.8553719,1.71747967 18.8553719,2.43699187 L18.8553719,12.5792683 L18.8595041,12.5792683 Z" id="Shape"></path>
                <path d="M12.5950413,7.3800813 L17.4793388,3.07113821 C17.7066116,2.86788618 17.7272727,2.52235772 17.5206612,2.29471545 C17.3140496,2.07113821 16.9628099,2.05081301 16.731405,2.25406504 L9.99586777,8.20121951 L8.68181818,7.04674797 C8.67768595,7.04268293 8.67355372,7.03861789 8.67355372,7.03455285 C8.6446281,7.00609756 8.61570248,6.98170732 8.58264463,6.95731707 L3.23553719,2.25 C3.00413223,2.04674797 2.65289256,2.06707317 2.44628099,2.29471545 C2.23966942,2.52235772 2.26033058,2.86788618 2.49173554,3.07113821 L7.4338843,7.41666667 L2.51239669,11.949187 C2.2892562,12.1565041 2.2768595,12.5020325 2.48760331,12.7256098 C2.59917355,12.8394309 2.74793388,12.9004065 2.89669421,12.9004065 C3.03305785,12.9004065 3.16942149,12.851626 3.2768595,12.754065 L8.27272727,8.15650407 L9.62809917,9.34756098 C9.73553719,9.44105691 9.8677686,9.48577236 10,9.48577236 C10.1322314,9.48577236 10.268595,9.43699187 10.3719008,9.34349593 L11.7644628,8.11585366 L16.731405,12.7581301 C16.838843,12.8597561 16.9793388,12.9085366 17.1157025,12.9085366 C17.2644628,12.9085366 17.4090909,12.851626 17.5206612,12.7378049 C17.731405,12.5182927 17.7231405,12.1686992 17.5,11.9613821 L12.5950413,7.3800813 Z" id="Path"></path>
            </g>
        </g>
    </g>
</svg>