<?xml version="1.0" encoding="UTF-8"?>
<svg width="24px" height="24px" viewBox="0 0 24 24" version="1.1" xmlns="http://www.w3.org/2000/svg" xmlns:xlink="http://www.w3.org/1999/xlink">
    <!-- Generator: Sketch 54.1 (76490) - https://sketchapp.com -->
    <title>hand</title>
    <desc>Created with Sketch.</desc>
    <g id="Page-1" stroke="none" stroke-width="1" fill="none" fill-rule="evenodd">
        <g id="Artboard-Copy-46" transform="translate(-33.000000, -367.000000)" fill="#FFFFFF" fill-rule="nonzero">
            <g id="hand" transform="translate(33.000000, 367.000000)">
                <path d="M11.03125,16.2780762 C11.2138158,16.0947876 11.2138158,15.7981567 11.03125,15.6148682 C10.8485015,15.4321289 10.5524488,15.4321289 10.3695176,15.6148682 C10.1871345,15.7981567 10.1871345,16.0947876 10.3695176,16.2780762 C10.5524488,16.4608154 10.8485015,16.4608154 11.03125,16.2780762 Z" id="Path"></path>
                <path d="M8.81633773,5.15478516 C8.81633773,7.99713136 11.124269,10.3097534 13.9610746,10.3097534 C16.7978801,10.3097534 19.1058114,7.99713136 19.1058114,5.15478516 C19.1058114,2.31243895 16.7978801,0 13.9610746,0 C11.124269,0 8.81633773,2.31243895 8.81633773,5.15478516 Z M18.1705044,5.15478516 C18.1705044,7.4804077 16.2821637,9.3724365 13.9610746,9.3724365 C11.6399854,9.3724365 9.75164473,7.4804077 9.75164473,5.15478516 C9.75164473,2.8293457 11.6399854,0.937316906 13.9610746,0.937316906 C16.2821637,0.937316906 18.1705044,2.8293457 18.1705044,5.15478516 Z" id="Shape"></path>
                <path d="M5.41063598,23.8613892 C5.59192253,24.0444946 5.88706143,24.0465088 6.0707237,23.8652344 L8.33826756,21.6269531 C8.72350147,21.2409668 8.84064327,20.6694946 8.67123537,20.1727295 L9.15899125,19.701416 C9.42160089,19.4472656 9.76736112,19.30719 10.1328582,19.30719 L16.3505117,19.30719 C17.4535818,19.30719 18.4961623,18.8827515 19.2865497,18.1120605 C19.3190789,18.0803833 19.0396564,18.4101563 23.528326,13.0349121 C24.194079,12.2457276 24.094481,11.060669 23.3061038,10.3928833 C22.5226608,9.73132322 21.3490497,9.82635497 20.6814693,10.6019897 L17.9216009,13.4441528 C17.5730994,13.0144043 17.0416667,12.746521 16.4674708,12.746521 L11.2520102,12.746521 C10.5098684,12.4354248 9.72240496,12.2779541 8.90990498,12.2779541 C6.657712,12.2779541 4.69115499,13.3201904 3.63578218,15.274292 C3.19115499,15.1898804 2.72222222,15.324646 2.3848684,15.6626587 L0.159904982,17.8985596 C-0.0217470877,18.0811157 -0.0221125614,18.3764648 0.159173988,18.5595703 L5.41063598,23.8613892 Z M8.9097222,13.2150879 C9.62609647,13.2150879 10.3187135,13.3595581 10.96875,13.6444702 C11.0279605,13.6704712 11.0917398,13.6838379 11.15625,13.6838379 L16.4674708,13.6838379 C16.9745979,13.6838379 17.4029605,14.0982056 17.4029605,14.6209717 C17.4029605,15.1378784 16.9833699,15.5582886 16.4674708,15.5582886 L12.6514985,15.5582886 C12.3932749,15.5582886 12.1838451,15.7681275 12.1838451,16.0268555 C12.1838451,16.2857666 12.3932749,16.4954224 12.6514985,16.4954224 L16.4674708,16.4954224 C17.4990863,16.4954224 18.3382676,15.6546021 18.3382676,14.6209717 C18.3382676,14.5385742 18.3324196,14.4569092 18.3218202,14.3759766 C20.9915935,11.6262817 21.3680556,11.2399292 21.3841375,11.2207031 C21.7174708,10.8264771 22.3092105,10.7764893 22.7028509,11.1090088 C23.0968567,11.44281 23.1467471,12.0353393 22.8125,12.4317627 L18.6175073,17.456543 C18.0049342,18.0457763 17.2006579,18.3700561 16.3505117,18.3700561 L10.1328582,18.3700561 C9.52357455,18.3700561 8.94682016,18.6035156 8.50932019,19.0270386 L8.11184211,19.411377 L4.44773389,15.7402954 C5.30409357,14.1306152 6.91100145,13.2150879 8.9097222,13.2150879 L8.9097222,13.2150879 Z M3.04678363,16.3249512 C3.20102339,16.1704102 3.4378655,16.1425781 3.62591373,16.2590332 C3.70687135,16.3084717 3.4744152,16.0964355 7.67690058,20.3012695 C7.86385235,20.4885864 7.85380117,20.7870483 7.67945909,20.961731 L5.74634503,22.869873 L1.15076753,18.2301636 L3.04678363,16.3249512 Z" id="Shape"></path>
                <path d="M13.3998538,2.34320067 L13.3998538,2.89233398 C12.8554459,3.08569336 12.464364,3.60662841 12.464364,4.21765134 C12.464364,4.99273683 13.09375,5.62353516 13.8675073,5.62353516 C14.1253655,5.62353516 14.3351608,5.83374023 14.3351608,6.09210206 C14.3351608,6.35046384 14.1253655,6.56066897 13.8675073,6.56066897 C13.6677632,6.56066897 13.4519371,6.4348755 13.2602339,6.20617678 C13.0939327,6.00805664 12.7989766,5.98260497 12.6012427,6.14904787 C12.4035088,6.31567383 12.377924,6.61120603 12.5442251,6.80932617 C12.7942251,7.10723878 13.0882676,7.31488036 13.3998538,7.41961669 L13.3998538,7.96655273 C13.3998538,8.22546384 13.6092836,8.43511964 13.8675073,8.43511964 C14.125731,8.43511964 14.3351608,8.22546384 14.3351608,7.96655273 L14.3351608,7.41741942 C14.8795687,7.22387695 15.2706506,6.70294191 15.2706506,6.09210206 C15.2706506,5.31683348 14.6412646,4.68621825 13.8675073,4.68621825 C13.6096491,4.68621825 13.3998538,4.47601317 13.3998538,4.21765134 C13.3998538,3.95928956 13.6096491,3.74890134 13.8675073,3.74890134 C14.0332603,3.74890134 14.2081506,3.83367919 14.3733553,3.99389648 C14.5590278,4.17388917 14.8550804,4.16894531 15.0347222,3.98309325 C15.214364,3.79705809 15.2094298,3.50042723 15.0239401,3.32043459 C14.7865497,3.09027098 14.5489766,2.96008303 14.3351608,2.88903806 L14.3351608,2.34320067 C14.3351608,2.08428956 14.125731,1.87445067 13.8675073,1.87445067 C13.6092836,1.87445067 13.3998538,2.08428956 13.3998538,2.34320067 L13.3998538,2.34320067 Z" id="Path"></path>
            </g>
        </g>
    </g>
</svg>