<?xml version="1.0" encoding="UTF-8"?>
<svg width="18px" height="18px" viewBox="0 0 18 18" version="1.1" xmlns="http://www.w3.org/2000/svg" xmlns:xlink="http://www.w3.org/1999/xlink">
    <!-- Generator: Sketch 54.1 (76490) - https://sketchapp.com -->
    <title>user (4)</title>
    <desc>Created with Sketch.</desc>
    <g id="Page-1" stroke="none" stroke-width="1" fill="none" fill-rule="evenodd">
        <g id="Artboard-Copy-46" transform="translate(-34.000000, -225.000000)" fill="#FFFFFF" fill-rule="nonzero">
            <g id="user-(4)" transform="translate(34.000000, 225.000000)">
                <path d="M14.203125,5.203125 C14.203125,2.33418273 11.8689423,0 9,0 C6.13105773,0 3.796875,2.33418273 3.796875,5.203125 C3.796875,6.98016357 4.69267274,8.55175781 6.05607606,9.49095155 C4.78303527,9.93013 3.61628722,10.655777 2.63603211,11.6360321 C0.936172477,13.3358917 0,15.5960541 0,18 L1.40625,18 C1.40625,13.8128357 4.81283571,10.40625 9,10.40625 C11.8689423,10.40625 14.203125,8.07206727 14.203125,5.203125 Z M9,9 C6.90641786,9 5.203125,7.29670714 5.203125,5.203125 C5.203125,3.10954286 6.90641786,1.40625 9,1.40625 C11.0935821,1.40625 12.796875,3.10954286 12.796875,5.203125 C12.796875,7.29670714 11.0935821,9 9,9 Z M11.3203125,13.7805634 L18,13.7805634 L18,15.1868134 L11.3203125,15.1868134 L11.3203125,13.7805634 Z M18,10.96875 L18,12.375 L11.3203125,12.375 L11.3203125,10.96875 L18,10.96875 Z M11.3203125,16.59375 L18,16.59375 L18,18 L11.3203125,18 L11.3203125,16.59375 Z" id="Shape"></path>
            </g>
        </g>
    </g>
</svg>